[
    {
        "JCNDELBANBE": 1,
        "type": "AVATAR_RENAME_TYPE_WANDERER",
        "JJCIJBFNPHC": 10000075,
        "DJNJLFOCEFJ": 1301,
        "IDNNIBDNFMC": 303202,
        "KABDNPAOFPO": 303205,
        "CCOGLNFIIKB": [
            {
                "DLGJMPJICJC": "LANGUAGE_EN",
                "HNBDNGHHDAP": "Wanderer"
            },
            {
                "DLGJMPJICJC": "LANGUAGE_SC",
                "HNBDNGHHDAP": "\u6d41\u6d6a\u8005"
            },
            {
                "DLGJMPJICJC": "LANGUAGE_TC",
                "HNBDNGHHDAP": "\u6d41\u6d6a\u8005"
            },
            {
                "DLGJMPJICJC": "LANGUAGE_FR",
                "HNBDNGHHDAP": "Nomade"
            },
            {
                "DLGJMPJICJC": "LANGUAGE_DE",
                "HNBDNGHHDAP": "Wanderer"
            },
            {
                "DLGJMPJICJC": "LANGUAGE_ES",
                "HNBDNGHHDAP": "Trotamundos"
            },
            {
                "DLGJMPJICJC": "LANGUAGE_PT",
                "HNBDNGHHDAP": "Andarilho"
            },
            {
                "DLGJMPJICJC": "LANGUAGE_RU",
                "HNBDNGHHDAP": "\u0421\u0442\u0440\u0430\u043d\u043d\u0438\u043a"
            },
            {
                "DLGJMPJICJC": "LANGUAGE_JP",
                "HNBDNGHHDAP": "\u653e\u6d6a\u8005"
            },
            {
                "DLGJMPJICJC": "LANGUAGE_KR",
                "HNBDNGHHDAP": "\ubc29\ub791\uc790"
            },
            {
                "DLGJMPJICJC": "LANGUAGE_TH",
                "HNBDNGHHDAP": "\u0e1c\u0e39\u0e49\u0e1e\u0e40\u0e19\u0e08\u0e23"
            },
            {
                "DLGJMPJICJC": "LANGUAGE_VN",
                "HNBDNGHHDAP": "K\u1ebb Lang Thang"
            },
            {
                "DLGJMPJICJC": "LANGUAGE_ID",
                "HNBDNGHHDAP": "Wanderer"
            },
            {
                "DLGJMPJICJC": "LANGUAGE_TR",
                "HNBDNGHHDAP": "Avare"
            },
            {
                "DLGJMPJICJC": "LANGUAGE_IT",
                "HNBDNGHHDAP": "Vagabondo"
            }
        ],
        "FLMBALPPHJJ": "TMP_VALUE_KEY_TYPE_WANDERER_TMP_NAME",
        "GIOBFMGBOKD": [
            1,
            2,
            3,
            4,
            5,
            6
        ]
    }
]