[
    {
        "id": 1,
        "PJLLLKJMLFD": 2369789315,
        "GMDKLFLGGHB": 1320930329,
        "levelIconHash": 17589921559897201870,
        "MCCPMCOBPGL": 17589921559897201870
    },
    {
        "id": 2,
        "PJLLLKJMLFD": 2475160803,
        "GMDKLFLGGHB": 3490686193,
        "levelIconHash": 6940981919203466619,
        "MCCPMCOBPGL": 6940981919203466619
    },
    {
        "id": 3,
        "PJLLLKJMLFD": 2558497323,
        "GMDKLFLGGHB": 421575073,
        "levelIconHash": 16319387557303887512,
        "MCCPMCOBPGL": 16319387557303887512
    },
    {
        "id": 4,
        "PJLLLKJMLFD": 2151836123,
        "GMDKLFLGGHB": 2094666337,
        "levelIconHash": 15468957426301542517,
        "MCCPMCOBPGL": 15468957426301542517
    },
    {
        "id": 5,
        "PJLLLKJMLFD": 1925976699,
        "GMDKLFLGGHB": 4171241089,
        "levelIconHash": 3698308013286228015,
        "MCCPMCOBPGL": 3698308013286228015
    },
    {
        "id": 6,
        "PJLLLKJMLFD": 2189382267,
        "GMDKLFLGGHB": 3734587481,
        "levelIconHash": 1923849046949327195,
        "MCCPMCOBPGL": 1923849046949327195
    }
]