[
    {
        "Id": 101,
        "cardType": "GCG_CARD_CHARACTER",
        "PEJDNIKKJFH": "FRIENDLY",
        "LKIILDFIPKC": [
            "GCG_TAG_NONE",
            "GCG_TAG_NONE",
            "GCG_TAG_NONE"
        ],
        "FNDEJBOMHKH": [
            "GCG_TAG_NONE",
            "GCG_TAG_NONE"
        ],
        "condList": [
            {
                "type": "IS_ALIVE_CHARACTER",
                "value": 1
            },
            {
                "type": "NOT_HAS_MODIFY_STATE",
                "value": 303300
            },
            {},
            {}
        ],
        "NCIAELICOBM": [
            {
                "type": "ONSTAGE",
                "value": 1
            },
            {}
        ],
        "JLGOBEBFKDL": [
            {
                "type": "CHARACTER_ORDER",
                "AEDFPOBANLB": true
            },
            {}
        ],
        "KHOGICKNONE": 1938774220,
        "KPKBDDPHBPM": "TALENT"
    },
    {
        "Id": 102,
        "cardType": "GCG_CARD_CHARACTER",
        "PEJDNIKKJFH": "FRIENDLY",
        "LKIILDFIPKC": [
            "GCG_TAG_NONE",
            "GCG_TAG_NONE",
            "GCG_TAG_NONE"
        ],
        "FNDEJBOMHKH": [
            "GCG_TAG_NONE",
            "GCG_TAG_NONE"
        ],
        "condList": [
            {
                "type": "IS_ALIVE_CHARACTER",
                "value": 1
            },
            {
                "type": "ONSTAGE",
                "value": 1
            },
            {},
            {}
        ],
        "NCIAELICOBM": [
            {},
            {}
        ],
        "JLGOBEBFKDL": [
            {},
            {}
        ],
        "KHOGICKNONE": 2327303172,
        "KPKBDDPHBPM": "TALENT"
    },
    {
        "Id": 103,
        "cardType": "GCG_CARD_CHARACTER",
        "PEJDNIKKJFH": "FRIENDLY",
        "LKIILDFIPKC": [
            "GCG_TAG_NONE",
            "GCG_TAG_NONE",
            "GCG_TAG_NONE"
        ],
        "FNDEJBOMHKH": [
            "GCG_TAG_NONE",
            "GCG_TAG_NONE"
        ],
        "condList": [
            {
                "type": "IS_ALIVE_CHARACTER",
                "value": 1
            },
            {
                "type": "NOT_HAS_MODIFY_STATE",
                "value": 303300
            },
            {
                "type": "CHARACTER_HURT_MIN",
                "value": 1
            },
            {}
        ],
        "NCIAELICOBM": [
            {},
            {}
        ],
        "JLGOBEBFKDL": [
            {
                "type": "HP"
            },
            {}
        ],
        "KHOGICKNONE": 1150336436,
        "KPKBDDPHBPM": "HEALING"
    },
    {
        "Id": 104,
        "cardType": "GCG_CARD_CHARACTER",
        "PEJDNIKKJFH": "FRIENDLY",
        "LKIILDFIPKC": [
            "GCG_TAG_NONE",
            "GCG_TAG_NONE",
            "GCG_TAG_NONE"
        ],
        "FNDEJBOMHKH": [
            "GCG_TAG_NONE",
            "GCG_TAG_NONE"
        ],
        "condList": [
            {
                "type": "IS_ALIVE_CHARACTER",
                "value": 1
            },
            {
                "type": "ONSTAGE"
            },
            {},
            {}
        ],
        "NCIAELICOBM": [
            {},
            {}
        ],
        "JLGOBEBFKDL": [
            {},
            {}
        ],
        "KHOGICKNONE": 408186852,
        "KPKBDDPHBPM": "TALENT"
    },
    {
        "Id": 105,
        "cardType": "GCG_CARD_CHARACTER",
        "PEJDNIKKJFH": "FRIENDLY",
        "LKIILDFIPKC": [
            "GCG_TAG_NONE",
            "GCG_TAG_NONE",
            "GCG_TAG_NONE"
        ],
        "FNDEJBOMHKH": [
            "GCG_TAG_NONE",
            "GCG_TAG_NONE"
        ],
        "condList": [
            {
                "type": "IS_ALIVE_CHARACTER"
            },
            {},
            {},
            {}
        ],
        "NCIAELICOBM": [
            {},
            {}
        ],
        "JLGOBEBFKDL": [
            {},
            {}
        ],
        "KHOGICKNONE": 2365195396,
        "KPKBDDPHBPM": "HEALING"
    },
    {
        "Id": 106,
        "cardType": "GCG_CARD_CHARACTER",
        "PEJDNIKKJFH": "FRIENDLY",
        "LKIILDFIPKC": [
            "GCG_TAG_NONE",
            "GCG_TAG_NONE",
            "GCG_TAG_NONE"
        ],
        "FNDEJBOMHKH": [
            "GCG_TAG_NONE",
            "GCG_TAG_NONE"
        ],
        "condList": [
            {
                "type": "IS_ALIVE_CHARACTER",
                "value": 1
            },
            {
                "type": "ONSTAGE",
                "value": 1
            },
            {},
            {}
        ],
        "NCIAELICOBM": [
            {
                "type": "CHARACTER_NOT_CHARGED_MIN",
                "value": 1
            },
            {
                "type": "CHARACTER_NOT_CHARGED_MAX",
                "value": 1
            }
        ],
        "JLGOBEBFKDL": [
            {},
            {}
        ],
        "KHOGICKNONE": 4178679012,
        "KPKBDDPHBPM": "TALENT"
    },
    {
        "Id": 107,
        "cardType": "GCG_CARD_CHARACTER",
        "PEJDNIKKJFH": "FRIENDLY",
        "LKIILDFIPKC": [
            "GCG_TAG_NONE",
            "GCG_TAG_NONE",
            "GCG_TAG_NONE"
        ],
        "FNDEJBOMHKH": [
            "GCG_TAG_NONE",
            "GCG_TAG_NONE"
        ],
        "condList": [
            {
                "type": "IS_ALIVE_CHARACTER",
                "value": 1
            },
            {
                "type": "ONSTAGE",
                "value": 1
            },
            {},
            {}
        ],
        "NCIAELICOBM": [
            {
                "type": "CHARACTER_NOT_CHARGED_MIN",
                "value": 1
            },
            {
                "type": "CHARACTER_NOT_CHARGED_MAX",
                "value": 2
            }
        ],
        "JLGOBEBFKDL": [
            {},
            {}
        ],
        "KHOGICKNONE": 1018474292,
        "KPKBDDPHBPM": "TALENT"
    },
    {
        "Id": 108,
        "cardType": "GCG_CARD_CHARACTER",
        "PEJDNIKKJFH": "FRIENDLY",
        "LKIILDFIPKC": [
            "GCG_TAG_NONE",
            "GCG_TAG_NONE",
            "GCG_TAG_NONE"
        ],
        "FNDEJBOMHKH": [
            "GCG_TAG_NONE",
            "GCG_TAG_NONE"
        ],
        "condList": [
            {
                "type": "IS_ALIVE_CHARACTER",
                "value": 1
            },
            {
                "type": "ONSTAGE",
                "value": 1
            },
            {
                "type": "NOT_HAS_MODIFY_STATE_WITH_TAG",
                "value": 5
            },
            {}
        ],
        "NCIAELICOBM": [
            {},
            {}
        ],
        "JLGOBEBFKDL": [
            {},
            {}
        ],
        "KHOGICKNONE": 1315855148,
        "KPKBDDPHBPM": "TALENT"
    },
    {
        "Id": 110,
        "cardType": "GCG_CARD_CHARACTER",
        "PEJDNIKKJFH": "FRIENDLY",
        "LKIILDFIPKC": [
            "GCG_TAG_NONE",
            "GCG_TAG_NONE",
            "GCG_TAG_NONE"
        ],
        "FNDEJBOMHKH": [
            "GCG_TAG_NONE",
            "GCG_TAG_NONE"
        ],
        "condList": [
            {
                "type": "IS_ALIVE_CHARACTER",
                "value": 1
            },
            {},
            {},
            {}
        ],
        "NCIAELICOBM": [
            {},
            {}
        ],
        "JLGOBEBFKDL": [
            {
                "type": "CHARACTER_ORDER",
                "AEDFPOBANLB": true
            },
            {}
        ],
        "KHOGICKNONE": 343151572,
        "KPKBDDPHBPM": "RELIC"
    },
    {
        "Id": 111,
        "cardType": "GCG_CARD_CHARACTER",
        "PEJDNIKKJFH": "FRIENDLY",
        "LKIILDFIPKC": [
            "GCG_TAG_WEAPON_CATALYST",
            "GCG_TAG_NONE",
            "GCG_TAG_NONE"
        ],
        "FNDEJBOMHKH": [
            "GCG_TAG_NONE",
            "GCG_TAG_NONE"
        ],
        "condList": [
            {
                "type": "IS_ALIVE_CHARACTER",
                "value": 1
            },
            {},
            {},
            {}
        ],
        "NCIAELICOBM": [
            {},
            {}
        ],
        "JLGOBEBFKDL": [
            {
                "type": "CHARACTER_ORDER",
                "AEDFPOBANLB": true
            },
            {}
        ],
        "KHOGICKNONE": 3364576692,
        "KPKBDDPHBPM": "WEAPON"
    },
    {
        "Id": 112,
        "cardType": "GCG_CARD_CHARACTER",
        "PEJDNIKKJFH": "FRIENDLY",
        "LKIILDFIPKC": [
            "GCG_TAG_WEAPON_BOW",
            "GCG_TAG_NONE",
            "GCG_TAG_NONE"
        ],
        "FNDEJBOMHKH": [
            "GCG_TAG_NONE",
            "GCG_TAG_NONE"
        ],
        "condList": [
            {
                "type": "IS_ALIVE_CHARACTER",
                "value": 1
            },
            {},
            {},
            {}
        ],
        "NCIAELICOBM": [
            {},
            {}
        ],
        "JLGOBEBFKDL": [
            {
                "type": "CHARACTER_ORDER",
                "AEDFPOBANLB": true
            },
            {}
        ],
        "KHOGICKNONE": 2633066588,
        "KPKBDDPHBPM": "WEAPON"
    },
    {
        "Id": 113,
        "cardType": "GCG_CARD_CHARACTER",
        "PEJDNIKKJFH": "FRIENDLY",
        "LKIILDFIPKC": [
            "GCG_TAG_WEAPON_CLAYMORE",
            "GCG_TAG_NONE",
            "GCG_TAG_NONE"
        ],
        "FNDEJBOMHKH": [
            "GCG_TAG_NONE",
            "GCG_TAG_NONE"
        ],
        "condList": [
            {
                "type": "IS_ALIVE_CHARACTER",
                "value": 1
            },
            {},
            {},
            {}
        ],
        "NCIAELICOBM": [
            {},
            {}
        ],
        "JLGOBEBFKDL": [
            {
                "type": "CHARACTER_ORDER",
                "AEDFPOBANLB": true
            },
            {}
        ],
        "KHOGICKNONE": 2360075052,
        "KPKBDDPHBPM": "WEAPON"
    },
    {
        "Id": 114,
        "cardType": "GCG_CARD_CHARACTER",
        "PEJDNIKKJFH": "FRIENDLY",
        "LKIILDFIPKC": [
            "GCG_TAG_WEAPON_POLE",
            "GCG_TAG_NONE",
            "GCG_TAG_NONE"
        ],
        "FNDEJBOMHKH": [
            "GCG_TAG_NONE",
            "GCG_TAG_NONE"
        ],
        "condList": [
            {
                "type": "IS_ALIVE_CHARACTER",
                "value": 1
            },
            {},
            {},
            {}
        ],
        "NCIAELICOBM": [
            {},
            {}
        ],
        "JLGOBEBFKDL": [
            {
                "type": "CHARACTER_ORDER",
                "AEDFPOBANLB": true
            },
            {}
        ],
        "KHOGICKNONE": 3688410436,
        "KPKBDDPHBPM": "WEAPON"
    },
    {
        "Id": 115,
        "cardType": "GCG_CARD_CHARACTER",
        "PEJDNIKKJFH": "FRIENDLY",
        "LKIILDFIPKC": [
            "GCG_TAG_WEAPON_SWORD",
            "GCG_TAG_NONE",
            "GCG_TAG_NONE"
        ],
        "FNDEJBOMHKH": [
            "GCG_TAG_NONE",
            "GCG_TAG_NONE"
        ],
        "condList": [
            {
                "type": "IS_ALIVE_CHARACTER",
                "value": 1
            },
            {},
            {},
            {}
        ],
        "NCIAELICOBM": [
            {},
            {}
        ],
        "JLGOBEBFKDL": [
            {
                "type": "CHARACTER_ORDER",
                "AEDFPOBANLB": true
            },
            {}
        ],
        "KHOGICKNONE": 4107010156,
        "KPKBDDPHBPM": "WEAPON"
    },
    {
        "Id": 121,
        "cardType": "GCG_CARD_CHARACTER",
        "PEJDNIKKJFH": "FRIENDLY",
        "LKIILDFIPKC": [
            "GCG_TAG_NONE",
            "GCG_TAG_NONE",
            "GCG_TAG_NONE"
        ],
        "FNDEJBOMHKH": [
            "GCG_TAG_ELEMENT_CRYO",
            "GCG_TAG_NONE"
        ],
        "condList": [
            {
                "type": "IS_ALIVE_CHARACTER",
                "value": 1
            },
            {},
            {},
            {}
        ],
        "NCIAELICOBM": [
            {},
            {}
        ],
        "JLGOBEBFKDL": [
            {
                "type": "HAS_TAG",
                "AEDFPOBANLB": true,
                "JLIILFDPKNB": "GCG_TAG_ELEMENT_CRYO"
            },
            {
                "type": "CHARACTER_ORDER",
                "AEDFPOBANLB": true
            }
        ],
        "KHOGICKNONE": 1498887420,
        "KPKBDDPHBPM": "RELIC"
    },
    {
        "Id": 122,
        "cardType": "GCG_CARD_CHARACTER",
        "PEJDNIKKJFH": "FRIENDLY",
        "LKIILDFIPKC": [
            "GCG_TAG_NONE",
            "GCG_TAG_NONE",
            "GCG_TAG_NONE"
        ],
        "FNDEJBOMHKH": [
            "GCG_TAG_ELEMENT_HYDRO",
            "GCG_TAG_NONE"
        ],
        "condList": [
            {
                "type": "IS_ALIVE_CHARACTER",
                "value": 1
            },
            {},
            {},
            {}
        ],
        "NCIAELICOBM": [
            {},
            {}
        ],
        "JLGOBEBFKDL": [
            {
                "type": "HAS_TAG",
                "AEDFPOBANLB": true,
                "JLIILFDPKNB": "GCG_TAG_ELEMENT_HYDRO"
            },
            {
                "type": "CHARACTER_ORDER",
                "AEDFPOBANLB": true
            }
        ],
        "KHOGICKNONE": 1901741212,
        "KPKBDDPHBPM": "RELIC"
    },
    {
        "Id": 123,
        "cardType": "GCG_CARD_CHARACTER",
        "PEJDNIKKJFH": "FRIENDLY",
        "LKIILDFIPKC": [
            "GCG_TAG_NONE",
            "GCG_TAG_NONE",
            "GCG_TAG_NONE"
        ],
        "FNDEJBOMHKH": [
            "GCG_TAG_ELEMENT_PYRO",
            "GCG_TAG_NONE"
        ],
        "condList": [
            {
                "type": "IS_ALIVE_CHARACTER",
                "value": 1
            },
            {},
            {},
            {}
        ],
        "NCIAELICOBM": [
            {},
            {}
        ],
        "JLGOBEBFKDL": [
            {
                "type": "HAS_TAG",
                "AEDFPOBANLB": true,
                "JLIILFDPKNB": "GCG_TAG_ELEMENT_PYRO"
            },
            {
                "type": "CHARACTER_ORDER",
                "AEDFPOBANLB": true
            }
        ],
        "KHOGICKNONE": 4215312612,
        "KPKBDDPHBPM": "RELIC"
    },
    {
        "Id": 124,
        "cardType": "GCG_CARD_CHARACTER",
        "PEJDNIKKJFH": "FRIENDLY",
        "LKIILDFIPKC": [
            "GCG_TAG_NONE",
            "GCG_TAG_NONE",
            "GCG_TAG_NONE"
        ],
        "FNDEJBOMHKH": [
            "GCG_TAG_ELEMENT_ELECTRO",
            "GCG_TAG_NONE"
        ],
        "condList": [
            {
                "type": "IS_ALIVE_CHARACTER",
                "value": 1
            },
            {},
            {},
            {}
        ],
        "NCIAELICOBM": [
            {},
            {}
        ],
        "JLGOBEBFKDL": [
            {
                "type": "HAS_TAG",
                "AEDFPOBANLB": true,
                "JLIILFDPKNB": "GCG_TAG_ELEMENT_ELECTRO"
            },
            {
                "type": "CHARACTER_ORDER",
                "AEDFPOBANLB": true
            }
        ],
        "KHOGICKNONE": 1021508316,
        "KPKBDDPHBPM": "RELIC"
    },
    {
        "Id": 125,
        "cardType": "GCG_CARD_CHARACTER",
        "PEJDNIKKJFH": "FRIENDLY",
        "LKIILDFIPKC": [
            "GCG_TAG_NONE",
            "GCG_TAG_NONE",
            "GCG_TAG_NONE"
        ],
        "FNDEJBOMHKH": [
            "GCG_TAG_ELEMENT_ANEMO",
            "GCG_TAG_NONE"
        ],
        "condList": [
            {
                "type": "IS_ALIVE_CHARACTER",
                "value": 1
            },
            {},
            {},
            {}
        ],
        "NCIAELICOBM": [
            {},
            {}
        ],
        "JLGOBEBFKDL": [
            {
                "type": "HAS_TAG",
                "AEDFPOBANLB": true,
                "JLIILFDPKNB": "GCG_TAG_ELEMENT_ANEMO"
            },
            {
                "type": "CHARACTER_ORDER",
                "AEDFPOBANLB": true
            }
        ],
        "KHOGICKNONE": 2144580860,
        "KPKBDDPHBPM": "RELIC"
    },
    {
        "Id": 126,
        "cardType": "GCG_CARD_CHARACTER",
        "PEJDNIKKJFH": "FRIENDLY",
        "LKIILDFIPKC": [
            "GCG_TAG_NONE",
            "GCG_TAG_NONE",
            "GCG_TAG_NONE"
        ],
        "FNDEJBOMHKH": [
            "GCG_TAG_ELEMENT_GEO",
            "GCG_TAG_NONE"
        ],
        "condList": [
            {
                "type": "IS_ALIVE_CHARACTER",
                "value": 1
            },
            {},
            {},
            {}
        ],
        "NCIAELICOBM": [
            {},
            {}
        ],
        "JLGOBEBFKDL": [
            {
                "type": "HAS_TAG",
                "AEDFPOBANLB": true,
                "JLIILFDPKNB": "GCG_TAG_ELEMENT_GEO"
            },
            {
                "type": "CHARACTER_ORDER",
                "AEDFPOBANLB": true
            }
        ],
        "KHOGICKNONE": 3052576212,
        "KPKBDDPHBPM": "RELIC"
    },
    {
        "Id": 127,
        "cardType": "GCG_CARD_CHARACTER",
        "PEJDNIKKJFH": "FRIENDLY",
        "LKIILDFIPKC": [
            "GCG_TAG_NONE",
            "GCG_TAG_NONE",
            "GCG_TAG_NONE"
        ],
        "FNDEJBOMHKH": [
            "GCG_TAG_ELEMENT_DENDRO",
            "GCG_TAG_NONE"
        ],
        "condList": [
            {
                "type": "IS_ALIVE_CHARACTER",
                "value": 1
            },
            {},
            {},
            {}
        ],
        "NCIAELICOBM": [
            {},
            {}
        ],
        "JLGOBEBFKDL": [
            {
                "type": "HAS_TAG",
                "AEDFPOBANLB": true,
                "JLIILFDPKNB": "GCG_TAG_ELEMENT_DENDRO"
            },
            {
                "type": "CHARACTER_ORDER",
                "AEDFPOBANLB": true
            }
        ],
        "KHOGICKNONE": 882895236,
        "KPKBDDPHBPM": "RELIC"
    },
    {
        "Id": 151,
        "cardType": "GCG_CARD_CHARACTER",
        "PEJDNIKKJFH": "FRIENDLY",
        "LKIILDFIPKC": [
            "GCG_TAG_NONE",
            "GCG_TAG_NONE",
            "GCG_TAG_NONE"
        ],
        "FNDEJBOMHKH": [
            "GCG_TAG_NONE",
            "GCG_TAG_NONE"
        ],
        "condList": [
            {
                "type": "IS_ALIVE_CHARACTER",
                "value": 1
            },
            {
                "type": "HAS_MODIFY_STATE_WITH_TAG",
                "value": 3
            },
            {
                "type": "SAME_WEAPON_TYPE_CHAR_COUNT",
                "value": 1
            },
            {}
        ],
        "NCIAELICOBM": [
            {},
            {}
        ],
        "JLGOBEBFKDL": [
            {
                "type": "HP",
                "AEDFPOBANLB": true
            },
            {
                "type": "CHARACTER_ORDER",
                "AEDFPOBANLB": true
            }
        ],
        "KHOGICKNONE": 3784009956
    },
    {
        "Id": 152,
        "cardType": "GCG_CARD_CHARACTER",
        "PEJDNIKKJFH": "FRIENDLY",
        "LKIILDFIPKC": [
            "GCG_TAG_NONE",
            "GCG_TAG_NONE",
            "GCG_TAG_NONE"
        ],
        "FNDEJBOMHKH": [
            "GCG_TAG_NONE",
            "GCG_TAG_NONE"
        ],
        "condList": [
            {
                "type": "IS_ALIVE_CHARACTER",
                "value": 1
            },
            {
                "type": "SAME_WEAPON_TYPE_WITH",
                "value": 1
            },
            {},
            {}
        ],
        "NCIAELICOBM": [
            {},
            {}
        ],
        "JLGOBEBFKDL": [
            {
                "type": "HP",
                "AEDFPOBANLB": true
            },
            {
                "type": "CHARACTER_ORDER",
                "AEDFPOBANLB": true
            }
        ],
        "KHOGICKNONE": 2524648828,
        "KPKBDDPHBPM": "WEAPON"
    },
    {
        "Id": 153,
        "cardType": "GCG_CARD_CHARACTER",
        "PEJDNIKKJFH": "FRIENDLY",
        "LKIILDFIPKC": [
            "GCG_TAG_NONE",
            "GCG_TAG_NONE",
            "GCG_TAG_NONE"
        ],
        "FNDEJBOMHKH": [
            "GCG_TAG_NONE",
            "GCG_TAG_NONE"
        ],
        "condList": [
            {
                "type": "IS_ALIVE_CHARACTER",
                "value": 1
            },
            {
                "type": "HAS_MODIFY_STATE_WITH_TAG",
                "value": 4
            },
            {
                "type": "ALIVE_CHAR_COUNT",
                "value": 1
            },
            {}
        ],
        "NCIAELICOBM": [
            {},
            {}
        ],
        "JLGOBEBFKDL": [
            {
                "type": "HP",
                "AEDFPOBANLB": true
            },
            {
                "type": "CHARACTER_ORDER",
                "AEDFPOBANLB": true
            }
        ],
        "KHOGICKNONE": 2511338772
    },
    {
        "Id": 154,
        "cardType": "GCG_CARD_CHARACTER",
        "PEJDNIKKJFH": "FRIENDLY",
        "LKIILDFIPKC": [
            "GCG_TAG_NONE",
            "GCG_TAG_NONE",
            "GCG_TAG_NONE"
        ],
        "FNDEJBOMHKH": [
            "GCG_TAG_NONE",
            "GCG_TAG_NONE"
        ],
        "condList": [
            {
                "type": "IS_ALIVE_CHARACTER",
                "value": 1
            },
            {},
            {},
            {}
        ],
        "NCIAELICOBM": [
            {},
            {}
        ],
        "JLGOBEBFKDL": [
            {
                "type": "HP",
                "AEDFPOBANLB": true
            },
            {
                "type": "CHARACTER_ORDER",
                "AEDFPOBANLB": true
            }
        ],
        "KHOGICKNONE": 527777572,
        "KPKBDDPHBPM": "RELIC"
    },
    {
        "Id": 501,
        "cardType": "GCG_CARD_SUMMON",
        "PEJDNIKKJFH": "FRIENDLY",
        "LKIILDFIPKC": [
            "GCG_TAG_NONE",
            "GCG_TAG_NONE",
            "GCG_TAG_NONE"
        ],
        "FNDEJBOMHKH": [
            "GCG_TAG_NONE",
            "GCG_TAG_NONE"
        ],
        "condList": [
            {},
            {},
            {},
            {}
        ],
        "NCIAELICOBM": [
            {},
            {}
        ],
        "JLGOBEBFKDL": [
            {
                "type": "TOKEN_TO_SHOW"
            },
            {
                "type": "CREATE_ORDER",
                "AEDFPOBANLB": true
            }
        ],
        "KHOGICKNONE": 1056180972,
        "KPKBDDPHBPM": "TALENT"
    },
    {
        "Id": 502,
        "cardType": "GCG_CARD_SUMMON",
        "PEJDNIKKJFH": "ENEMY",
        "LKIILDFIPKC": [
            "GCG_TAG_NONE",
            "GCG_TAG_NONE",
            "GCG_TAG_NONE"
        ],
        "FNDEJBOMHKH": [
            "GCG_TAG_NONE",
            "GCG_TAG_NONE"
        ],
        "condList": [
            {},
            {},
            {},
            {}
        ],
        "NCIAELICOBM": [
            {},
            {}
        ],
        "JLGOBEBFKDL": [
            {
                "type": "TOKEN_TO_SHOW",
                "AEDFPOBANLB": true
            },
            {
                "type": "CREATE_ORDER"
            }
        ],
        "KHOGICKNONE": 2424549932,
        "KPKBDDPHBPM": "TALENT"
    },
    {
        "Id": 1001,
        "cardType": "GCG_CARD_CHARACTER",
        "PEJDNIKKJFH": "FRIENDLY",
        "LKIILDFIPKC": [
            "GCG_TAG_NONE",
            "GCG_TAG_NONE",
            "GCG_TAG_NONE"
        ],
        "FNDEJBOMHKH": [
            "GCG_TAG_NONE",
            "GCG_TAG_NONE"
        ],
        "condList": [
            {
                "type": "IS_ALIVE_CHARACTER",
                "value": 1
            },
            {
                "type": "CARD",
                "value": 1403
            },
            {
                "type": "NOT_HAS_MODIFY_STATE_WITH_TAG",
                "value": 5
            },
            {}
        ],
        "NCIAELICOBM": [
            {},
            {}
        ],
        "JLGOBEBFKDL": [
            {},
            {}
        ],
        "KHOGICKNONE": 1697191692,
        "KPKBDDPHBPM": "TALENT"
    },
    {
        "Id": 1002,
        "cardType": "GCG_CARD_CHARACTER",
        "PEJDNIKKJFH": "FRIENDLY",
        "LKIILDFIPKC": [
            "GCG_TAG_NONE",
            "GCG_TAG_NONE",
            "GCG_TAG_NONE"
        ],
        "FNDEJBOMHKH": [
            "GCG_TAG_NONE",
            "GCG_TAG_NONE"
        ],
        "condList": [
            {
                "type": "IS_ALIVE_CHARACTER",
                "value": 1
            },
            {
                "type": "CARD",
                "value": 1105
            },
            {},
            {}
        ],
        "NCIAELICOBM": [
            {},
            {}
        ],
        "JLGOBEBFKDL": [
            {},
            {}
        ],
        "KHOGICKNONE": 3834140836,
        "KPKBDDPHBPM": "TALENT"
    },
    {
        "Id": 11101,
        "cardType": "GCG_CARD_CHARACTER",
        "PEJDNIKKJFH": "FRIENDLY",
        "LKIILDFIPKC": [
            "GCG_TAG_NONE",
            "GCG_TAG_NONE",
            "GCG_TAG_NONE"
        ],
        "FNDEJBOMHKH": [
            "GCG_TAG_NONE",
            "GCG_TAG_NONE"
        ],
        "condList": [
            {
                "type": "IS_ALIVE_CHARACTER",
                "value": 1
            },
            {
                "type": "CARD",
                "value": 1101
            },
            {
                "type": "NOT_HAS_MODIFY_STATE_WITH_TAG",
                "value": 5
            },
            {
                "type": "ONSTAGE",
                "value": 1
            }
        ],
        "NCIAELICOBM": [
            {},
            {}
        ],
        "JLGOBEBFKDL": [
            {},
            {}
        ],
        "KHOGICKNONE": 3363485348,
        "KPKBDDPHBPM": "TALENT"
    },
    {
        "Id": 11102,
        "cardType": "GCG_CARD_CHARACTER",
        "PEJDNIKKJFH": "FRIENDLY",
        "LKIILDFIPKC": [
            "GCG_TAG_NONE",
            "GCG_TAG_NONE",
            "GCG_TAG_NONE"
        ],
        "FNDEJBOMHKH": [
            "GCG_TAG_NONE",
            "GCG_TAG_NONE"
        ],
        "condList": [
            {
                "type": "IS_ALIVE_CHARACTER",
                "value": 1
            },
            {
                "type": "CARD",
                "value": 1102
            },
            {
                "type": "NOT_HAS_MODIFY_STATE_WITH_TAG",
                "value": 5
            },
            {
                "type": "ONSTAGE",
                "value": 1
            }
        ],
        "NCIAELICOBM": [
            {},
            {}
        ],
        "JLGOBEBFKDL": [
            {},
            {}
        ],
        "KHOGICKNONE": 1618102308,
        "KPKBDDPHBPM": "TALENT"
    },
    {
        "Id": 11103,
        "cardType": "GCG_CARD_CHARACTER",
        "PEJDNIKKJFH": "FRIENDLY",
        "LKIILDFIPKC": [
            "GCG_TAG_NONE",
            "GCG_TAG_NONE",
            "GCG_TAG_NONE"
        ],
        "FNDEJBOMHKH": [
            "GCG_TAG_NONE",
            "GCG_TAG_NONE"
        ],
        "condList": [
            {
                "type": "IS_ALIVE_CHARACTER",
                "value": 1
            },
            {
                "type": "CARD",
                "value": 1103
            },
            {
                "type": "NOT_HAS_MODIFY_STATE_WITH_TAG",
                "value": 5
            },
            {
                "type": "ONSTAGE",
                "value": 1
            }
        ],
        "NCIAELICOBM": [
            {},
            {}
        ],
        "JLGOBEBFKDL": [
            {},
            {}
        ],
        "KHOGICKNONE": 995450124,
        "KPKBDDPHBPM": "TALENT"
    },
    {
        "Id": 11104,
        "cardType": "GCG_CARD_CHARACTER",
        "PEJDNIKKJFH": "FRIENDLY",
        "LKIILDFIPKC": [
            "GCG_TAG_NONE",
            "GCG_TAG_NONE",
            "GCG_TAG_NONE"
        ],
        "FNDEJBOMHKH": [
            "GCG_TAG_NONE",
            "GCG_TAG_NONE"
        ],
        "condList": [
            {
                "type": "IS_ALIVE_CHARACTER",
                "value": 1
            },
            {
                "type": "CARD",
                "value": 1104
            },
            {
                "type": "NOT_HAS_MODIFY_STATE_WITH_TAG",
                "value": 5
            },
            {
                "type": "ONSTAGE",
                "value": 1
            }
        ],
        "NCIAELICOBM": [
            {},
            {}
        ],
        "JLGOBEBFKDL": [
            {},
            {}
        ],
        "KHOGICKNONE": 741451804,
        "KPKBDDPHBPM": "TALENT"
    },
    {
        "Id": 11105,
        "cardType": "GCG_CARD_CHARACTER",
        "PEJDNIKKJFH": "FRIENDLY",
        "LKIILDFIPKC": [
            "GCG_TAG_NONE",
            "GCG_TAG_NONE",
            "GCG_TAG_NONE"
        ],
        "FNDEJBOMHKH": [
            "GCG_TAG_NONE",
            "GCG_TAG_NONE"
        ],
        "condList": [
            {
                "type": "IS_ALIVE_CHARACTER",
                "value": 1
            },
            {
                "type": "CARD",
                "value": 1105
            },
            {
                "type": "NOT_HAS_MODIFY_STATE_WITH_TAG",
                "value": 5
            },
            {
                "type": "ONSTAGE",
                "value": 1
            }
        ],
        "NCIAELICOBM": [
            {},
            {}
        ],
        "JLGOBEBFKDL": [
            {},
            {}
        ],
        "KHOGICKNONE": 1092165748,
        "KPKBDDPHBPM": "TALENT"
    },
    {
        "Id": 11106,
        "cardType": "GCG_CARD_CHARACTER",
        "PEJDNIKKJFH": "FRIENDLY",
        "LKIILDFIPKC": [
            "GCG_TAG_NONE",
            "GCG_TAG_NONE",
            "GCG_TAG_NONE"
        ],
        "FNDEJBOMHKH": [
            "GCG_TAG_NONE",
            "GCG_TAG_NONE"
        ],
        "condList": [
            {
                "type": "IS_ALIVE_CHARACTER",
                "value": 1
            },
            {
                "type": "CARD",
                "value": 1106
            },
            {
                "type": "NOT_HAS_MODIFY_STATE_WITH_TAG",
                "value": 5
            },
            {
                "type": "ONSTAGE",
                "value": 1
            }
        ],
        "NCIAELICOBM": [
            {},
            {}
        ],
        "JLGOBEBFKDL": [
            {},
            {}
        ],
        "KHOGICKNONE": 2241829988,
        "KPKBDDPHBPM": "TALENT"
    },
    {
        "Id": 11201,
        "cardType": "GCG_CARD_CHARACTER",
        "PEJDNIKKJFH": "FRIENDLY",
        "LKIILDFIPKC": [
            "GCG_TAG_NONE",
            "GCG_TAG_NONE",
            "GCG_TAG_NONE"
        ],
        "FNDEJBOMHKH": [
            "GCG_TAG_NONE",
            "GCG_TAG_NONE"
        ],
        "condList": [
            {
                "type": "IS_ALIVE_CHARACTER",
                "value": 1
            },
            {
                "type": "CARD",
                "value": 1201
            },
            {
                "type": "NOT_HAS_MODIFY_STATE_WITH_TAG",
                "value": 5
            },
            {
                "type": "ONSTAGE",
                "value": 1
            }
        ],
        "NCIAELICOBM": [
            {},
            {}
        ],
        "JLGOBEBFKDL": [
            {},
            {}
        ],
        "KHOGICKNONE": 3891514388,
        "KPKBDDPHBPM": "TALENT"
    },
    {
        "Id": 11202,
        "cardType": "GCG_CARD_CHARACTER",
        "PEJDNIKKJFH": "FRIENDLY",
        "LKIILDFIPKC": [
            "GCG_TAG_NONE",
            "GCG_TAG_NONE",
            "GCG_TAG_NONE"
        ],
        "FNDEJBOMHKH": [
            "GCG_TAG_NONE",
            "GCG_TAG_NONE"
        ],
        "condList": [
            {
                "type": "IS_ALIVE_CHARACTER",
                "value": 1
            },
            {
                "type": "CARD",
                "value": 1202
            },
            {
                "type": "NOT_HAS_MODIFY_STATE_WITH_TAG",
                "value": 5
            },
            {
                "type": "ONSTAGE",
                "value": 1
            }
        ],
        "NCIAELICOBM": [
            {},
            {}
        ],
        "JLGOBEBFKDL": [
            {},
            {}
        ],
        "KHOGICKNONE": 2462697340,
        "KPKBDDPHBPM": "TALENT"
    },
    {
        "Id": 11203,
        "cardType": "GCG_CARD_CHARACTER",
        "PEJDNIKKJFH": "FRIENDLY",
        "LKIILDFIPKC": [
            "GCG_TAG_NONE",
            "GCG_TAG_NONE",
            "GCG_TAG_NONE"
        ],
        "FNDEJBOMHKH": [
            "GCG_TAG_NONE",
            "GCG_TAG_NONE"
        ],
        "condList": [
            {
                "type": "IS_ALIVE_CHARACTER",
                "value": 1
            },
            {
                "type": "CARD",
                "value": 1203
            },
            {
                "type": "NOT_HAS_MODIFY_STATE_WITH_TAG",
                "value": 5
            },
            {
                "type": "ONSTAGE",
                "value": 1
            }
        ],
        "NCIAELICOBM": [
            {},
            {}
        ],
        "JLGOBEBFKDL": [
            {},
            {}
        ],
        "KHOGICKNONE": 1940476828,
        "KPKBDDPHBPM": "TALENT"
    },
    {
        "Id": 11205,
        "cardType": "GCG_CARD_CHARACTER",
        "PEJDNIKKJFH": "FRIENDLY",
        "LKIILDFIPKC": [
            "GCG_TAG_NONE",
            "GCG_TAG_NONE",
            "GCG_TAG_NONE"
        ],
        "FNDEJBOMHKH": [
            "GCG_TAG_NONE",
            "GCG_TAG_NONE"
        ],
        "condList": [
            {
                "type": "IS_ALIVE_CHARACTER",
                "value": 1
            },
            {
                "type": "CARD",
                "value": 1205
            },
            {
                "type": "NOT_HAS_MODIFY_STATE_WITH_TAG",
                "value": 5
            },
            {
                "type": "ONSTAGE",
                "value": 1
            }
        ],
        "NCIAELICOBM": [
            {},
            {}
        ],
        "JLGOBEBFKDL": [
            {},
            {}
        ],
        "KHOGICKNONE": 21308412,
        "KPKBDDPHBPM": "TALENT"
    },
    {
        "Id": 11301,
        "cardType": "GCG_CARD_CHARACTER",
        "PEJDNIKKJFH": "FRIENDLY",
        "LKIILDFIPKC": [
            "GCG_TAG_NONE",
            "GCG_TAG_NONE",
            "GCG_TAG_NONE"
        ],
        "FNDEJBOMHKH": [
            "GCG_TAG_NONE",
            "GCG_TAG_NONE"
        ],
        "condList": [
            {
                "type": "IS_ALIVE_CHARACTER",
                "value": 1
            },
            {
                "type": "CARD",
                "value": 1301
            },
            {
                "type": "NOT_HAS_MODIFY_STATE_WITH_TAG",
                "value": 5
            },
            {
                "type": "ONSTAGE",
                "value": 1
            }
        ],
        "NCIAELICOBM": [
            {},
            {}
        ],
        "JLGOBEBFKDL": [
            {},
            {}
        ],
        "KHOGICKNONE": 2187416700,
        "KPKBDDPHBPM": "TALENT"
    },
    {
        "Id": 11302,
        "cardType": "GCG_CARD_CHARACTER",
        "PEJDNIKKJFH": "FRIENDLY",
        "LKIILDFIPKC": [
            "GCG_TAG_NONE",
            "GCG_TAG_NONE",
            "GCG_TAG_NONE"
        ],
        "FNDEJBOMHKH": [
            "GCG_TAG_NONE",
            "GCG_TAG_NONE"
        ],
        "condList": [
            {
                "type": "IS_ALIVE_CHARACTER",
                "value": 1
            },
            {
                "type": "CARD",
                "value": 1302
            },
            {
                "type": "NOT_HAS_MODIFY_STATE_WITH_TAG",
                "value": 5
            },
            {
                "type": "ONSTAGE",
                "value": 1
            }
        ],
        "NCIAELICOBM": [
            {},
            {}
        ],
        "JLGOBEBFKDL": [
            {},
            {}
        ],
        "KHOGICKNONE": 569355852,
        "KPKBDDPHBPM": "TALENT"
    },
    {
        "Id": 11303,
        "cardType": "GCG_CARD_CHARACTER",
        "PEJDNIKKJFH": "FRIENDLY",
        "LKIILDFIPKC": [
            "GCG_TAG_NONE",
            "GCG_TAG_NONE",
            "GCG_TAG_NONE"
        ],
        "FNDEJBOMHKH": [
            "GCG_TAG_NONE",
            "GCG_TAG_NONE"
        ],
        "condList": [
            {
                "type": "IS_ALIVE_CHARACTER",
                "value": 1
            },
            {
                "type": "CARD",
                "value": 1303
            },
            {
                "type": "NOT_HAS_MODIFY_STATE_WITH_TAG",
                "value": 5
            },
            {
                "type": "ONSTAGE",
                "value": 1
            }
        ],
        "NCIAELICOBM": [
            {},
            {}
        ],
        "JLGOBEBFKDL": [
            {},
            {}
        ],
        "KHOGICKNONE": 2306117116,
        "KPKBDDPHBPM": "TALENT"
    },
    {
        "Id": 11305,
        "cardType": "GCG_CARD_CHARACTER",
        "PEJDNIKKJFH": "FRIENDLY",
        "LKIILDFIPKC": [
            "GCG_TAG_NONE",
            "GCG_TAG_NONE",
            "GCG_TAG_NONE"
        ],
        "FNDEJBOMHKH": [
            "GCG_TAG_NONE",
            "GCG_TAG_NONE"
        ],
        "condList": [
            {
                "type": "IS_ALIVE_CHARACTER",
                "value": 1
            },
            {
                "type": "CARD",
                "value": 1305
            },
            {
                "type": "NOT_HAS_MODIFY_STATE_WITH_TAG",
                "value": 5
            },
            {
                "type": "ONSTAGE",
                "value": 1
            }
        ],
        "NCIAELICOBM": [
            {},
            {}
        ],
        "JLGOBEBFKDL": [
            {},
            {}
        ],
        "KHOGICKNONE": 1271786756,
        "KPKBDDPHBPM": "TALENT"
    },
    {
        "Id": 11306,
        "cardType": "GCG_CARD_CHARACTER",
        "PEJDNIKKJFH": "FRIENDLY",
        "LKIILDFIPKC": [
            "GCG_TAG_NONE",
            "GCG_TAG_NONE",
            "GCG_TAG_NONE"
        ],
        "FNDEJBOMHKH": [
            "GCG_TAG_NONE",
            "GCG_TAG_NONE"
        ],
        "condList": [
            {
                "type": "IS_ALIVE_CHARACTER",
                "value": 1
            },
            {
                "type": "CARD",
                "value": 1306
            },
            {
                "type": "NOT_HAS_MODIFY_STATE_WITH_TAG",
                "value": 5
            },
            {
                "type": "ONSTAGE",
                "value": 1
            }
        ],
        "NCIAELICOBM": [
            {},
            {}
        ],
        "JLGOBEBFKDL": [
            {},
            {}
        ],
        "KHOGICKNONE": 636341932,
        "KPKBDDPHBPM": "TALENT"
    },
    {
        "Id": 11401,
        "cardType": "GCG_CARD_CHARACTER",
        "PEJDNIKKJFH": "FRIENDLY",
        "LKIILDFIPKC": [
            "GCG_TAG_NONE",
            "GCG_TAG_NONE",
            "GCG_TAG_NONE"
        ],
        "FNDEJBOMHKH": [
            "GCG_TAG_NONE",
            "GCG_TAG_NONE"
        ],
        "condList": [
            {
                "type": "IS_ALIVE_CHARACTER",
                "value": 1
            },
            {
                "type": "CARD",
                "value": 1401
            },
            {
                "type": "NOT_HAS_MODIFY_STATE_WITH_TAG",
                "value": 5
            },
            {
                "type": "ONSTAGE",
                "value": 1
            }
        ],
        "NCIAELICOBM": [
            {},
            {}
        ],
        "JLGOBEBFKDL": [
            {},
            {}
        ],
        "KHOGICKNONE": 2222741388,
        "KPKBDDPHBPM": "TALENT"
    },
    {
        "Id": 11402,
        "cardType": "GCG_CARD_CHARACTER",
        "PEJDNIKKJFH": "FRIENDLY",
        "LKIILDFIPKC": [
            "GCG_TAG_NONE",
            "GCG_TAG_NONE",
            "GCG_TAG_NONE"
        ],
        "FNDEJBOMHKH": [
            "GCG_TAG_NONE",
            "GCG_TAG_NONE"
        ],
        "condList": [
            {
                "type": "IS_ALIVE_CHARACTER",
                "value": 1
            },
            {
                "type": "CARD",
                "value": 1402
            },
            {
                "type": "NOT_HAS_MODIFY_STATE_WITH_TAG",
                "value": 5
            },
            {
                "type": "ONSTAGE",
                "value": 1
            }
        ],
        "NCIAELICOBM": [
            {},
            {}
        ],
        "JLGOBEBFKDL": [
            {},
            {}
        ],
        "KHOGICKNONE": 2252053156,
        "KPKBDDPHBPM": "TALENT"
    },
    {
        "Id": 11403,
        "cardType": "GCG_CARD_CHARACTER",
        "PEJDNIKKJFH": "FRIENDLY",
        "LKIILDFIPKC": [
            "GCG_TAG_NONE",
            "GCG_TAG_NONE",
            "GCG_TAG_NONE"
        ],
        "FNDEJBOMHKH": [
            "GCG_TAG_NONE",
            "GCG_TAG_NONE"
        ],
        "condList": [
            {
                "type": "IS_ALIVE_CHARACTER",
                "value": 1
            },
            {
                "type": "CARD",
                "value": 1403
            },
            {
                "type": "NOT_HAS_MODIFY_STATE_WITH_TAG",
                "value": 5
            },
            {
                "type": "ONSTAGE",
                "value": 1
            }
        ],
        "NCIAELICOBM": [
            {},
            {}
        ],
        "JLGOBEBFKDL": [
            {},
            {}
        ],
        "KHOGICKNONE": 3858117948,
        "KPKBDDPHBPM": "TALENT"
    },
    {
        "Id": 11404,
        "cardType": "GCG_CARD_CHARACTER",
        "PEJDNIKKJFH": "FRIENDLY",
        "LKIILDFIPKC": [
            "GCG_TAG_NONE",
            "GCG_TAG_NONE",
            "GCG_TAG_NONE"
        ],
        "FNDEJBOMHKH": [
            "GCG_TAG_NONE",
            "GCG_TAG_NONE"
        ],
        "condList": [
            {
                "type": "IS_ALIVE_CHARACTER",
                "value": 1
            },
            {
                "type": "CARD",
                "value": 1404
            },
            {
                "type": "NOT_HAS_MODIFY_STATE_WITH_TAG",
                "value": 5
            },
            {
                "type": "ONSTAGE",
                "value": 1
            }
        ],
        "NCIAELICOBM": [
            {},
            {}
        ],
        "JLGOBEBFKDL": [
            {},
            {}
        ],
        "KHOGICKNONE": 3987221668,
        "KPKBDDPHBPM": "TALENT"
    },
    {
        "Id": 11405,
        "cardType": "GCG_CARD_CHARACTER",
        "PEJDNIKKJFH": "FRIENDLY",
        "LKIILDFIPKC": [
            "GCG_TAG_NONE",
            "GCG_TAG_NONE",
            "GCG_TAG_NONE"
        ],
        "FNDEJBOMHKH": [
            "GCG_TAG_NONE",
            "GCG_TAG_NONE"
        ],
        "condList": [
            {
                "type": "IS_ALIVE_CHARACTER",
                "value": 1
            },
            {
                "type": "CARD",
                "value": 1405
            },
            {
                "type": "NOT_HAS_MODIFY_STATE_WITH_TAG",
                "value": 5
            },
            {
                "type": "ONSTAGE",
                "value": 1
            }
        ],
        "NCIAELICOBM": [
            {},
            {}
        ],
        "JLGOBEBFKDL": [
            {},
            {}
        ],
        "KHOGICKNONE": 1764567684,
        "KPKBDDPHBPM": "TALENT"
    },
    {
        "Id": 11406,
        "cardType": "GCG_CARD_CHARACTER",
        "PEJDNIKKJFH": "FRIENDLY",
        "LKIILDFIPKC": [
            "GCG_TAG_NONE",
            "GCG_TAG_NONE",
            "GCG_TAG_NONE"
        ],
        "FNDEJBOMHKH": [
            "GCG_TAG_NONE",
            "GCG_TAG_NONE"
        ],
        "condList": [
            {
                "type": "IS_ALIVE_CHARACTER",
                "value": 1
            },
            {
                "type": "CARD",
                "value": 1406
            },
            {
                "type": "NOT_HAS_MODIFY_STATE_WITH_TAG",
                "value": 5
            },
            {
                "type": "ONSTAGE",
                "value": 1
            }
        ],
        "NCIAELICOBM": [
            {},
            {}
        ],
        "JLGOBEBFKDL": [
            {},
            {}
        ],
        "KHOGICKNONE": 195068036,
        "KPKBDDPHBPM": "TALENT"
    },
    {
        "Id": 11501,
        "cardType": "GCG_CARD_CHARACTER",
        "PEJDNIKKJFH": "FRIENDLY",
        "LKIILDFIPKC": [
            "GCG_TAG_NONE",
            "GCG_TAG_NONE",
            "GCG_TAG_NONE"
        ],
        "FNDEJBOMHKH": [
            "GCG_TAG_NONE",
            "GCG_TAG_NONE"
        ],
        "condList": [
            {
                "type": "IS_ALIVE_CHARACTER",
                "value": 1
            },
            {
                "type": "CARD",
                "value": 1501
            },
            {
                "type": "NOT_HAS_MODIFY_STATE_WITH_TAG",
                "value": 5
            },
            {
                "type": "ONSTAGE",
                "value": 1
            }
        ],
        "NCIAELICOBM": [
            {},
            {}
        ],
        "JLGOBEBFKDL": [
            {},
            {}
        ],
        "KHOGICKNONE": 4070747052,
        "KPKBDDPHBPM": "TALENT"
    },
    {
        "Id": 11502,
        "cardType": "GCG_CARD_CHARACTER",
        "PEJDNIKKJFH": "FRIENDLY",
        "LKIILDFIPKC": [
            "GCG_TAG_NONE",
            "GCG_TAG_NONE",
            "GCG_TAG_NONE"
        ],
        "FNDEJBOMHKH": [
            "GCG_TAG_NONE",
            "GCG_TAG_NONE"
        ],
        "condList": [
            {
                "type": "IS_ALIVE_CHARACTER",
                "value": 1
            },
            {
                "type": "CARD",
                "value": 1502
            },
            {
                "type": "NOT_HAS_MODIFY_STATE_WITH_TAG",
                "value": 5
            },
            {
                "type": "ONSTAGE",
                "value": 1
            }
        ],
        "NCIAELICOBM": [
            {},
            {}
        ],
        "JLGOBEBFKDL": [
            {},
            {}
        ],
        "KHOGICKNONE": 3531161900,
        "KPKBDDPHBPM": "TALENT"
    },
    {
        "Id": 11601,
        "cardType": "GCG_CARD_CHARACTER",
        "PEJDNIKKJFH": "FRIENDLY",
        "LKIILDFIPKC": [
            "GCG_TAG_NONE",
            "GCG_TAG_NONE",
            "GCG_TAG_NONE"
        ],
        "FNDEJBOMHKH": [
            "GCG_TAG_NONE",
            "GCG_TAG_NONE"
        ],
        "condList": [
            {
                "type": "IS_ALIVE_CHARACTER",
                "value": 1
            },
            {
                "type": "CARD",
                "value": 1601
            },
            {
                "type": "NOT_HAS_MODIFY_STATE_WITH_TAG",
                "value": 5
            },
            {
                "type": "ONSTAGE",
                "value": 1
            }
        ],
        "NCIAELICOBM": [
            {},
            {}
        ],
        "JLGOBEBFKDL": [
            {},
            {}
        ],
        "KHOGICKNONE": 920155404,
        "KPKBDDPHBPM": "TALENT"
    },
    {
        "Id": 11602,
        "cardType": "GCG_CARD_CHARACTER",
        "PEJDNIKKJFH": "FRIENDLY",
        "LKIILDFIPKC": [
            "GCG_TAG_NONE",
            "GCG_TAG_NONE",
            "GCG_TAG_NONE"
        ],
        "FNDEJBOMHKH": [
            "GCG_TAG_NONE",
            "GCG_TAG_NONE"
        ],
        "condList": [
            {
                "type": "IS_ALIVE_CHARACTER",
                "value": 1
            },
            {
                "type": "CARD",
                "value": 1602
            },
            {
                "type": "NOT_HAS_MODIFY_STATE_WITH_TAG",
                "value": 5
            },
            {
                "type": "ONSTAGE",
                "value": 1
            }
        ],
        "NCIAELICOBM": [
            {},
            {}
        ],
        "JLGOBEBFKDL": [
            {},
            {}
        ],
        "KHOGICKNONE": 1123328548,
        "KPKBDDPHBPM": "TALENT"
    },
    {
        "Id": 11701,
        "cardType": "GCG_CARD_CHARACTER",
        "PEJDNIKKJFH": "FRIENDLY",
        "LKIILDFIPKC": [
            "GCG_TAG_NONE",
            "GCG_TAG_NONE",
            "GCG_TAG_NONE"
        ],
        "FNDEJBOMHKH": [
            "GCG_TAG_NONE",
            "GCG_TAG_NONE"
        ],
        "condList": [
            {
                "type": "IS_ALIVE_CHARACTER",
                "value": 1
            },
            {
                "type": "CARD",
                "value": 1701
            },
            {
                "type": "NOT_HAS_MODIFY_STATE_WITH_TAG",
                "value": 5
            },
            {
                "type": "ONSTAGE",
                "value": 1
            }
        ],
        "NCIAELICOBM": [
            {},
            {}
        ],
        "JLGOBEBFKDL": [
            {},
            {}
        ],
        "KHOGICKNONE": 2756531924,
        "KPKBDDPHBPM": "TALENT"
    },
    {
        "Id": 12201,
        "cardType": "GCG_CARD_CHARACTER",
        "PEJDNIKKJFH": "FRIENDLY",
        "LKIILDFIPKC": [
            "GCG_TAG_NONE",
            "GCG_TAG_NONE",
            "GCG_TAG_NONE"
        ],
        "FNDEJBOMHKH": [
            "GCG_TAG_NONE",
            "GCG_TAG_NONE"
        ],
        "condList": [
            {
                "type": "IS_ALIVE_CHARACTER",
                "value": 1
            },
            {
                "type": "CARD",
                "value": 2201
            },
            {
                "type": "NOT_HAS_MODIFY_STATE_WITH_TAG",
                "value": 5
            },
            {
                "type": "ONSTAGE",
                "value": 1
            }
        ],
        "NCIAELICOBM": [
            {},
            {}
        ],
        "JLGOBEBFKDL": [
            {},
            {}
        ],
        "KHOGICKNONE": 1402804460,
        "KPKBDDPHBPM": "TALENT"
    },
    {
        "Id": 12202,
        "cardType": "GCG_CARD_CHARACTER",
        "PEJDNIKKJFH": "FRIENDLY",
        "LKIILDFIPKC": [
            "GCG_TAG_NONE",
            "GCG_TAG_NONE",
            "GCG_TAG_NONE"
        ],
        "FNDEJBOMHKH": [
            "GCG_TAG_NONE",
            "GCG_TAG_NONE"
        ],
        "condList": [
            {
                "type": "IS_ALIVE_CHARACTER",
                "value": 1
            },
            {
                "type": "CARD",
                "value": 2202
            },
            {
                "type": "NOT_HAS_MODIFY_STATE_WITH_TAG",
                "value": 5
            },
            {
                "type": "ONSTAGE",
                "value": 1
            }
        ],
        "NCIAELICOBM": [
            {},
            {}
        ],
        "JLGOBEBFKDL": [
            {},
            {}
        ],
        "KHOGICKNONE": 4015981380,
        "KPKBDDPHBPM": "TALENT"
    },
    {
        "Id": 12301,
        "cardType": "GCG_CARD_CHARACTER",
        "PEJDNIKKJFH": "FRIENDLY",
        "LKIILDFIPKC": [
            "GCG_TAG_NONE",
            "GCG_TAG_NONE",
            "GCG_TAG_NONE"
        ],
        "FNDEJBOMHKH": [
            "GCG_TAG_NONE",
            "GCG_TAG_NONE"
        ],
        "condList": [
            {
                "type": "IS_ALIVE_CHARACTER",
                "value": 1
            },
            {
                "type": "CARD",
                "value": 2301
            },
            {
                "type": "NOT_HAS_MODIFY_STATE_WITH_TAG",
                "value": 5
            },
            {
                "type": "ONSTAGE",
                "value": 1
            }
        ],
        "NCIAELICOBM": [
            {},
            {}
        ],
        "JLGOBEBFKDL": [
            {},
            {}
        ],
        "KHOGICKNONE": 3196067324,
        "KPKBDDPHBPM": "TALENT"
    },
    {
        "Id": 12501,
        "cardType": "GCG_CARD_CHARACTER",
        "PEJDNIKKJFH": "FRIENDLY",
        "LKIILDFIPKC": [
            "GCG_TAG_NONE",
            "GCG_TAG_NONE",
            "GCG_TAG_NONE"
        ],
        "FNDEJBOMHKH": [
            "GCG_TAG_NONE",
            "GCG_TAG_NONE"
        ],
        "condList": [
            {
                "type": "IS_ALIVE_CHARACTER",
                "value": 1
            },
            {
                "type": "CARD",
                "value": 2501
            },
            {
                "type": "NOT_HAS_MODIFY_STATE_WITH_TAG",
                "value": 5
            },
            {
                "type": "ONSTAGE",
                "value": 1
            }
        ],
        "NCIAELICOBM": [
            {},
            {}
        ],
        "JLGOBEBFKDL": [
            {},
            {}
        ],
        "KHOGICKNONE": 522393036,
        "KPKBDDPHBPM": "TALENT"
    },
    {
        "Id": 12601,
        "cardType": "GCG_CARD_CHARACTER",
        "PEJDNIKKJFH": "FRIENDLY",
        "LKIILDFIPKC": [
            "GCG_TAG_NONE",
            "GCG_TAG_NONE",
            "GCG_TAG_NONE"
        ],
        "FNDEJBOMHKH": [
            "GCG_TAG_NONE",
            "GCG_TAG_NONE"
        ],
        "condList": [
            {
                "type": "IS_ALIVE_CHARACTER",
                "value": 1
            },
            {
                "type": "CARD",
                "value": 2601
            },
            {
                "type": "NOT_HAS_MODIFY_STATE_WITH_TAG",
                "value": 5
            },
            {
                "type": "ONSTAGE",
                "value": 1
            }
        ],
        "NCIAELICOBM": [
            {},
            {}
        ],
        "JLGOBEBFKDL": [
            {},
            {}
        ],
        "KHOGICKNONE": 2066468396,
        "KPKBDDPHBPM": "TALENT"
    },
    {
        "Id": 12701,
        "cardType": "GCG_CARD_CHARACTER",
        "PEJDNIKKJFH": "FRIENDLY",
        "LKIILDFIPKC": [
            "GCG_TAG_NONE",
            "GCG_TAG_NONE",
            "GCG_TAG_NONE"
        ],
        "FNDEJBOMHKH": [
            "GCG_TAG_NONE",
            "GCG_TAG_NONE"
        ],
        "condList": [
            {
                "type": "IS_ALIVE_CHARACTER",
                "value": 1
            },
            {
                "type": "CARD",
                "value": 2701
            },
            {
                "type": "NOT_HAS_MODIFY_STATE_WITH_TAG",
                "value": 5
            },
            {
                "type": "ONSTAGE",
                "value": 1
            }
        ],
        "NCIAELICOBM": [
            {},
            {}
        ],
        "JLGOBEBFKDL": [
            {},
            {}
        ],
        "KHOGICKNONE": 1175705604,
        "KPKBDDPHBPM": "TALENT"
    }
]