[
    {
        "LCONEMCLIOA": 111011,
        "CPLMDNHOHBN": 1101
    },
    {
        "LCONEMCLIOA": 111023,
        "CPLMDNHOHBN": 1102
    },
    {
        "LCONEMCLIOA": 111051,
        "CPLMDNHOHBN": 1105
    },
    {
        "LCONEMCLIOA": 111062,
        "CPLMDNHOHBN": 1106
    },
    {
        "LCONEMCLIOA": 112011,
        "CPLMDNHOHBN": 1201
    },
    {
        "LCONEMCLIOA": 112031,
        "CPLMDNHOHBN": 1203
    },
    {
        "LCONEMCLIOA": 112051,
        "CPLMDNHOHBN": 1205
    },
    {
        "LCONEMCLIOA": 113021,
        "CPLMDNHOHBN": 1302
    },
    {
        "LCONEMCLIOA": 114011,
        "CPLMDNHOHBN": 1401
    },
    {
        "LCONEMCLIOA": 114031,
        "CPLMDNHOHBN": 1403
    },
    {
        "LCONEMCLIOA": 114061,
        "CPLMDNHOHBN": 1406
    },
    {
        "LCONEMCLIOA": 114062,
        "CPLMDNHOHBN": 1406
    },
    {
        "LCONEMCLIOA": 115011,
        "CPLMDNHOHBN": 1501
    },
    {
        "LCONEMCLIOA": 115012,
        "CPLMDNHOHBN": 1501
    },
    {
        "LCONEMCLIOA": 115021,
        "CPLMDNHOHBN": 1502
    },
    {
        "LCONEMCLIOA": 117011,
        "CPLMDNHOHBN": 1701
    },
    {
        "LCONEMCLIOA": 122010,
        "CPLMDNHOHBN": 2201
    },
    {
        "LCONEMCLIOA": 122014,
        "CPLMDNHOHBN": 2201
    },
    {
        "LCONEMCLIOA": 122011,
        "CPLMDNHOHBN": 2201
    },
    {
        "LCONEMCLIOA": 122012,
        "CPLMDNHOHBN": 2201
    },
    {
        "LCONEMCLIOA": 122013,
        "CPLMDNHOHBN": 2201
    },
    {
        "LCONEMCLIOA": 125011,
        "CPLMDNHOHBN": 2501
    },
    {
        "LCONEMCLIOA": 125012,
        "CPLMDNHOHBN": 2501
    },
    {
        "LCONEMCLIOA": 132021,
        "CPLMDNHOHBN": 3202
    },
    {
        "LCONEMCLIOA": 135011,
        "CPLMDNHOHBN": 3501
    },
    {
        "LCONEMCLIOA": 303210,
        "CPLMDNHOHBN": 332015
    }
]