[
    {
        "ID": 1,
        "dungeonID": 3050,
        "perfabPath": "ART/UI/Menus/Activity/BrickBreaker/BrickBreakerDungeonLoadingDialog"
    },
    {
        "ID": 2,
        "dungeonID": 3051,
        "perfabPath": "ART/UI/Menus/Activity/BrickBreaker/BrickBreakerDungeonLoadingDialog"
    },
    {
        "ID": 3,
        "dungeonID": 3052,
        "perfabPath": "ART/UI/Menus/Activity/BrickBreaker/BrickBreakerDungeonLoadingDialog"
    }
]