{
    "common": {
        "effectAttachShape": {
            "$type": "ConfigEffectAttachSkinnedMesh",
            "mesh": "EffectMesh"
        },
        "mass": 30.0,
        "height": 0.699999988079071,
        "affectedByWorld": true,
        "checkInSurface": true,
        "scale": 2.0,
        "canTriggerElementReactionText": false,
        "useGrassDisplacement": true
    },
    "model": {
        "bornEffect": "",
        "attachEffect": "",
        "GAJBLHEGNNM": false
    },
    "dither": {
        "showDitherDuration": 2.0
    },
    "combat": {
        "property": {
            "endureType": "Monster_Minion",
            "weight": 40.0
        },
        "beHit": {
            "hitBloodEffect": "",
            "muteAllHitText": true
        },
        "combatLock": {
            "lockShape": "CircleLockEnemy",
            "lockType": "Animal_Lv2"
        },
        "die": {
            "fallWhenAirDie": false,
            "dieEndTime": 2.0,
            "dieForceDisappearTime": 10.0,
            "dieDisappearEffect": ""
        }
    },
    "abilities": [
        {
            "abilityID": "",
            "abilityName": "Animal_Pigeon_Beak_Signal_Controller",
            "abilityOverride": ""
        },
        {
            "abilityID": "",
            "abilityName": "Animal_Common_Initial",
            "abilityOverride": ""
        },
        {
            "abilityID": "",
            "abilityName": "Animal_Pigeon_Beak_AIStateInitial",
            "abilityOverride": ""
        },
        {
            "abilityID": "",
            "abilityName": "Animal_Pigeon_Random",
            "abilityOverride": ""
        },
        {
            "abilityID": "",
            "abilityName": "Animal_Pigeon_FlyDown",
            "abilityOverride": ""
        },
        {
            "abilityID": "",
            "abilityName": "Animal_Pigeon_FlyUp",
            "abilityOverride": ""
        },
        {
            "abilityID": "",
            "abilityName": "Animal_Pigeon_Disappear",
            "abilityOverride": ""
        },
        {
            "abilityID": "",
            "abilityName": "Animal_Pigeon_Beak_AwareManager",
            "abilityOverride": ""
        }
    ],
    "stateLayers": {
        "defaultLayer": {
            "$type": "ConfigNormalStateLayer",
            "layerIndexName": "",
            "stateIDs": {
                "Born": {
                    "$type": "ConfigMonsterStateIDInfo",
                    "animatorStates": {
                        "Born": [
                            "Audio_Creature_Pigeon_Beak_WingFlap"
                        ]
                    },
                    "resetAnimatorTriggerOnExit": [
                        "DoSkill"
                    ]
                },
                "NormalIdle": {
                    "$type": "ConfigMonsterStateIDInfo",
                    "animatorStates": {
                        "Standby": [],
                        "Standby_Roof": []
                    },
                    "canDoSkill": true,
                    "canSyncMove": true,
                    "resetAnimatorTriggerOnExit": [
                        "DoSkill"
                    ]
                },
                "NormalMove": {
                    "$type": "ConfigMonsterStateIDInfo",
                    "animatorStates": {
                        "Walk": [
                            "Audio_Creature_Pigeon_Beak_Walk"
                        ]
                    },
                    "canDoSkill": true,
                    "canSyncMove": true,
                    "resetAnimatorTriggerOnExit": [
                        "DoSkill"
                    ],
                    "canSteer": true
                },
                "FlyDown": {
                    "$type": "ConfigMonsterStateIDInfo",
                    "animatorStates": {
                        "FlyDown": [
                            "Audio_Creature_Pigeon_Beak_Walk"
                        ],
                        "Land": [
                            "Audio_Creature_Pigeon_Beak_Walk"
                        ],
                        "LandToGround": [
                            "Animal_Pigeon_LandToGround",
                            "Audio_Creature_Pigeon_Beak_LandToGround"
                        ]
                    },
                    "canSyncMove": true,
                    "resetAnimatorTriggerOnEnter": [
                        "HitAir2HitDrop"
                    ],
                    "resetAnimatorTriggerOnExit": [
                        "DoSkill"
                    ],
                    "canSteer": true
                },
                "FlyUp": {
                    "$type": "ConfigMonsterStateIDInfo",
                    "animatorStates": {
                        "TakeOff": [
                            "Animal_Pigeon_Beak_TakeOff",
                            "Audio_Creature_Pigeon_Beak_TakeOff"
                        ],
                        "FlyUp": [
                            "Audio_Creature_Pigeon_Beak_WingFlap"
                        ],
                        "Disappear": [
                            "Audio_Creature_Pigeon_Beak_WingFlap"
                        ]
                    },
                    "canSyncMove": true,
                    "resetAnimatorTriggerOnExit": [
                        "DoSkill"
                    ],
                    "canSteer": true
                },
                "BeHit": {
                    "$type": "ConfigMonsterStateIDInfo",
                    "animatorStates": {
                        "Hit_L": [
                            "Audio_Creature_Pigeon_Beak_LandToGround"
                        ]
                    },
                    "resetAnimatorTriggerOnEnter": [
                        "BeHit"
                    ],
                    "resetAnimatorTriggerOnExit": [
                        "DoSkill"
                    ]
                },
                "Die": {
                    "$type": "ConfigMonsterStateIDInfo",
                    "animatorStates": {
                        "Die": [
                            "Animal_Pigeon_Die"
                        ],
                        "Die_Disappear": [
                            "Animal_Pigeon_Disappear"
                        ]
                    }
                },
                "Aware": {
                    "$type": "ConfigMonsterStateIDInfo",
                    "animatorStates": {
                        "Aware_BS": [],
                        "Aware_AS": []
                    },
                    "resetAnimatorTriggerOnExit": [
                        "BeHit",
                        "DoSkill"
                    ]
                },
                "Alert": {
                    "$type": "ConfigMonsterStateIDInfo",
                    "animatorStates": {
                        "Alert": [
                            "Audio_Creature_Pigeon_Beak_Alert"
                        ]
                    },
                    "canDoSkill": true,
                    "resetAnimatorTriggerOnExit": [
                        "BeHit",
                        "DoSkill"
                    ]
                },
                "Groom": {
                    "$type": "ConfigMonsterStateIDInfo",
                    "animatorStates": {
                        "Groom": [
                            "Audio_Creature_Pigeon_Beak_Groom"
                        ]
                    },
                    "canDoSkill": true,
                    "resetAnimatorTriggerOnExit": [
                        "BeHit",
                        "DoSkill"
                    ]
                },
                "Joy": {
                    "$type": "ConfigMonsterStateIDInfo",
                    "animatorStates": {
                        "Joy": [
                            "Audio_Creature_Pigeon_Beak_Joy"
                        ]
                    },
                    "canDoSkill": true,
                    "resetAnimatorTriggerOnExit": [
                        "BeHit",
                        "DoSkill"
                    ]
                },
                "Signal_Ayus_5s": {
                    "$type": "ConfigMonsterStateIDInfo",
                    "animatorStates": {
                        "Signal_Ayus_5s": []
                    },
                    "canDoSkill": true,
                    "resetAnimatorTriggerOnEnter": [
                        "SignalExit"
                    ],
                    "resetAnimatorTriggerOnExit": [
                        "BeHit",
                        "DoSkill",
                        "StartSignal"
                    ],
                    "setAnimatorFloat": [
                        {
                            "name": "SignalType",
                            "value": 1.0
                        }
                    ]
                },
                "Signal_Deshret_6_25s": {
                    "$type": "ConfigMonsterStateIDInfo",
                    "animatorStates": {
                        "Signal_Deshret_6_25s": []
                    },
                    "canDoSkill": true,
                    "resetAnimatorTriggerOnEnter": [
                        "SignalExit"
                    ],
                    "resetAnimatorTriggerOnExit": [
                        "BeHit",
                        "DoSkill",
                        "StartSignal"
                    ],
                    "setAnimatorFloat": [
                        {
                            "name": "SignalType",
                            "value": 2.0
                        }
                    ]
                },
                "Signal_Sarva_5_5s": {
                    "$type": "ConfigMonsterStateIDInfo",
                    "animatorStates": {
                        "Signal_Sarva_5_5s": []
                    },
                    "canDoSkill": true,
                    "resetAnimatorTriggerOnEnter": [
                        "SignalExit"
                    ],
                    "resetAnimatorTriggerOnExit": [
                        "BeHit",
                        "DoSkill",
                        "StartSignal"
                    ],
                    "setAnimatorFloat": [
                        {
                            "name": "SignalType",
                            "value": 3.0
                        }
                    ]
                },
                "Signal_Dawon_6_25s": {
                    "$type": "ConfigMonsterStateIDInfo",
                    "animatorStates": {
                        "Signal_Dawon_6_25s": []
                    },
                    "canDoSkill": true,
                    "resetAnimatorTriggerOnEnter": [
                        "SignalExit"
                    ],
                    "resetAnimatorTriggerOnExit": [
                        "BeHit",
                        "DoSkill",
                        "StartSignal"
                    ],
                    "setAnimatorFloat": [
                        {
                            "name": "SignalType",
                            "value": 4.0
                        }
                    ]
                },
                "Signal_miHoYo_8_5s": {
                    "$type": "ConfigMonsterStateIDInfo",
                    "animatorStates": {
                        "Signal_miHoYo_8_5s": []
                    },
                    "canDoSkill": true,
                    "resetAnimatorTriggerOnEnter": [
                        "SignalExit"
                    ],
                    "resetAnimatorTriggerOnExit": [
                        "BeHit",
                        "DoSkill",
                        "StartSignal"
                    ],
                    "setAnimatorFloat": [
                        {
                            "name": "SignalType",
                            "value": 5.0
                        }
                    ]
                }
            }
        }
    },
    "initialPoses": {
        "Default": {
            "initialPoseParams": {
                "intParams": {
                    "InitialMark": "0"
                }
            }
        },
        "NoMoving": {
            "initialPoseID": 3,
            "initialPoseParams": {
                "intParams": {
                    "InitialMark": "3"
                }
            }
        },
        "FlyIn": {
            "initialPoseID": 901,
            "initialPoseParams": {
                "intParams": {
                    "InitialMark": "901"
                }
            }
        }
    },
    "aibeta": {
        "enable": true,
        "friendliness": 1,
        "moveSetting": {
            "useNavMesh": false,
            "navMeshAgentName": "Undead01"
        },
        "sensing": {
            "settings": {
                "DefaultSetting": {
                    "viewRange": 8.0,
                    "viewPanoramic": true,
                    "hearAttractionRange": 10.0,
                    "feelRange": 3.0
                }
            }
        },
        "neurons": {
            "DefaultSetting": [
                "HIT",
                "WEATHER_BAD",
                "FEAR"
            ],
            "NoWeatherBad": [
                "HIT"
            ]
        },
        "threat": {
            "clearThreatTargetDistance": 30.0,
            "viewThreatGrow": 10.0,
            "feelThreatGrow": 1000.0,
            "threatDecreaseSpeed": 45.0,
            "viewAttenuation": [
                {
                    "x": 3.0,
                    "y": 20.0
                },
                {
                    "x": 3.5,
                    "y": 1.0
                },
                {
                    "x": 8.0,
                    "y": 0.75
                }
            ]
        },
        "defendArea": {
            "defendRange": 100.0
        },
        "fly": {
            "enable": true,
            "floatingPoses": [
                901,
                903
            ]
        },
        "poseControl": {
            "items": [
                {
                    "minTime": 7.0,
                    "maxTime": 14.0,
                    "poseID": 2,
                    "RandomPose": [
                        1
                    ],
                    "switchOnlyInCanDoSkillState": true
                },
                {
                    "minTime": 4.0,
                    "maxTime": 8.0,
                    "poseID": 1,
                    "RandomPose": [
                        2
                    ],
                    "switchOnlyInCanDoSkillState": true
                }
            ]
        },
        "ui": {
            "hasDirectionIndicator": false
        },
        "profiling": {
            "lodStrategy": "MinorAnimal"
        },
        "skillGroupCDConfigs": [
            {
                "skillGroupCDID": 1,
                "skillGroupCDTime": 25.0
            }
        ],
        "skills": {
            "1": {
                "name": "OnAware",
                "skillType": "OnAware",
                "publicCDGroup": "",
                "triggerGCD": false,
                "stateIDs": [
                    "Aware"
                ],
                "skillQueryingTime": 3.0,
                "flagTargetReachable": "10",
                "flagSelfOnTemplateCollider": "01",
                "flagSelfInZone": "10",
                "flagTargetInZone": "11"
            },
            "2": {
                "name": "OnAlert",
                "skillType": "OnAlert",
                "publicCDGroup": "",
                "triggerGCD": false,
                "stateIDs": [
                    "Alert"
                ],
                "skillQueryingTime": 3.0,
                "flagTargetReachable": "10",
                "flagSelfOnTemplateCollider": "01",
                "flagSelfInZone": "10",
                "flagTargetInZone": "11"
            },
            "301": {
                "name": "Groom",
                "skillType": "Free",
                "priority": 2,
                "castCondition": {
                    "pose": [
                        2,
                        3
                    ]
                },
                "cd": 2.0,
                "cdUpperRange": 7.0,
                "initialCD": 3.0,
                "initialCDUpperRange": 4.0,
                "publicCDGroup": "",
                "stateIDs": [
                    "Groom"
                ],
                "flagTargetReachable": "10",
                "flagSelfOnTemplateCollider": "01",
                "flagSelfInZone": "10",
                "flagTargetInZone": "11"
            },
            "302": {
                "name": "Joy",
                "skillType": "Free",
                "priority": 2,
                "castCondition": {
                    "pose": [
                        2,
                        3
                    ]
                },
                "cd": 2.0,
                "cdUpperRange": 7.0,
                "initialCD": 5.0,
                "initialCDUpperRange": 4.0,
                "publicCDGroup": "",
                "stateIDs": [
                    "Joy"
                ],
                "flagTargetReachable": "10",
                "flagSelfOnTemplateCollider": "01",
                "flagSelfInZone": "10",
                "flagTargetInZone": "11"
            },
            "901": {
                "name": "Signal_Ayus_5s",
                "skillType": "Free",
                "priority": 1,
                "castCondition": {
                    "pose": [
                        2,
                        3
                    ]
                },
                "cd": 11.0,
                "cdUpperRange": 5.0,
                "initialCD": 7.0,
                "initialCDUpperRange": 4.0,
                "publicCDGroup": "",
                "skillGroupCDID": 1,
                "stateIDs": [
                    "Signal_Ayus_5s"
                ],
                "flagTargetReachable": "10",
                "flagSelfOnTemplateCollider": "01",
                "flagSelfInZone": "10",
                "flagTargetInZone": "11"
            },
            "902": {
                "name": "Signal_Deshret_6_25s",
                "skillType": "Free",
                "priority": 1,
                "castCondition": {
                    "pose": [
                        2,
                        3
                    ]
                },
                "cd": 11.0,
                "cdUpperRange": 5.0,
                "initialCD": 7.0,
                "initialCDUpperRange": 4.0,
                "publicCDGroup": "",
                "skillGroupCDID": 1,
                "stateIDs": [
                    "Signal_Deshret_6_25s"
                ],
                "flagTargetReachable": "10",
                "flagSelfOnTemplateCollider": "01",
                "flagSelfInZone": "10",
                "flagTargetInZone": "11"
            },
            "903": {
                "name": "Signal_Sarva_5_5s",
                "skillType": "Free",
                "priority": 1,
                "castCondition": {
                    "pose": [
                        2,
                        3
                    ]
                },
                "cd": 11.0,
                "cdUpperRange": 5.0,
                "initialCD": 7.0,
                "initialCDUpperRange": 4.0,
                "publicCDGroup": "",
                "skillGroupCDID": 1,
                "stateIDs": [
                    "Signal_Sarva_5_5s"
                ],
                "flagTargetReachable": "10",
                "flagSelfOnTemplateCollider": "01",
                "flagSelfInZone": "10",
                "flagTargetInZone": "11"
            },
            "904": {
                "name": "Signal_Dawon_6_25s",
                "skillType": "Free",
                "priority": 1,
                "castCondition": {
                    "pose": [
                        2,
                        3
                    ]
                },
                "cd": 11.0,
                "cdUpperRange": 5.0,
                "initialCD": 7.0,
                "initialCDUpperRange": 4.0,
                "publicCDGroup": "",
                "skillGroupCDID": 1,
                "stateIDs": [
                    "Signal_Dawon_6_25s"
                ],
                "flagTargetReachable": "10",
                "flagSelfOnTemplateCollider": "01",
                "flagSelfInZone": "10",
                "flagTargetInZone": "11"
            },
            "905": {
                "name": "Signal_miHoYo_8_5s",
                "skillType": "Free",
                "priority": 1,
                "castCondition": {
                    "pose": [
                        2,
                        3
                    ]
                },
                "cd": 11.0,
                "cdUpperRange": 5.0,
                "initialCD": 7.0,
                "initialCDUpperRange": 4.0,
                "publicCDGroup": "",
                "skillGroupCDID": 1,
                "stateIDs": [
                    "Signal_miHoYo_8_5s"
                ],
                "flagTargetReachable": "10",
                "flagSelfOnTemplateCollider": "01",
                "flagSelfInZone": "10",
                "flagTargetInZone": "11"
            },
            "999": {
                "name": "FlyUp",
                "skillType": "Free",
                "priority": 1,
                "castCondition": {
                    "pose": [
                        610
                    ]
                },
                "cd": 11.0,
                "cdUpperRange": 5.0,
                "initialCD": 7.0,
                "initialCDUpperRange": 4.0,
                "publicCDGroup": "",
                "skillGroupCDID": 1,
                "flagTargetReachable": "10",
                "flagSelfOnTemplateCollider": "01",
                "flagSelfInZone": "10",
                "flagTargetInZone": "11"
            }
        },
        "skillGCD": 2.5,
        "wanderTactic": {
            "enable": true,
            "condition": {
                "pose": [
                    1
                ]
            },
            "defaultSetting": {
                "turnSpeedOverride": 0.25,
                "distanceFromBorn": 5.0,
                "distanceFromCurrentMax": 3.0
            }
        },
        "landingTactic": {
            "enable": true,
            "condition": {
                "pose": [
                    901
                ]
            },
            "defaultSetting": {
                "speedLevel": 2,
                "landingAngleMax": 40.0,
                "landingAngleMin": 40.0,
                "landingTerrainAltitude": 4.75
            }
        },
        "extractionTactic": {
            "enable": true,
            "condition": {
                "pose": [
                    1,
                    2,
                    3,
                    903
                ]
            },
            "nerveTrigger": [
                "HIT",
                "WEATHER_BAD",
                "FEAR"
            ],
            "defaultSetting": {
                "extractionAngleMax": 45.0,
                "extractionAngleMin": 30.0
            }
        }
    },
    "inputKeys": [
        {
            "keyID": 999,
            "inputKeyCode": 257,
            "abilityName": ""
        }
    ],
    "audio": {
        "CBJGDOAHMDC": "",
        "animAudio": {
            "onTransitionIn": [
                {
                    "currentStateName": "Die",
                    "audioEvent": {
                        "text": "Stop_sfx_creature_Pigeon_Beak_VO"
                    }
                },
                {
                    "currentStateName": "Die_Disappear",
                    "audioEvent": {
                        "text": "Stop_sfx_creature_Pigeon_Beak_VO"
                    }
                }
            ],
            "onTransitionOut": [
                {
                    "currentStateName": "Joy",
                    "audioEvent": {
                        "text": "Stop_sfx_creature_Pigeon_Beak_joy"
                    }
                },
                {
                    "currentStateName": "Groom",
                    "audioEvent": {
                        "text": "Stop_sfx_creature_Pigeon_Beak_groom"
                    }
                }
            ]
        }
    },
    "animal": {
        "tickAbilityElement": false,
        "hasCharacterRenderering": false
    },
    "AIPGIPMPHKG": {
        "defaultConfig": {
            "EOLHDIGICCC": "Eff_SceneObj_CatchAnimal_CaughtSuccess"
        }
    }
}