{
    "common": {
        "effectAttachShape": {
            "$type": "ConfigEffectAttachSkinnedMesh",
            "mesh": "EffectMesh"
        },
        "mass": 10000.0,
        "height": 6.0,
        "viewSize": 2.5,
        "affectedByWorld": true,
        "checkInSurface": true,
        "scale": 1.5,
        "useGrassDisplacement": true,
        "clearAnimatorOnSetLightDeactive": true,
        "clearAIOnSetLightDeactive": true,
        "BHFDMMENDCG": true
    },
    "model": {
        "bornEffect": "",
        "attachEffect": "",
        "GAJBLHEGNNM": false
    },
    "dither": {
        "showDitherDuration": 2.0
    },
    "combat": {
        "property": {
            "endureType": "Monster_Boss_Other",
            "weight": 250.0
        },
        "beHit": {
            "hitBloodEffect": ""
        },
        "combatLock": {
            "lockShape": "CircleLockEnemy",
            "lockType": "Avatar&Monster_Lv4"
        },
        "die": {
            "hasAnimatorDie": true,
            "dieEndTime": 1.0,
            "dieForceDisappearTime": 4.5,
            "dieDisappearEffect": "Eff_Monster_Fungus_Raptor_Die_Smoke",
            "NLGENBICMGM": true,
            "OLFBIHLAOAP": true,
            "LOEEPBHGMFL": true,
            "PNKDGIGFGMN": true,
            "LGFCIGKOHHD": true,
            "BNKHGHFNJFN": true
        },
        "animEvents": {
            "MeleeAttack01": {
                "attackPattern": {
                    "$type": "ConfigAttackCircle",
                    "triggerType": "TriggerNoRepeat",
                    "born": {
                        "$type": "ConfigBornBySelf",
                        "offset": {
                            "IBKBLDAJIMA": 0.0,
                            "LKHJADIPBFL": 0.0,
                            "PJCOKIGCJOK": 0.0
                        }
                    },
                    "height": 2.0,
                    "fanAngle": 180.0,
                    "DCMPFCIBIPA": 3.5
                },
                "attackInfo": {
                    "attackTag": "",
                    "attenuationTag": "",
                    "attenuationGroup": "default",
                    "attackProperty": {
                        "HBIOLEEGHPD": 0.6000000238418579,
                        "CCNJGLPMIEP": 0.0,
                        "bonusCriticalHurt": 100.0,
                        "strikeType": "Blunt",
                        "enBreak": 200.0,
                        "attackType": "Melee"
                    },
                    "hitPattern": {
                        "onHitEffectName": "default",
                        "hitImpulseType": "LV5",
                        "hitHaltTimeScale": 0.009999999776482582
                    }
                }
            },
            "MeleeAttack02": {
                "attackPattern": {
                    "$type": "ConfigAttackCircle",
                    "triggerType": "TriggerNoRepeat",
                    "born": {
                        "$type": "ConfigBornBySelf",
                        "offset": {
                            "IBKBLDAJIMA": 0.0,
                            "LKHJADIPBFL": 0.0,
                            "PJCOKIGCJOK": 1.0
                        }
                    },
                    "height": 1.0,
                    "fanAngle": 60.0,
                    "DCMPFCIBIPA": 8.0
                },
                "attackInfo": {
                    "attackTag": "",
                    "attenuationTag": "",
                    "attenuationGroup": "default",
                    "attackProperty": {
                        "HBIOLEEGHPD": 0.6000000238418579,
                        "CCNJGLPMIEP": 0.0,
                        "bonusCriticalHurt": 100.0,
                        "strikeType": "Blunt",
                        "enBreak": 200.0,
                        "attackType": "Melee"
                    },
                    "hitPattern": {
                        "onHitEffectName": "default",
                        "hitImpulseType": "LV5",
                        "hitHaltTimeScale": 0.009999999776482582
                    },
                    "forceCameraShake": true,
                    "cameraShake": {
                        "shakeRange": 1.0,
                        "shakeTime": 0.30000001192092896,
                        "shakeDistance": 10.0
                    }
                }
            },
            "MeleeAttack03": {
                "attackPattern": {
                    "$type": "ConfigAttackCircle",
                    "triggerType": "TriggerNoRepeat",
                    "born": {
                        "$type": "ConfigBornBySelf",
                        "offset": {
                            "IBKBLDAJIMA": 0.0,
                            "LKHJADIPBFL": 0.0,
                            "PJCOKIGCJOK": 0.0
                        }
                    },
                    "height": 2.0,
                    "DCMPFCIBIPA": 6.0
                },
                "attackInfo": {
                    "attackTag": "",
                    "attenuationTag": "",
                    "attenuationGroup": "default",
                    "attackProperty": {
                        "HBIOLEEGHPD": 0.800000011920929,
                        "CCNJGLPMIEP": 0.0,
                        "bonusCriticalHurt": 100.0,
                        "strikeType": "Blunt",
                        "enBreak": 200.0,
                        "attackType": "Melee"
                    },
                    "hitPattern": {
                        "onHitEffectName": "default",
                        "hitImpulseType": "LV5",
                        "hitHaltTimeScale": 0.009999999776482582
                    },
                    "forceCameraShake": true,
                    "cameraShake": {
                        "shakeRange": 1.0,
                        "shakeTime": 0.30000001192092896,
                        "shakeDistance": 30.0
                    }
                }
            },
            "MeleeAttack01_Boost": {
                "attackPattern": {
                    "$type": "ConfigAttackCircle",
                    "triggerType": "TriggerNoRepeat",
                    "born": {
                        "$type": "ConfigBornBySelf",
                        "offset": {
                            "IBKBLDAJIMA": 0.0,
                            "LKHJADIPBFL": 0.0,
                            "PJCOKIGCJOK": 1.0
                        }
                    },
                    "height": 2.0,
                    "fanAngle": 180.0,
                    "DCMPFCIBIPA": 3.5
                },
                "attackInfo": {
                    "attackTag": "",
                    "attenuationTag": "",
                    "attenuationGroup": "default",
                    "attackProperty": {
                        "HBIOLEEGHPD": 0.800000011920929,
                        "CCNJGLPMIEP": 0.0,
                        "elementType": "Grass",
                        "bonusCriticalHurt": 25.0,
                        "strikeType": "Blunt",
                        "enBreak": 200.0,
                        "attackType": "Melee"
                    },
                    "hitPattern": {
                        "onHitEffectName": "default",
                        "hitImpulseType": "LV5",
                        "hitHaltTimeScale": 0.009999999776482582
                    }
                }
            },
            "MeleeAttack02_Boost": {
                "attackPattern": {
                    "$type": "ConfigAttackCircle",
                    "triggerType": "TriggerNoRepeat",
                    "born": {
                        "$type": "ConfigBornBySelf",
                        "offset": {
                            "IBKBLDAJIMA": 0.0,
                            "LKHJADIPBFL": 0.0,
                            "PJCOKIGCJOK": 1.0
                        }
                    },
                    "height": 1.0,
                    "fanAngle": 60.0,
                    "DCMPFCIBIPA": 8.0
                },
                "attackInfo": {
                    "attackTag": "",
                    "attenuationTag": "",
                    "attenuationGroup": "default",
                    "attackProperty": {
                        "HBIOLEEGHPD": 0.800000011920929,
                        "CCNJGLPMIEP": 0.0,
                        "elementType": "Grass",
                        "bonusCriticalHurt": 25.0,
                        "strikeType": "Blunt",
                        "enBreak": 200.0,
                        "attackType": "Melee"
                    },
                    "hitPattern": {
                        "onHitEffectName": "default",
                        "hitImpulseType": "LV5",
                        "hitHaltTimeScale": 0.009999999776482582
                    },
                    "forceCameraShake": true,
                    "cameraShake": {
                        "shakeRange": 1.0,
                        "shakeTime": 0.30000001192092896,
                        "shakeDistance": 10.0
                    }
                }
            },
            "MeleeAttack03_Boost": {
                "attackPattern": {
                    "$type": "ConfigAttackCircle",
                    "triggerType": "TriggerNoRepeat",
                    "born": {
                        "$type": "ConfigBornBySelf",
                        "offset": {
                            "IBKBLDAJIMA": 0.0,
                            "LKHJADIPBFL": 0.0,
                            "PJCOKIGCJOK": -1.0
                        }
                    },
                    "height": 2.0,
                    "DCMPFCIBIPA": 8.0
                },
                "attackInfo": {
                    "attackTag": "",
                    "attenuationTag": "",
                    "attenuationGroup": "default",
                    "attackProperty": {
                        "HBIOLEEGHPD": 1.0,
                        "CCNJGLPMIEP": 0.0,
                        "elementType": "Grass",
                        "bonusCriticalHurt": 25.0,
                        "strikeType": "Blunt",
                        "enBreak": 200.0,
                        "attackType": "Melee"
                    },
                    "hitPattern": {
                        "onHitEffectName": "default",
                        "hitImpulseType": "LV5",
                        "hitHaltTimeScale": 0.009999999776482582
                    },
                    "forceCameraShake": true,
                    "cameraShake": {
                        "shakeRange": 1.0,
                        "shakeTime": 0.30000001192092896,
                        "shakeDistance": 30.0
                    }
                }
            },
            "ConfusedMeleeAttack01": {
                "attackPattern": {
                    "$type": "ConfigAttackCircle",
                    "triggerType": "TriggerNoRepeat",
                    "born": {
                        "$type": "ConfigBornBySelf",
                        "offset": {
                            "IBKBLDAJIMA": 0.0,
                            "LKHJADIPBFL": 0.0,
                            "PJCOKIGCJOK": 0.0
                        }
                    },
                    "height": 2.0,
                    "fanAngle": 180.0,
                    "DCMPFCIBIPA": 4.0
                },
                "attackInfo": {
                    "attackTag": "Fungus_Raptor_OverdoseAttack",
                    "attenuationTag": "Monster_Fungus_Raptor_01_ConfuseMeleeAttack",
                    "attenuationGroup": "Monster_Fungus_Raptor_ConfuseMeleeAttack",
                    "attackProperty": {
                        "HBIOLEEGHPD": 1.2000000476837158,
                        "CCNJGLPMIEP": 0.0,
                        "elementType": "Grass",
                        "bonusCriticalHurt": 25.0,
                        "strikeType": "Blunt",
                        "enBreak": 200.0,
                        "attackType": "Melee"
                    },
                    "hitPattern": {
                        "onHitEffectName": "default",
                        "hitImpulseType": "LV5",
                        "hitHaltTimeScale": 0.009999999776482582
                    },
                    "forceCameraShake": true,
                    "cameraShake": {
                        "shakeRange": 1.0,
                        "shakeTime": 0.30000001192092896,
                        "shakeDistance": 30.0
                    }
                }
            },
            "ConfusedMeleeAttack02": {
                "attackPattern": {
                    "$type": "ConfigAttackCircle",
                    "triggerType": "TriggerNoRepeat",
                    "born": {
                        "$type": "ConfigBornBySelf",
                        "offset": {
                            "IBKBLDAJIMA": 0.0,
                            "LKHJADIPBFL": 0.0,
                            "PJCOKIGCJOK": 0.0
                        }
                    },
                    "height": 2.0,
                    "fanAngle": 180.0,
                    "DCMPFCIBIPA": 4.0
                },
                "attackInfo": {
                    "attackTag": "Fungus_Raptor_OverdoseAttack",
                    "attenuationTag": "Monster_Fungus_Raptor_01_ConfuseMeleeAttack",
                    "attenuationGroup": "Monster_Fungus_Raptor_ConfuseMeleeAttack",
                    "attackProperty": {
                        "HBIOLEEGHPD": 1.2000000476837158,
                        "CCNJGLPMIEP": 0.0,
                        "elementType": "Grass",
                        "bonusCriticalHurt": 25.0,
                        "strikeType": "Blunt",
                        "enBreak": 200.0,
                        "attackType": "Melee"
                    },
                    "hitPattern": {
                        "onHitEffectName": "default",
                        "hitImpulseType": "LV5",
                        "hitHaltTimeScale": 0.009999999776482582
                    },
                    "forceCameraShake": true,
                    "cameraShake": {
                        "shakeRange": 1.0,
                        "shakeTime": 0.30000001192092896,
                        "shakeDistance": 30.0
                    }
                }
            },
            "ConfusedMeleeAttack03": {
                "attackPattern": {
                    "$type": "ConfigAttackCircle",
                    "triggerType": "TriggerNoRepeat",
                    "born": {
                        "$type": "ConfigBornBySelf",
                        "offset": {
                            "IBKBLDAJIMA": 0.0,
                            "LKHJADIPBFL": 0.0,
                            "PJCOKIGCJOK": 0.0
                        }
                    },
                    "height": 2.0,
                    "fanAngle": 180.0,
                    "DCMPFCIBIPA": 4.0
                },
                "attackInfo": {
                    "attackTag": "Fungus_Raptor_OverdoseAttack",
                    "attenuationTag": "Monster_Fungus_Raptor_01_ConfuseMeleeAttack",
                    "attenuationGroup": "Monster_Fungus_Raptor_ConfuseMeleeAttack",
                    "attackProperty": {
                        "HBIOLEEGHPD": 1.2000000476837158,
                        "CCNJGLPMIEP": 0.0,
                        "elementType": "Grass",
                        "bonusCriticalHurt": 25.0,
                        "strikeType": "Blunt",
                        "enBreak": 200.0,
                        "attackType": "Melee"
                    },
                    "hitPattern": {
                        "onHitEffectName": "default",
                        "hitImpulseType": "LV5",
                        "hitHaltTimeScale": 0.009999999776482582
                    },
                    "forceCameraShake": true,
                    "cameraShake": {
                        "shakeRange": 1.0,
                        "shakeTime": 0.30000001192092896,
                        "shakeDistance": 30.0
                    }
                }
            },
            "ConfusedMeleeAttack04": {
                "attackPattern": {
                    "$type": "ConfigAttackCircle",
                    "triggerType": "TriggerNoRepeat",
                    "born": {
                        "$type": "ConfigBornBySelf",
                        "offset": {
                            "IBKBLDAJIMA": 0.0,
                            "LKHJADIPBFL": 0.0,
                            "PJCOKIGCJOK": 0.0
                        }
                    },
                    "height": 2.0,
                    "fanAngle": 120.0,
                    "DCMPFCIBIPA": 4.0
                },
                "attackInfo": {
                    "attackTag": "Fungus_Raptor_OverdoseAttack",
                    "attenuationTag": "Monster_Fungus_Raptor_01_ConfuseMeleeAttack",
                    "attenuationGroup": "Monster_Fungus_Raptor_ConfuseMeleeAttack",
                    "attackProperty": {
                        "HBIOLEEGHPD": 1.2000000476837158,
                        "CCNJGLPMIEP": 0.0,
                        "elementType": "Grass",
                        "bonusCriticalHurt": 25.0,
                        "strikeType": "Blunt",
                        "enBreak": 200.0,
                        "attackType": "Melee"
                    },
                    "hitPattern": {
                        "onHitEffectName": "default",
                        "hitImpulseType": "LV5",
                        "hitHaltTimeScale": 0.009999999776482582
                    },
                    "forceCameraShake": true,
                    "cameraShake": {
                        "shakeRange": 1.0,
                        "shakeTime": 0.30000001192092896,
                        "shakeDistance": 30.0
                    }
                }
            },
            "ChargeAttack": {
                "attackPattern": {
                    "$type": "ConfigAttackCircle",
                    "triggerType": "TriggerNoRepeat",
                    "born": {
                        "$type": "ConfigBornBySelf",
                        "offset": {
                            "IBKBLDAJIMA": 0.0,
                            "LKHJADIPBFL": 0.0,
                            "PJCOKIGCJOK": 0.0
                        }
                    },
                    "height": 2.0,
                    "DCMPFCIBIPA": 4.0
                },
                "attackInfo": {
                    "attackTag": "Fungus_Raptor_OverdoseAttack",
                    "attenuationTag": "Monster_Fungus_Raptor_01_ChargeAttack",
                    "attenuationGroup": "Monster_Fungus_Raptor_ChargeAttack",
                    "attackProperty": {
                        "HBIOLEEGHPD": 1.2000000476837158,
                        "CCNJGLPMIEP": 0.0,
                        "elementType": "Grass",
                        "bonusCriticalHurt": 25.0,
                        "strikeType": "Blunt",
                        "enBreak": 200.0,
                        "attackType": "Melee"
                    },
                    "hitPattern": {
                        "onHitEffectName": "default",
                        "hitImpulseType": "LV5",
                        "retreatType": "ByTangent",
                        "hitHaltTimeScale": 0.009999999776482582
                    },
                    "forceCameraShake": true,
                    "cameraShake": {
                        "shakeRange": 1.0,
                        "shakeTime": 0.30000001192092896,
                        "shakeDistance": 15.0
                    }
                }
            }
        },
        "summon": {
            "summonTags": [
                {
                    "summonTag": 26090202,
                    "name": "Fungus_Raptor_SummonFungus",
                    "maxNum": 4,
                    "GIJEOIPCHHE": true,
                    "JIALILMEGAN": true
                }
            ]
        }
    },
    "abilities": [
        {
            "abilityID": "",
            "abilityName": "Monster_Fungus_Raptor_01_StateManager",
            "abilityOverride": ""
        },
        {
            "abilityID": "",
            "abilityName": "Monster_Fungus_Raptor_01_ReduceBoost",
            "abilityOverride": ""
        },
        {
            "abilityID": "",
            "abilityName": "Monster_Fungus_Raptor_01_ReduceLessBoost",
            "abilityOverride": ""
        },
        {
            "abilityID": "",
            "abilityName": "Monster_Fungus_Raptor_01_ClearBoost",
            "abilityOverride": ""
        },
        {
            "abilityID": "",
            "abilityName": "Monster_Fungus_Raptor_01_EnterCharged",
            "abilityOverride": ""
        },
        {
            "abilityID": "",
            "abilityName": "Monster_Fungus_Raptor_01_ExitCharged",
            "abilityOverride": ""
        },
        {
            "abilityID": "",
            "abilityName": "Monster_Fungus_Raptor_01_ReturnToBorn",
            "abilityOverride": ""
        },
        {
            "abilityID": "",
            "abilityName": "Monster_Fungus_Raptor_01_ComboHandler",
            "abilityOverride": ""
        },
        {
            "abilityID": "",
            "abilityName": "Monster_Fungus_Raptor_01_FaintTrigger",
            "abilityOverride": ""
        },
        {
            "abilityID": "",
            "abilityName": "Monster_Fungus_Raptor_01_Steer",
            "abilityOverride": ""
        },
        {
            "abilityID": "",
            "abilityName": "Monster_Fungus_Raptor_01_MeleeAttack",
            "abilityOverride": ""
        },
        {
            "abilityID": "",
            "abilityName": "Monster_Fungus_Raptor_01_ChargeAttack",
            "abilityOverride": ""
        },
        {
            "abilityID": "",
            "abilityName": "Monster_Fungus_Raptor_01_SporeAttack_Boost",
            "abilityOverride": ""
        },
        {
            "abilityID": "",
            "abilityName": "Monster_Fungus_Raptor_01_ShootAttack01_Boost",
            "abilityOverride": ""
        },
        {
            "abilityID": "",
            "abilityName": "Monster_Fungus_Raptor_01_ShootAttack02_Boost",
            "abilityOverride": ""
        },
        {
            "abilityID": "",
            "abilityName": "Monster_Fungus_Raptor_01_ShootAttack03_Boost",
            "abilityOverride": ""
        },
        {
            "abilityID": "",
            "abilityName": "Monster_Fungus_Raptor_01_PowerAttack",
            "abilityOverride": ""
        },
        {
            "abilityID": "",
            "abilityName": "Monster_Fungus_Raptor_01_DecayedSummonAttack",
            "abilityOverride": ""
        },
        {
            "abilityID": "",
            "abilityName": "Monster_Fungus_Raptor_Achievement_82133",
            "abilityOverride": ""
        }
    ],
    "stateLayers": {
        "defaultLayer": {
            "$type": "ConfigNormalStateLayer",
            "layerIndexName": "",
            "stateIDs": {
                "NormalIdle": {
                    "$type": "ConfigMonsterStateIDInfo",
                    "animatorStates": {
                        "Standby": [],
                        "Faint_Charge": [
                            "Audio_Monster_Fungus_Raptor_Faint_Loop"
                        ]
                    },
                    "canDoSkill": true,
                    "canSyncMove": true,
                    "resetAnimatorTriggerOnExit": [
                        "DoSkill"
                    ],
                    "canSteer": true
                },
                "FreeMove": {
                    "$type": "ConfigMonsterStateIDInfo",
                    "animatorStates": {
                        "WalkFree": [
                            "Audio_Monster_Fungus_Raptor_WalkFree"
                        ]
                    },
                    "canSyncMove": true,
                    "resetAnimatorTriggerOnExit": [
                        "DoSkill"
                    ],
                    "canSteer": true
                },
                "NormalMove": {
                    "$type": "ConfigMonsterStateIDInfo",
                    "animatorStates": {
                        "WalkForward_BS": [
                            "Audio_Monster_Fungus_Raptor_Walk"
                        ],
                        "WalkForward": [
                            "Audio_Monster_Fungus_Raptor_Walk"
                        ],
                        "WalkBack_BS": [
                            "Audio_Monster_Fungus_Raptor_Walk"
                        ],
                        "WalkBack": [
                            "Audio_Monster_Fungus_Raptor_Walk"
                        ],
                        "Run_BS": [
                            "Audio_Monster_Fungus_Raptor_Run"
                        ],
                        "Run": [
                            "Audio_Monster_Fungus_Raptor_Run"
                        ]
                    },
                    "canDoSkill": true,
                    "canSyncMove": true,
                    "resetAnimatorTriggerOnExit": [
                        "DoSkill"
                    ],
                    "canSteer": true
                },
                "WalkLeft": {
                    "$type": "ConfigMonsterStateIDInfo",
                    "animatorStates": {
                        "WalkLeft": [
                            "Audio_Monster_Fungus_Raptor_BackStep"
                        ]
                    },
                    "resetAnimatorTriggerOnExit": [
                        "DoSkill"
                    ],
                    "canSteer": true
                },
                "WalkRght": {
                    "$type": "ConfigMonsterStateIDInfo",
                    "animatorStates": {
                        "WalkRght": [
                            "Audio_Monster_Fungus_Raptor_BackStep"
                        ]
                    },
                    "resetAnimatorTriggerOnExit": [
                        "DoSkill"
                    ],
                    "canSteer": true
                },
                "TurnLeft": {
                    "$type": "ConfigMonsterStateIDInfo",
                    "animatorStates": {
                        "TurnLeft": [
                            "Audio_Monster_Fungus_Raptor_Turn"
                        ]
                    },
                    "canSyncMove": true,
                    "resetAnimatorTriggerOnExit": [
                        "DoSkill"
                    ],
                    "canSteer": true
                },
                "TurnRight": {
                    "$type": "ConfigMonsterStateIDInfo",
                    "animatorStates": {
                        "TurnRight": [
                            "Audio_Monster_Fungus_Raptor_Turn"
                        ]
                    },
                    "canSyncMove": true,
                    "resetAnimatorTriggerOnExit": [
                        "DoSkill"
                    ],
                    "canSteer": true
                },
                "Die": {
                    "$type": "ConfigMonsterStateIDInfo",
                    "animatorStates": {
                        "Die": [
                            "Monster_Fungus_Raptor_Die",
                            "Audio_Monster_Fungus_Raptor_Die"
                        ]
                    }
                },
                "Born": {
                    "$type": "ConfigMonsterStateIDInfo",
                    "animatorStates": {
                        "Born": []
                    },
                    "canSyncMove": true,
                    "resetAnimatorTriggerOnExit": [
                        "DoSkill"
                    ]
                },
                "Warning": {
                    "$type": "ConfigMonsterStateIDInfo",
                    "animatorStates": {
                        "Alert": [
                            "Audio_Monster_Fungus_Raptor_Alert"
                        ]
                    },
                    "resetAnimatorTriggerOnExit": [
                        "BeHit",
                        "DoSkill"
                    ],
                    "canSteer": true
                },
                "ChangeState": {
                    "$type": "ConfigMonsterStateIDInfo",
                    "animatorStates": {
                        "EnterOverdose": [
                            "Audio_Monster_Fungus_Raptor_EnterOverdose"
                        ]
                    },
                    "resetAnimatorTriggerOnEnter": [
                        "BeHit"
                    ],
                    "resetAnimatorTriggerOnExit": [
                        "DoSkill"
                    ],
                    "KOKKPDGIOPB": true
                },
                "IdleFree01": {
                    "$type": "ConfigMonsterStateIDInfo",
                    "animatorStates": {
                        "IdleFree01": [
                            "Audio_Monster_Fungus_Raptor_IdleFree01"
                        ]
                    },
                    "canDoSkill": true,
                    "resetAnimatorTriggerOnExit": [
                        "BeHit",
                        "DoSkill"
                    ]
                },
                "IdleFree02": {
                    "$type": "ConfigMonsterStateIDInfo",
                    "animatorStates": {
                        "IdleFree02": [
                            "Audio_Monster_Fungus_Raptor_IdleFree02"
                        ]
                    },
                    "canDoSkill": true,
                    "resetAnimatorTriggerOnExit": [
                        "BeHit",
                        "DoSkill"
                    ]
                },
                "BackStep": {
                    "$type": "ConfigMonsterStateIDInfo",
                    "animatorStates": {
                        "BackStep": [
                            "Monster_Fungus_Raptor_BackStep",
                            "Audio_Monster_Fungus_Raptor_BackStep"
                        ]
                    },
                    "resetAnimatorTriggerOnExit": [
                        "BeHit",
                        "DoSkill"
                    ],
                    "canSteer": true
                },
                "ShootAttackBackStep": {
                    "$type": "ConfigMonsterStateIDInfo",
                    "animatorStates": {
                        "ShootAttackBackStep": [
                            "Monster_Fungus_Raptor_BackStep",
                            "Audio_Monster_Fungus_Raptor_BackStep"
                        ]
                    },
                    "resetAnimatorTriggerOnExit": [
                        "BeHit",
                        "DoSkill"
                    ],
                    "canSteer": true
                },
                "LeftStep": {
                    "$type": "ConfigMonsterStateIDInfo",
                    "animatorStates": {
                        "LeftStep": [
                            "Monster_Fungus_Raptor_BackStep",
                            "Audio_Monster_Fungus_Raptor_BackStep"
                        ]
                    },
                    "resetAnimatorTriggerOnExit": [
                        "BeHit",
                        "DoSkill"
                    ],
                    "canSteer": true
                },
                "RightStep": {
                    "$type": "ConfigMonsterStateIDInfo",
                    "animatorStates": {
                        "RightStep": [
                            "Monster_Fungus_Raptor_BackStep",
                            "Audio_Monster_Fungus_Raptor_BackStep"
                        ]
                    },
                    "resetAnimatorTriggerOnExit": [
                        "BeHit",
                        "DoSkill"
                    ],
                    "canSteer": true
                },
                "MeleeAttackLeftStep": {
                    "$type": "ConfigMonsterStateIDInfo",
                    "animatorStates": {
                        "MeleeAttackLeftStep": [
                            "Monster_Fungus_Raptor_BackStep",
                            "Audio_Monster_Fungus_Raptor_BackStep"
                        ]
                    },
                    "resetAnimatorTriggerOnExit": [
                        "BeHit",
                        "DoSkill"
                    ],
                    "canSteer": true
                },
                "MeleeAttackRightStep": {
                    "$type": "ConfigMonsterStateIDInfo",
                    "animatorStates": {
                        "MeleeAttackRightStep": [
                            "Monster_Fungus_Raptor_BackStep",
                            "Audio_Monster_Fungus_Raptor_BackStep"
                        ]
                    },
                    "resetAnimatorTriggerOnExit": [
                        "BeHit",
                        "DoSkill"
                    ],
                    "canSteer": true
                },
                "ShootAttackLeftStep": {
                    "$type": "ConfigMonsterStateIDInfo",
                    "animatorStates": {
                        "ShootAttackLeftStep": [
                            "Monster_Fungus_Raptor_BackStep",
                            "Audio_Monster_Fungus_Raptor_BackStep"
                        ]
                    },
                    "resetAnimatorTriggerOnExit": [
                        "BeHit",
                        "DoSkill"
                    ],
                    "canSteer": true
                },
                "ShootAttackRightStep": {
                    "$type": "ConfigMonsterStateIDInfo",
                    "animatorStates": {
                        "ShootAttackRightStep": [
                            "Monster_Fungus_Raptor_BackStep",
                            "Audio_Monster_Fungus_Raptor_BackStep"
                        ]
                    },
                    "resetAnimatorTriggerOnExit": [
                        "BeHit",
                        "DoSkill"
                    ],
                    "canSteer": true
                },
                "MeleeAttack_BS": {
                    "$type": "ConfigMonsterStateIDInfo",
                    "animatorStates": {
                        "MeleeAttack01_BS": [
                            "Audio_Monster_Fungus_Raptor_MeleeAttack01_BS"
                        ]
                    },
                    "resetAnimatorTriggerOnExit": [
                        "BeHit",
                        "DoSkill"
                    ],
                    "canSteer": true
                },
                "MeleeAttack02_BS": {
                    "$type": "ConfigMonsterStateIDInfo",
                    "animatorStates": {
                        "MeleeAttack02_BS": [
                            "Audio_Monster_Fungus_Raptor_MeleeAttack02_BS"
                        ]
                    },
                    "resetAnimatorTriggerOnExit": [
                        "BeHit",
                        "DoSkill"
                    ],
                    "canSteer": true
                },
                "MeleeAttack03_BS": {
                    "$type": "ConfigMonsterStateIDInfo",
                    "animatorStates": {
                        "MeleeAttack03_BS": [
                            "Monster_Fungus_Raptor_MeleeAttack03_BS",
                            "Audio_Monster_Fungus_Raptor_MeleeAttack03_BS"
                        ]
                    },
                    "resetAnimatorTriggerOnExit": [
                        "BeHit",
                        "DoSkill"
                    ],
                    "canSteer": true
                },
                "MeleeAttack01_Attack": {
                    "$type": "ConfigMonsterStateIDInfo",
                    "animatorStates": {
                        "MeleeAttack01_Attack": [
                            "Monster_Fungus_Raptor_MeleeAttack01_Boost_Attack",
                            "Audio_Monster_Fungus_Raptor_MeleeAttack01_Attack"
                        ]
                    },
                    "resetAnimatorTriggerOnExit": [
                        "BeHit",
                        "DoSkill"
                    ]
                },
                "MeleeAttack02_Attack": {
                    "$type": "ConfigMonsterStateIDInfo",
                    "animatorStates": {
                        "MeleeAttack02_Attack": [
                            "Monster_Fungus_Raptor_MeleeAttack02_Boost_Attack",
                            "Audio_Monster_Fungus_Raptor_MeleeAttack02_Attack"
                        ]
                    },
                    "resetAnimatorTriggerOnExit": [
                        "BeHit",
                        "DoSkill"
                    ]
                },
                "MeleeAttack03_Attack": {
                    "$type": "ConfigMonsterStateIDInfo",
                    "animatorStates": {
                        "MeleeAttack03_Attack": [
                            "Monster_Fungus_Raptor_MeleeAttack03_Boost_Attack",
                            "Audio_Monster_Fungus_Raptor_MeleeAttack03_Attack"
                        ]
                    },
                    "resetAnimatorTriggerOnExit": [
                        "BeHit",
                        "DoSkill"
                    ]
                },
                "MeleeAttack01_AS": {
                    "$type": "ConfigMonsterStateIDInfo",
                    "animatorStates": {
                        "MeleeAttack01_AS": [
                            "Audio_Monster_Fungus_Raptor_MeleeAttack01_AS"
                        ]
                    },
                    "resetAnimatorTriggerOnExit": [
                        "BeHit",
                        "DoSkill"
                    ]
                },
                "MeleeAttack02_AS": {
                    "$type": "ConfigMonsterStateIDInfo",
                    "animatorStates": {
                        "MeleeAttack02_AS": [
                            "Audio_Monster_Fungus_Raptor_MeleeAttack02_AS"
                        ]
                    },
                    "resetAnimatorTriggerOnExit": [
                        "BeHit",
                        "DoSkill"
                    ]
                },
                "MeleeAttack03_AS": {
                    "$type": "ConfigMonsterStateIDInfo",
                    "animatorStates": {
                        "MeleeAttack03_AS": [
                            "Monster_Fungus_Raptor_MeleeAttack03_AS",
                            "Audio_Monster_Fungus_Raptor_MeleeAttack03_AS"
                        ]
                    },
                    "resetAnimatorTriggerOnExit": [
                        "BeHit",
                        "DoSkill"
                    ]
                },
                "SporeAttack_BS": {
                    "$type": "ConfigMonsterStateIDInfo",
                    "animatorStates": {
                        "SporeAttack_BS": [
                            "Monster_Fungus_Raptor_SporeAttack_Boost_BS",
                            "Audio_Monster_Fungus_Raptor_SporeAttack_BS"
                        ],
                        "SporeAttack_Ready": [
                            "Monster_Fungus_Raptor_SporeAttack_Ready",
                            "Audio_Monster_Fungus_Raptor_SporeAttack_Ready"
                        ]
                    },
                    "resetAnimatorTriggerOnExit": [
                        "BeHit",
                        "DoSkill"
                    ],
                    "canSteer": true
                },
                "SporeAttack": {
                    "$type": "ConfigMonsterStateIDInfo",
                    "animatorStates": {
                        "SporeAttack_Attack": [
                            "Monster_Fungus_Raptor_SporeAttack_Boost_Attack",
                            "Audio_Monster_Fungus_Raptor_SporeAttack_Attack"
                        ],
                        "SporeAttack_AS": [
                            "Monster_Fungus_Raptor_SporeAttack_AS",
                            "Audio_Monster_Fungus_Raptor_SporeAttack_AS"
                        ]
                    },
                    "resetAnimatorTriggerOnExit": [
                        "BeHit",
                        "DoSkill"
                    ],
                    "canSteer": true
                },
                "ShootAttack_BS": {
                    "$type": "ConfigMonsterStateIDInfo",
                    "animatorStates": {
                        "ShootAttack01_BS": [
                            "Monster_Fungus_Raptor_ShootAttack01_BS",
                            "Audio_Monster_Fungus_Raptor_ShootAttack01_BS"
                        ],
                        "ShootAttack01_Ready": [],
                        "ShootAttack02_BS": [
                            "Monster_Fungus_Raptor_ShootAttack02_BS",
                            "Audio_Monster_Fungus_Raptor_ShootAttack02_BS"
                        ],
                        "ShootAttack02_Ready": [],
                        "ShootAttack03_BS": [
                            "Monster_Fungus_Raptor_ShootAttack03_BS",
                            "Audio_Monster_Fungus_Raptor_ShootAttack03_BS"
                        ],
                        "ShootAttack03_Ready": []
                    },
                    "resetAnimatorTriggerOnExit": [
                        "BeHit",
                        "DoSkill",
                        "ToMeleeAttackTrigger"
                    ],
                    "canSteer": true
                },
                "ShootAttack": {
                    "$type": "ConfigMonsterStateIDInfo",
                    "animatorStates": {
                        "ShootAttack01_Attack": [
                            "Monster_Fungus_Raptor_ShootAttack01_Boost_Attack",
                            "Audio_Monster_Fungus_Raptor_ShootAttack01_Attack"
                        ],
                        "ShootAttack01_AS": [
                            "Audio_Monster_Fungus_Raptor_ShootAttack02_AS"
                        ],
                        "ShootAttack02_Attack": [
                            "Monster_Fungus_Raptor_ShootAttack02_Boost_Attack",
                            "Audio_Monster_Fungus_Raptor_ShootAttack01_Attack"
                        ],
                        "ShootAttack02_AS": [
                            "Audio_Monster_Fungus_Raptor_ShootAttack02_AS"
                        ],
                        "ShootAttack03_Attack": [
                            "Monster_Fungus_Raptor_ShootAttack03_Boost_Attack",
                            "Audio_Monster_Fungus_Raptor_ShootAttack03_Attack"
                        ],
                        "ShootAttack03_AS": [
                            "Monster_Fungus_Raptor_ShootAttack03_AS",
                            "Audio_Monster_Fungus_Raptor_ShootAttack03_AS"
                        ]
                    },
                    "resetAnimatorTriggerOnExit": [
                        "BeHit",
                        "DoSkill",
                        "ToMeleeAttackTrigger"
                    ],
                    "canSteer": true
                },
                "Taunt": {
                    "$type": "ConfigMonsterStateIDInfo",
                    "animatorStates": {
                        "Taunt01": [
                            "Monster_Fungus_Raptor_Taunt01",
                            "Audio_Monster_Fungus_Raptor_Taunt"
                        ]
                    },
                    "resetAnimatorTriggerOnExit": [
                        "BeHit",
                        "DoSkill"
                    ],
                    "canSteer": true
                },
                "ConfusedMeleeAttack": {
                    "$type": "ConfigMonsterStateIDInfo",
                    "animatorStates": {
                        "ConfusedMeleeAttack": [
                            "Monster_Fungus_Raptor_ConfusedMeleeAttack",
                            "Audio_Monster_Fungus_Raptor_ConfusedMeleeAttack"
                        ]
                    },
                    "resetAnimatorTriggerOnExit": [
                        "BeHit",
                        "DoSkill"
                    ],
                    "canSteer": true
                },
                "ChargeAttack_BS": {
                    "$type": "ConfigMonsterStateIDInfo",
                    "animatorStates": {
                        "ChargeAttack_BS": [
                            "Monster_Fungus_Raptor_ChargeAttack_BS",
                            "Audio_Monster_Fungus_Raptor_ChargeAttack_BS"
                        ]
                    },
                    "resetAnimatorTriggerOnExit": [
                        "BeHit",
                        "DoSkill"
                    ],
                    "canSteer": true
                },
                "ChargeAttack_RushLoop": {
                    "$type": "ConfigMonsterStateIDInfo",
                    "animatorStates": {
                        "ChargeAttack_BS02": [
                            "Audio_Monster_Fungus_Raptor_ChargeAttack_BS_02"
                        ],
                        "ChargeAttack_RushLoop01": [
                            "Monster_Fungus_Raptor_ChargeAttack_RushLoop",
                            "Audio_Monster_Fungus_Raptor_Run"
                        ],
                        "ChargeAttack_RushLoop02": [
                            "Monster_Fungus_Raptor_ChargeAttack_RushLoop",
                            "Audio_Monster_Fungus_Raptor_Run"
                        ],
                        "ChargeAttack_RushLoop03": [
                            "Monster_Fungus_Raptor_ChargeAttack_RushLoop",
                            "Audio_Monster_Fungus_Raptor_Run"
                        ]
                    },
                    "resetAnimatorTriggerOnExit": [
                        "BeHit",
                        "DoSkill"
                    ],
                    "canSteer": true
                },
                "ChargeAttack": {
                    "$type": "ConfigMonsterStateIDInfo",
                    "animatorStates": {
                        "ChargeAttack_Attack": [
                            "Monster_Fungus_Raptor_ChargeAttack_Attack",
                            "Audio_Monster_Fungus_Raptor_ChargeAttack_Attack"
                        ]
                    },
                    "resetAnimatorTriggerOnExit": [
                        "BeHit",
                        "DoSkill"
                    ],
                    "canSteer": true
                },
                "ChargeAttack_TurnLeft": {
                    "$type": "ConfigMonsterStateIDInfo",
                    "animatorStates": {
                        "ChargeAttack_TurnLeft": [
                            "Monster_Fungus_Raptor_ChargeAttack_TurnLeft",
                            "Audio_Monster_Fungus_Raptor_ChargeAttack_Turn"
                        ]
                    },
                    "resetAnimatorTriggerOnExit": [
                        "BeHit",
                        "DoSkill"
                    ],
                    "canSteer": true
                },
                "ChargeAttack_TurnRight": {
                    "$type": "ConfigMonsterStateIDInfo",
                    "animatorStates": {
                        "ChargeAttack_TurnRight": [
                            "Monster_Fungus_Raptor_ChargeAttack_TurnRight",
                            "Audio_Monster_Fungus_Raptor_ChargeAttack_Turn"
                        ]
                    },
                    "resetAnimatorTriggerOnExit": [
                        "BeHit",
                        "DoSkill"
                    ],
                    "canSteer": true
                },
                "PowerAttack_BS": {
                    "$type": "ConfigMonsterStateIDInfo",
                    "animatorStates": {
                        "PowerAttack_BS": [
                            "Monster_Fungus_Raptor_PowerAttack_BS",
                            "Audio_Monster_Fungus_Raptor_PowerAttack_BS"
                        ]
                    },
                    "resetAnimatorTriggerOnExit": [
                        "BeHit",
                        "DoSkill"
                    ],
                    "canSteer": true
                },
                "PowerAttack": {
                    "$type": "ConfigMonsterStateIDInfo",
                    "animatorStates": {
                        "PowerAttack_BS02": [
                            "Monster_Fungus_Raptor_PowerAttack_BS02",
                            "Audio_Monster_Fungus_Raptor_PowerAttack_BS_02"
                        ],
                        "PowerAttack_AttackLoop": []
                    },
                    "resetAnimatorTriggerOnExit": [
                        "BeHit",
                        "DoSkill"
                    ],
                    "canSteer": true
                },
                "PowerAttack_AS": {
                    "$type": "ConfigMonsterStateIDInfo",
                    "animatorStates": {
                        "PowerAttack_AS": [
                            "Monster_Fungus_Raptor_PowerAttack_AS",
                            "Audio_Monster_Fungus_Raptor_PowerAttack_AS"
                        ]
                    },
                    "resetAnimatorTriggerOnExit": [
                        "BeHit",
                        "DoSkill"
                    ],
                    "canSteer": true
                },
                "Faint_AS": {
                    "$type": "ConfigMonsterStateIDInfo",
                    "animatorStates": {
                        "Faint_AS": [
                            "Monster_Fungus_Raptor_Faint_AS",
                            "Audio_Monster_Fungus_Raptor_Faint_AS"
                        ],
                        "ChargeAttack_AS": [
                            "Monster_Fungus_Raptor_Faint_AS",
                            "Audio_Monster_Fungus_Raptor_ChargeAttack_AS"
                        ]
                    },
                    "resetAnimatorTriggerOnExit": [
                        "BeHit",
                        "DoSkill"
                    ]
                },
                "Faint_BeHit": {
                    "$type": "ConfigMonsterStateIDInfo",
                    "animatorStates": {
                        "Faint_BeHit": []
                    },
                    "resetAnimatorTriggerOnExit": [
                        "BeHit",
                        "DoSkill"
                    ]
                },
                "DecayedSummonAttack": {
                    "$type": "ConfigMonsterStateIDInfo",
                    "animatorStates": {
                        "DecayedSummonAttack": [
                            "Monster_Fungus_Raptor_DecayedSummonAttack",
                            "Audio_Monster_Fungus_Raptor_DecayedSummonAttack"
                        ]
                    },
                    "resetAnimatorTriggerOnExit": [
                        "BeHit",
                        "DoSkill"
                    ],
                    "canSteer": true
                },
                "ReturnToBorn": {
                    "$type": "ConfigMonsterStateIDInfo",
                    "animatorStates": {
                        "ReturnToBorn": [
                            "Monster_Fungus_Raptor_ReturnToBorn",
                            "Audio_Monster_Fungus_Raptor_ReturnToBorn"
                        ]
                    },
                    "cullingModelAlwaysAnimate": true,
                    "resetAnimatorTriggerOnExit": [
                        "BeHit",
                        "DoSkill"
                    ]
                }
            }
        }
    },
    "billboard": {
        "$type": "ConfigCombatBillboard",
        "attachPoint": "BillboardAttach",
        "offset": {
            "y": 0.5
        },
        "radiusOffset": 1.0,
        "enableSelfAdapt": true,
        "showHPBar": true,
        "size": "Grand"
    },
    "initialPoses": {
        "Default": {
            "initialPoseID": 101
        }
    },
    "aibeta": {
        "enable": true,
        "moveSetting": {
            "useNavMesh": false,
            "navMeshAgentName": "Undead01"
        },
        "sensing": {
            "settings": {
                "DefaultSetting": {
                    "viewRange": 25.0,
                    "feelRange": 25.0
                }
            },
            "templates": {
                "DefaultTemplate": {
                    "DefaultPoses": "DefaultSetting"
                }
            }
        },
        "threat": {
            "clearThreatTargetDistance": 70.0,
            "clearThreatEdgeDistance": 2.0,
            "clearThreatByTargetOutOfZone": true,
            "viewThreatGrow": 35.0,
            "threatDecreaseSpeed": 100.0,
            "resistTauntLevel": "Monster_TauntLevel_4"
        },
        "defendArea": {
            "defendRange": 50.0
        },
        "skillGroupCDConfigs": [
            {
                "skillGroupCDID": 301,
                "skillGroupCDTime": 5.0
            },
            {
                "skillGroupCDID": 302,
                "skillGroupCDTime": 10.0
            }
        ],
        "skills": {
            "1": {
                "name": "OnAlert",
                "skillType": "OnAlert",
                "faceTarget": true,
                "publicCDGroup": "",
                "triggerGCD": false,
                "stateIDs": [
                    "Warning"
                ],
                "skillQueryingTime": 3.0,
                "flagTargetReachable": "10",
                "flagSelfOnTemplateCollider": "01",
                "flagSelfInZone": "10",
                "flagTargetInZone": "11"
            },
            "1011": {
                "name": "IdleFree01",
                "skillType": "Free",
                "castCondition": {
                    "pose": [
                        101
                    ]
                },
                "cd": 15.0,
                "initialCD": 15.0,
                "publicCDGroup": "",
                "triggerGCD": false,
                "stateIDs": [
                    "IdleFree01"
                ],
                "skillQueryingTime": 3.0,
                "flagTargetReachable": "10",
                "flagSelfOnTemplateCollider": "01",
                "flagSelfInZone": "10",
                "flagTargetInZone": "11"
            },
            "1012": {
                "name": "IdleFree02",
                "skillType": "Free",
                "castCondition": {
                    "pose": [
                        101
                    ]
                },
                "cd": 15.0,
                "initialCD": 15.0,
                "publicCDGroup": "",
                "triggerGCD": false,
                "stateIDs": [
                    "IdleFree02"
                ],
                "skillQueryingTime": 3.0,
                "flagTargetReachable": "10",
                "flagSelfOnTemplateCollider": "01",
                "flagSelfInZone": "10",
                "flagTargetInZone": "11"
            },
            "3011": {
                "name": "MeleeAttack_Active",
                "enableSkillPrepare": true,
                "skillPrepareTimeout": 2.0,
                "castCondition": {
                    "pose": [
                        301
                    ],
                    "needReInitCD": true,
                    "pickRangeMin": 6.0,
                    "pickRangeMax": 16.0,
                    "castRangeMax": 8.0
                },
                "cd": 4.0,
                "initialCD": 4.0,
                "publicCDGroup": "",
                "skillGroupCDID": 301,
                "stateIDs": [
                    "MeleeAttack01_BS",
                    "MeleeAttack01_Attack",
                    "MeleeAttack01_AS",
                    "MeleeAttack02_BS",
                    "MeleeAttack02_Attack",
                    "MeleeAttack02_AS",
                    "MeleeAttack03_BS",
                    "MeleeAttack03_Attack",
                    "MeleeAttack03_AS",
                    "ShootAttack_BS",
                    "ShootAttack",
                    "MeleeAttackLeftStep",
                    "MeleeAttackRightStep",
                    "ShootAttackLeftStep",
                    "ShootAttackRightStep"
                ],
                "flagTargetReachable": "10",
                "flagSelfOnTemplateCollider": "01",
                "flagSelfInZone": "10",
                "flagTargetInZone": "11"
            },
            "3012": {
                "name": "MeleeAttack_Passive",
                "skillPrepareTimeout": 2.0,
                "castCondition": {
                    "pose": [
                        301
                    ],
                    "needReInitCD": true,
                    "pickRangeMax": 6.0
                },
                "cd": 4.0,
                "initialCD": 4.0,
                "publicCDGroup": "",
                "skillGroupCDID": 301,
                "stateIDs": [
                    "MeleeAttack01_BS",
                    "MeleeAttack01_Attack",
                    "MeleeAttack01_AS",
                    "MeleeAttack02_BS",
                    "MeleeAttack02_Attack",
                    "MeleeAttack02_AS",
                    "MeleeAttack03_BS",
                    "MeleeAttack03_Attack",
                    "MeleeAttack03_AS",
                    "ShootAttack_BS",
                    "ShootAttack",
                    "MeleeAttackLeftStep",
                    "MeleeAttackRightStep",
                    "ShootAttackLeftStep",
                    "ShootAttackRightStep"
                ],
                "flagTargetReachable": "10",
                "flagSelfOnTemplateCollider": "01",
                "flagSelfInZone": "10",
                "flagTargetInZone": "11"
            },
            "3013": {
                "name": "SporeAttack",
                "priority": 2,
                "skillPrepareTimeout": 2.0,
                "castCondition": {
                    "pose": [
                        301
                    ],
                    "needReInitCD": true,
                    "pickRangeMin": 5.0,
                    "pickRangeMax": 12.0,
                    "SkillAnchorRangeMax": 12.0
                },
                "cd": 20.0,
                "cdUpperRange": 10.0,
                "initialCD": 20.0,
                "initialCDUpperRange": 20.0,
                "publicCDGroup": "",
                "stateIDs": [
                    "SporeAttack_BS",
                    "SporeAttack"
                ],
                "flagTargetReachable": "10",
                "flagSelfOnTemplateCollider": "01",
                "flagSelfInZone": "10",
                "flagTargetInZone": "11"
            },
            "3014": {
                "name": "ShootAttack_Far",
                "castCondition": {
                    "pose": [
                        301
                    ],
                    "needReInitCD": true,
                    "pickRangeMin": 11.0,
                    "pickRangeMax": 99.0
                },
                "cd": 6.0,
                "initialCD": 6.0,
                "publicCDGroup": "",
                "skillGroupCDID": 302,
                "stateIDs": [
                    "MeleeAttack01_BS",
                    "MeleeAttack01_Attack",
                    "MeleeAttack01_AS",
                    "MeleeAttack02_BS",
                    "MeleeAttack02_Attack",
                    "MeleeAttack02_AS",
                    "MeleeAttack03_BS",
                    "MeleeAttack03_Attack",
                    "MeleeAttack03_AS",
                    "ShootAttack_BS",
                    "ShootAttack",
                    "MeleeAttackLeftStep",
                    "MeleeAttackRightStep",
                    "ShootAttackLeftStep",
                    "ShootAttackRightStep"
                ],
                "flagTargetReachable": "10",
                "flagSelfOnTemplateCollider": "01",
                "flagSelfInZone": "10",
                "flagTargetInZone": "11"
            },
            "3017": {
                "name": "ShootAttack_Near",
                "castCondition": {
                    "pose": [
                        301
                    ],
                    "needReInitCD": true,
                    "pickRangeMax": 12.0
                },
                "cd": 15.0,
                "initialCD": 15.0,
                "publicCDGroup": "",
                "skillGroupCDID": 302,
                "stateIDs": [
                    "ShootAttackBackStep",
                    "MeleeAttack01_BS",
                    "MeleeAttack01_Attack",
                    "MeleeAttack01_AS",
                    "MeleeAttack02_BS",
                    "MeleeAttack02_Attack",
                    "MeleeAttack02_AS",
                    "MeleeAttack03_BS",
                    "MeleeAttack03_Attack",
                    "MeleeAttack03_AS",
                    "ShootAttack_BS",
                    "ShootAttack",
                    "MeleeAttackLeftStep",
                    "MeleeAttackRightStep",
                    "ShootAttackLeftStep",
                    "ShootAttackRightStep"
                ],
                "flagTargetReachable": "10",
                "flagSelfOnTemplateCollider": "01",
                "flagSelfInZone": "10",
                "flagTargetInZone": "11"
            },
            "3015": {
                "name": "Taunt",
                "priority": 1,
                "castCondition": {
                    "pose": [
                        301
                    ],
                    "needReInitCD": true,
                    "pickRangeMin": 10.0,
                    "pickRangeMax": 99.0
                },
                "cd": 20.0,
                "cdUpperRange": 30.0,
                "initialCD": 20.0,
                "initialCDUpperRange": 20.0,
                "publicCDGroup": "",
                "triggerGCD": false,
                "stateIDs": [
                    "Taunt"
                ],
                "flagTargetReachable": "10",
                "flagSelfOnTemplateCollider": "01",
                "flagSelfInZone": "10",
                "flagTargetInZone": "11"
            },
            "3021": {
                "name": "MeleeAttack_Boost",
                "enableSkillPrepare": true,
                "skillPrepareTimeout": 2.0,
                "castCondition": {
                    "pose": [
                        302
                    ],
                    "needReInitCD": true,
                    "pickRangeMax": 16.0,
                    "castRangeMax": 8.0
                },
                "cd": 5.0,
                "initialCD": 5.0,
                "publicCDGroup": "",
                "stateIDs": [
                    "MeleeAttack_BS",
                    "MeleeAttack",
                    "MeleeAttack_Boost_BS",
                    "MeleeAttack_Boost",
                    "ShootAttack_BS",
                    "ShootAttack",
                    "ShootAttack_Boost_BS",
                    "ShootAttack_Boost"
                ],
                "flagTargetReachable": "10",
                "flagSelfOnTemplateCollider": "01",
                "flagSelfInZone": "10",
                "flagTargetInZone": "11"
            },
            "3023": {
                "name": "SporeAttack_Boost",
                "priority": 2,
                "enableSkillPrepare": true,
                "skillPrepareTimeout": 2.0,
                "castCondition": {
                    "pose": [
                        302
                    ],
                    "needReInitCD": true,
                    "pickRangeMax": 10.0,
                    "castRangeMax": 5.0
                },
                "cd": 10.0,
                "cdUpperRange": 10.0,
                "initialCD": 10.0,
                "initialCDUpperRange": 10.0,
                "publicCDGroup": "",
                "stateIDs": [
                    "SporeAttack_Boost_BS",
                    "SporeAttack_Boost"
                ],
                "flagTargetReachable": "10",
                "flagSelfOnTemplateCollider": "01",
                "flagSelfInZone": "10",
                "flagTargetInZone": "11"
            },
            "3024": {
                "name": "ShootAttack_Boost",
                "castCondition": {
                    "pose": [
                        302
                    ],
                    "needReInitCD": true,
                    "pickRangeMin": 8.0,
                    "pickRangeMax": 25.0
                },
                "cd": 15.0,
                "initialCD": 15.0,
                "publicCDGroup": "",
                "stateIDs": [
                    "MeleeAttack_BS",
                    "MeleeAttack",
                    "MeleeAttack_Boost_BS",
                    "MeleeAttack_Boost",
                    "ShootAttack_BS",
                    "ShootAttack",
                    "ShootAttack_Boost_BS",
                    "ShootAttack_Boost"
                ],
                "flagTargetReachable": "10",
                "flagSelfOnTemplateCollider": "01",
                "flagSelfInZone": "10",
                "flagTargetInZone": "11"
            },
            "3119": {
                "name": "Faint_AS",
                "castCondition": {
                    "pose": [
                        311
                    ],
                    "needReInitCD": true
                },
                "initialCD": 18.0,
                "publicCDGroup": "",
                "stateIDs": [
                    "Faint_AS"
                ],
                "flagTargetReachable": "10",
                "flagSelfOnTemplateCollider": "01",
                "flagSelfInZone": "10",
                "flagTargetInZone": "11"
            },
            "3211": {
                "name": "DecayedSummonAttack",
                "castCondition": {
                    "pose": [
                        321
                    ],
                    "needReInitCD": true,
                    "pickRangeMax": 99.0
                },
                "publicCDGroup": "",
                "ignoreGCD": true,
                "triggerGCD": false,
                "stateIDs": [
                    "DecayedSummonAttack"
                ],
                "flagTargetReachable": "10",
                "flagSelfOnTemplateCollider": "01",
                "flagSelfInZone": "10",
                "flagTargetInZone": "11"
            }
        },
        "skillGCD": 6.0,
        "returnToBornTactic": {
            "enable": true,
            "defaultSetting": {
                "spacial": true,
                "LDEIPKCCHCP": 5.5
            }
        },
        "wanderTactic": {
            "enable": true,
            "condition": {
                "pose": [
                    101
                ]
            },
            "defaultSetting": {
                "turnSpeedOverride": 0.699999988079071,
                "cdMax": 3.0,
                "cdMin": 1.5,
                "distanceFromBorn": 15.0,
                "distanceFromCurrentMin": 3.75,
                "distanceFromCurrentMax": 7.5
            }
        },
        "meleeChargeTactic": {
            "enable": true,
            "condition": {
                "pose": [
                    301,
                    302
                ]
            },
            "defaultSetting": {
                "startDistanceMin": 10.0,
                "startDistanceMax": 50.0,
                "stopDistance": 10.0,
                "innerDistance": 17.0
            }
        },
        "facingMoveTactic": {
            "enable": true,
            "condition": {
                "pose": [
                    301,
                    302
                ]
            },
            "defaultSetting": {
                "rangeMin": 3.0,
                "rangeMax": 18.0,
                "restTimeMin": 2.0,
                "restTimeMax": 4.0,
                "facingMoveTurnInterval": 3.0,
                "facingMoveWeight": {
                    "stop": 0.0,
                    "left": 0.0,
                    "right": 0.0
                },
                "BBACFDEOBDP": "1111",
                "HANHJBCACAC": "1111"
            }
        }
    },
    "inputKeys": [
        {
            "keyID": 3011,
            "inputKeyCode": 257,
            "abilityName": ""
        },
        {
            "keyID": 3012,
            "inputKeyCode": 258,
            "abilityName": ""
        },
        {
            "keyID": 3013,
            "inputKeyCode": 259,
            "abilityName": ""
        },
        {
            "keyID": 3014,
            "inputKeyCode": 260,
            "abilityName": ""
        },
        {
            "keyID": 3015,
            "inputKeyCode": 261,
            "abilityName": ""
        },
        {
            "keyID": 3025,
            "inputKeyCode": 262,
            "abilityName": ""
        },
        {
            "keyID": 3111,
            "inputKeyCode": 263,
            "abilityName": ""
        },
        {
            "keyID": 3112,
            "inputKeyCode": 264,
            "abilityName": ""
        },
        {
            "keyID": 3211,
            "inputKeyCode": 265,
            "abilityName": ""
        },
        {
            "keyID": 9997,
            "inputKeyCode": 266,
            "abilityName": ""
        },
        {
            "keyID": 9998,
            "inputKeyCode": 267,
            "abilityName": ""
        },
        {
            "keyID": 9999,
            "inputKeyCode": 268,
            "abilityName": ""
        },
        {
            "keyID": 9001,
            "inputKeyCode": 269,
            "abilityName": ""
        },
        {
            "keyID": 9002,
            "inputKeyCode": 270,
            "abilityName": ""
        },
        {
            "keyID": 9003,
            "inputKeyCode": 271,
            "abilityName": ""
        },
        {
            "keyID": 9004,
            "inputKeyCode": 272,
            "abilityName": ""
        },
        {
            "keyID": 9005,
            "inputKeyCode": 273,
            "abilityName": ""
        }
    ],
    "move": {
        "$type": "ConfigAnimatorMove",
        "facingMove": "ForwardBackward",
        "positionModifyStateMap": {
            "311": "None"
        },
        "DKMAMJCLMMD": true,
        "JAHELKFLJJA": 1.0
    },
    "audio": {
        "CBJGDOAHMDC": "",
        "animAudio": {
            "onTransitionIn": [
                {
                    "currentStateName": "",
                    "audioEvent": {
                        "text": ""
                    }
                }
            ],
            "onTransitionOut": [
                {
                    "currentStateName": "IdleFree01",
                    "audioEvent": {
                        "text": "Stop_sfx_monster_Fungus_Raptor_idleFree01"
                    }
                },
                {
                    "currentStateName": "IdleFree02",
                    "audioEvent": {
                        "text": "Stop_sfx_monster_Fungus_Raptor_idleFree02"
                    }
                }
            ]
        }
    }
}