{
    "common": {
        "effectAttachShape": {
            "$type": "ConfigEffectAttachSkinnedMesh",
            "mesh": "EffectMesh"
        },
        "mass": 1000000000.0,
        "shadowViewSizeRatio": 0.0,
        "disableTickDistance": 100000.0,
        "DMDODHOAMEG": true,
        "useFinalIK": true
    },
    "specialPoint": {
        "elementAbsorb": "RootNode",
        "elementPendant": "",
        "elementDrop": "RootNode",
        "bulletAim": "LockPoint05",
        "hitPoints": [
            "LockPoint01",
            "LockPoint02",
            "LockPoint03",
            "LockPoint04",
            "LockPoint05",
            "LockPoint06",
            "LockPoint07",
            "LockPoint08",
            "LockPoint09",
            "LockPoint10",
            "LockPoint11",
            "LockPoint12",
            "LockPoint13",
            "LockPoint14",
            "LockPoint15",
            "LockPoint16",
            "LockPoint17",
            "LockPoint18",
            "LockPoint19",
            "LockPoint20"
        ],
        "selectedPoints": [
            "LockPoint01",
            "LockPoint02",
            "LockPoint03",
            "LockPoint04",
            "LockPoint05",
            "LockPoint06",
            "LockPoint07",
            "LockPoint08",
            "LockPoint09",
            "LockPoint10",
            "LockPoint11",
            "LockPoint12",
            "LockPoint13",
            "LockPoint14",
            "LockPoint15",
            "LockPoint16",
            "LockPoint17",
            "LockPoint18",
            "LockPoint19",
            "LockPoint20"
        ],
        "AICNIFCPLEG": true,
        "JHAJPDDPAFG": 1.0
    },
    "model": {
        "bornEffect": "",
        "attachEffect": "",
        "GAJBLHEGNNM": false
    },
    "globalValue": {
        "serverGlobalValues": [
            "SGV_MONSTER_NADA"
        ],
        "IECNAICOJGA": {
            "SGV_MONSTER_NADA": 0.0
        }
    },
    "combat": {
        "property": {
            "endureType": "Monster_Boss_Other",
            "weight": 20000.0
        },
        "beHit": {
            "hitBloodEffect": ""
        },
        "combatLock": {
            "lockShape": "CircleLockEnemy",
            "lockType": "Boss_Lv5"
        },
        "die": {
            "hasAnimatorDie": true,
            "dieEndTime": 0.5,
            "dieForceDisappearTime": 5.0,
            "dieDisappearEffect": "",
            "NLGENBICMGM": true,
            "OLFBIHLAOAP": true,
            "LOEEPBHGMFL": true,
            "PNKDGIGFGMN": true,
            "LGFCIGKOHHD": true,
            "BNKHGHFNJFN": true
        }
    },
    "abilities": [
        {
            "abilityID": "",
            "abilityName": "Monster_Nada_Stage02_Controller",
            "abilityOverride": ""
        },
        {
            "abilityID": "",
            "abilityName": "Monster_Nada_Stage02_WeakState",
            "abilityOverride": ""
        },
        {
            "abilityID": "",
            "abilityName": "Monster_Nada_Steer",
            "abilityOverride": ""
        },
        {
            "abilityID": "",
            "abilityName": "Monster_Nada_SetElfAppear",
            "abilityOverride": ""
        },
        {
            "abilityID": "",
            "abilityName": "Monster_Nada_SetElfDisappear",
            "abilityOverride": ""
        },
        {
            "abilityID": "",
            "abilityName": "Monster_Nada_OpenArmor",
            "abilityOverride": ""
        },
        {
            "abilityID": "",
            "abilityName": "Monster_Nada_CloseArmor",
            "abilityOverride": ""
        },
        {
            "abilityID": "",
            "abilityName": "Monster_Nada_Stage02_ClearThreat",
            "abilityOverride": ""
        },
        {
            "abilityID": "",
            "abilityName": "Monster_Nada_ElementBomb_Wave01",
            "abilityOverride": ""
        },
        {
            "abilityID": "",
            "abilityName": "Monster_Nada_ElementBomb_Wave02",
            "abilityOverride": ""
        },
        {
            "abilityID": "",
            "abilityName": "Monster_Nada_CoreSpire_Attack01",
            "abilityOverride": ""
        },
        {
            "abilityID": "",
            "abilityName": "Monster_Nada_CoreSpire_Attack02",
            "abilityOverride": ""
        },
        {
            "abilityID": "",
            "abilityName": "Monster_Nada_Stomp_Attack01",
            "abilityOverride": ""
        },
        {
            "abilityID": "",
            "abilityName": "Monster_Nada_Stomp_Attack02",
            "abilityOverride": ""
        },
        {
            "abilityID": "",
            "abilityName": "Monster_Nada_Stomp_Attack03",
            "abilityOverride": ""
        },
        {
            "abilityID": "",
            "abilityName": "Monster_Nada_FistDrop01",
            "abilityOverride": ""
        },
        {
            "abilityID": "",
            "abilityName": "Monster_Nada_FistDrop02",
            "abilityOverride": ""
        },
        {
            "abilityID": "",
            "abilityName": "Monster_Nada_ElectricCircle",
            "abilityOverride": ""
        },
        {
            "abilityID": "",
            "abilityName": "Monster_Nada_BarrageArray",
            "abilityOverride": ""
        },
        {
            "abilityID": "",
            "abilityName": "Monster_Nada_Doom",
            "abilityOverride": ""
        },
        {
            "abilityID": "",
            "abilityName": "Monster_Nada_TurnAtkL",
            "abilityOverride": ""
        },
        {
            "abilityID": "",
            "abilityName": "Monster_Nada_TurnAtkR",
            "abilityOverride": ""
        },
        {
            "abilityID": "",
            "abilityName": "Monster_Nada_Stage02_BlinkBS",
            "abilityOverride": ""
        },
        {
            "abilityID": "",
            "abilityName": "Monster_Nada_Stage02_FindBlinkPoint",
            "abilityOverride": ""
        },
        {
            "abilityID": "",
            "abilityName": "Monster_Nada_Stage02_FindBlinkPoint_Edge",
            "abilityOverride": ""
        },
        {
            "abilityID": "",
            "abilityName": "Monster_Nada_Stage02_FindBlinkPoint_Reborn",
            "abilityOverride": ""
        },
        {
            "abilityID": "",
            "abilityName": "Monster_Nada_Stage02_FindBlinkPoint_Center",
            "abilityOverride": ""
        },
        {
            "abilityID": "",
            "abilityName": "Monster_Nada_Stage02_Blink",
            "abilityOverride": ""
        },
        {
            "abilityID": "",
            "abilityName": "Monster_Nada_Stage02_BlinkAS",
            "abilityOverride": ""
        }
    ],
    "stateLayers": {
        "defaultLayer": {
            "$type": "ConfigNormalStateLayer",
            "layerIndexName": "",
            "stateIDs": {
                "Born": {
                    "$type": "ConfigMonsterStateIDInfo",
                    "animatorStates": {
                        "Born": []
                    },
                    "resetAnimatorTriggerOnExit": [
                        "DoSkill"
                    ]
                },
                "NormalIdle": {
                    "$type": "ConfigMonsterStateIDInfo",
                    "animatorStates": {
                        "Standby_Stage02": []
                    },
                    "canDoSkill": true,
                    "canSyncMove": true,
                    "resetAnimatorTriggerOnExit": [
                        "DoSkill"
                    ]
                },
                "Die": {
                    "$type": "ConfigMonsterStateIDInfo",
                    "animatorStates": {
                        "Die_Normal": [
                            "Monster_Nada_Stage02_Die",
                            "Audio_Monster_Nada_Die"
                        ],
                        "Die_Weak": [
                            "Monster_Nada_Stage02_Die",
                            "Audio_Monster_Nada_Die"
                        ]
                    }
                },
                "Weak": {
                    "$type": "ConfigMonsterStateIDInfo",
                    "animatorStates": {
                        "Weak_BS": [
                            "Audio_Monster_Nada_Weak_BS"
                        ],
                        "Weak_Start": [
                            "Audio_Monster_Nada_Weak_Start"
                        ],
                        "Weak_Loop": [],
                        "Weak_AS": [
                            "Monster_Nada_Stage02_WeakAS",
                            "Audio_Monster_Nada_Weak_AS"
                        ]
                    },
                    "canSyncMove": true,
                    "resetAnimatorTriggerOnEnter": [
                        "WeakStart"
                    ],
                    "resetAnimatorTriggerOnExit": [
                        "DoSkill",
                        "WeakEnd"
                    ]
                },
                "ShieldBroken": {
                    "$type": "ConfigMonsterStateIDInfo",
                    "animatorStates": {
                        "ShieldBroken": []
                    },
                    "canSyncMove": true,
                    "resetAnimatorTriggerOnEnter": [
                        "ShieldBroken"
                    ],
                    "resetAnimatorTriggerOnExit": [
                        "DoSkill"
                    ]
                },
                "ElementBomb": {
                    "$type": "ConfigMonsterStateIDInfo",
                    "animatorStates": {
                        "ElementBomb": [
                            "Monster_Nada_ElementBomb",
                            "Audio_Monster_Nada_ElectricBomb"
                        ]
                    },
                    "canSyncMove": true,
                    "resetAnimatorTriggerOnExit": [
                        "DoSkill"
                    ]
                },
                "Stomp": {
                    "$type": "ConfigMonsterStateIDInfo",
                    "animatorStates": {
                        "Stomp": [
                            "Monster_Nada_Stomp",
                            "Audio_Monster_Nada_Stomp"
                        ]
                    },
                    "canSyncMove": true,
                    "resetAnimatorTriggerOnEnter": [
                        "OpenArmor"
                    ],
                    "resetAnimatorTriggerOnExit": [
                        "DoSkill",
                        "CloseArmor"
                    ]
                },
                "FistDrop": {
                    "$type": "ConfigMonsterStateIDInfo",
                    "animatorStates": {
                        "FistDrop_BlinkBS": [
                            "Monster_Nada_FistDrop_BlinkBS",
                            "Audio_Monster_Nada_Blink_BS"
                        ],
                        "FistDrop01": [
                            "Monster_Nada_FistDrop01",
                            "Audio_Monster_Nada_FistDrop_01"
                        ],
                        "FistDrop02": [
                            "Monster_Nada_FistDrop02",
                            "Audio_Monster_Nada_FistDrop_02"
                        ],
                        "FistDrop_AS": [
                            "Monster_Nada_BlinkAS",
                            "Audio_Monster_Nada_Blink_AS"
                        ]
                    },
                    "canSyncMove": true,
                    "resetAnimatorTriggerOnExit": [
                        "DoSkill"
                    ],
                    "canSteer": true,
                    "followAnimRotation": true
                },
                "ElectricCircle": {
                    "$type": "ConfigMonsterStateIDInfo",
                    "animatorStates": {
                        "ElectricCircle": [
                            "Monster_Nada_ElectricCircle",
                            "Audio_Monster_Nada_ElectricCircle"
                        ]
                    },
                    "canSyncMove": true,
                    "resetAnimatorTriggerOnExit": [
                        "DoSkill"
                    ]
                },
                "CoreSpire": {
                    "$type": "ConfigMonsterStateIDInfo",
                    "animatorStates": {
                        "CoreSpire": [
                            "Monster_Nada_CoreSpire",
                            "Audio_Monster_Nada_CoreSpire"
                        ]
                    },
                    "canSyncMove": true,
                    "resetAnimatorTriggerOnEnter": [
                        "OpenArmor"
                    ],
                    "resetAnimatorTriggerOnExit": [
                        "DoSkill",
                        "CloseArmor"
                    ],
                    "canSteer": true,
                    "followAnimRotation": true
                },
                "BarrageArray": {
                    "$type": "ConfigMonsterStateIDInfo",
                    "animatorStates": {
                        "BarrageArray_BlinkBS": [
                            "Monster_Nada_BlinkBS",
                            "Audio_Monster_Nada_Blink_BS"
                        ],
                        "BarrageArray_BlinkAS": [
                            "Monster_Nada_BlinkAS",
                            "Audio_Monster_Nada_Blink_AS"
                        ],
                        "BarrageArray_BS": [
                            "Monster_Nada_BarrageBS",
                            "Audio_Monster_Nada_BarrageArray_BS"
                        ],
                        "BarrageArray_Loop": [],
                        "BarrageArray_AS": [
                            "Monster_Nada_BarrageAS",
                            "Audio_Monster_Nada_BarrageArray_AS"
                        ]
                    },
                    "canSyncMove": true,
                    "resetAnimatorTriggerOnEnter": [
                        "OpenArmor"
                    ],
                    "resetAnimatorTriggerOnExit": [
                        "DoSkill",
                        "CloseArmor"
                    ]
                },
                "Doom_BlinkBS": {
                    "$type": "ConfigMonsterStateIDInfo",
                    "animatorStates": {
                        "Doom_BlinkBS": [
                            "Monster_Nada_DoomBlinkBS",
                            "Audio_Monster_Nada_Doom_Blink_BS"
                        ]
                    },
                    "canSyncMove": true,
                    "resetAnimatorTriggerOnExit": [
                        "DoSkill"
                    ]
                },
                "Doom_BlinkAS": {
                    "$type": "ConfigMonsterStateIDInfo",
                    "animatorStates": {
                        "Doom_BlinkAS": [
                            "Monster_Nada_BlinkAS",
                            "Audio_Monster_Nada_Doom_Blink_AS"
                        ]
                    },
                    "canDoSkill": true,
                    "canSyncMove": true,
                    "resetAnimatorTriggerOnExit": [
                        "DoSkill"
                    ]
                },
                "Doom_BlinkEdge": {
                    "$type": "ConfigMonsterStateIDInfo",
                    "animatorStates": {
                        "Doom_BlinkEdgeBS": [
                            "Monster_Nada_BlinkBS",
                            "Audio_Monster_Nada_Blink_BS"
                        ],
                        "Doom_BlinkEdgeAS": [
                            "Monster_Nada_BlinkAS",
                            "Audio_Monster_Nada_Blink_AS"
                        ]
                    },
                    "canSyncMove": true,
                    "resetAnimatorTriggerOnExit": [
                        "DoSkill"
                    ]
                },
                "Doom": {
                    "$type": "ConfigMonsterStateIDInfo",
                    "animatorStates": {
                        "Doom_BS": [
                            "Monster_Nada_DoomBS",
                            "Audio_Monster_Nada_Doom_BS"
                        ],
                        "Doom_StandbyBS": [
                            "Audio_Monster_Nada_Doom_BS"
                        ],
                        "Doom_Loop": [
                            "Monster_Nada_DoomLoop"
                        ],
                        "Doom_Stop": [
                            "Monster_Nada_DoomStop",
                            "Audio_Monster_Nada_Doom_Stop"
                        ],
                        "Doom_AS": [
                            "Monster_Nada_DoomAS",
                            "Audio_Monster_Nada_Doom_AS"
                        ]
                    },
                    "canSyncMove": true,
                    "resetAnimatorTriggerOnEnter": [
                        "OpenArmor",
                        "ShieldBrokenState"
                    ],
                    "resetAnimatorTriggerOnExit": [
                        "DoSkill",
                        "CloseArmor"
                    ]
                },
                "TurnAtk90": {
                    "$type": "ConfigMonsterStateIDInfo",
                    "animatorStates": {
                        "TurnAtkL_90": [
                            "Audio_Monster_Nada_Turn"
                        ],
                        "TurnAtkR_90": [
                            "Audio_Monster_Nada_Turn"
                        ]
                    },
                    "canSyncMove": true,
                    "resetAnimatorTriggerOnExit": [
                        "DoSkill"
                    ],
                    "canSteer": true,
                    "followAnimRotation": true
                },
                "TurnAtk180": {
                    "$type": "ConfigMonsterStateIDInfo",
                    "animatorStates": {
                        "TurnAtkL_180": [
                            "Monster_Nada_TurnAtkL",
                            "Audio_Monster_Nada_TurnAtk"
                        ],
                        "TurnAtkR_180": [
                            "Monster_Nada_TurnAtkR",
                            "Audio_Monster_Nada_TurnAtk"
                        ]
                    },
                    "canSyncMove": true,
                    "resetAnimatorTriggerOnExit": [
                        "DoSkill"
                    ],
                    "canSteer": true,
                    "followAnimRotation": true
                },
                "ReturnToBorn": {
                    "$type": "ConfigMonsterStateIDInfo",
                    "animatorStates": {
                        "ReturnToBorn_BS": [
                            "Monster_Nada_ReturnToBornBS",
                            "Audio_Monster_Nada_Blink_BS"
                        ],
                        "ReturnToBorn_AS": [
                            "Monster_Nada_BlinkAS",
                            "Audio_Monster_Nada_Blink_AS"
                        ]
                    },
                    "canSyncMove": true,
                    "resetAnimatorTriggerOnExit": [
                        "DoSkill"
                    ]
                },
                "ReturnToCenter": {
                    "$type": "ConfigMonsterStateIDInfo",
                    "animatorStates": {
                        "ReturnToCenter_BS": [
                            "Monster_Nada_ReturnToBornBS",
                            "Audio_Monster_Nada_Blink_BS"
                        ],
                        "ReturnToCenter_AS": [
                            "Monster_Nada_BlinkAS",
                            "Audio_Monster_Nada_Blink_AS"
                        ]
                    },
                    "canSyncMove": true,
                    "resetAnimatorTriggerOnExit": [
                        "DoSkill"
                    ]
                },
                "ReturnToEdge": {
                    "$type": "ConfigMonsterStateIDInfo",
                    "animatorStates": {
                        "ReturnToEdge_BS": [
                            "Monster_Nada_BlinkBS",
                            "Audio_Monster_Nada_Blink_BS"
                        ],
                        "ReturnToEdge_AS": [
                            "Monster_Nada_BlinkAS",
                            "Audio_Monster_Nada_Blink_AS"
                        ],
                        "ReturnToEdge_Barrage": [
                            "Audio_Monster_Nada_BarrageArray_BS"
                        ],
                        "ReturnToEdge_Loop": []
                    },
                    "canSyncMove": true,
                    "resetAnimatorTriggerOnExit": [
                        "DoSkill"
                    ]
                }
            }
        }
    },
    "billboard": {
        "$type": "ConfigCombatBillboard",
        "attachPoint": "BillboardAttach",
        "offset": {
            "y": 1.0
        },
        "radiusOffset": 1.0,
        "showDistance": 200.0,
        "showHPBar": true,
        "size": "Grand"
    },
    "initialPoses": {
        "Default": {}
    },
    "aibeta": {
        "enable": true,
        "moveSetting": {
            "useNavMesh": false,
            "navMeshAgentName": "Undead01",
            "almostReachedDistanceWalk": 5.0,
            "almostReachedDistanceRun": 5.0,
            "snakelikeMoveSetting": {
                "minCurvature": 0.25,
                "maxCurvatrue": 0.5,
                "minSegmentDistance": 7.5,
                "segmentDistance": 8.0,
                "segmentCount": 2
            }
        },
        "aiCombat": {},
        "sensing": {
            "settings": {
                "DefaultSetting": {
                    "viewRange": 200.0,
                    "viewPanoramic": true,
                    "feelRange": 50.0
                },
                "Quest_Stage02": {
                    "viewRange": 200.0,
                    "viewPanoramic": true,
                    "feelRange": 66.5
                }
            },
            "templates": {
                "DefaultTemplate": {
                    "DefaultPoses": "DefaultSetting"
                },
                "QuestTemplate": {
                    "DefaultPoses": "Quest_Stage02"
                }
            }
        },
        "threat": {
            "clearThreatTargetDistance": 1000.0,
            "clearThreatEdgeDistance": 10.0,
            "clearThreatTimerByDistance": 10.0,
            "viewThreatGrow": 20.0,
            "resistTauntLevel": "Monster_TauntLevel_5"
        },
        "defendArea": {
            "defendRange": 120.0
        },
        "profiling": {
            "lodStrategy": "Best"
        },
        "network": {
            "syncSkill": true,
            "resetHpOnSpawn": false
        },
        "skillGroupCDConfigs": [
            {
                "skillGroupCDID": 1,
                "skillGroupCDTime": 35.0
            },
            {
                "skillGroupCDID": 2,
                "skillGroupCDTime": 12.5
            },
            {
                "skillGroupCDID": 3,
                "skillGroupCDTime": 12.5
            },
            {
                "skillGroupCDID": 4,
                "skillGroupCDTime": 10.0
            },
            {
                "skillGroupCDID": 5,
                "skillGroupCDTime": 20.0
            },
            {
                "skillGroupCDID": 6,
                "skillGroupCDTime": 135.0
            },
            {
                "skillGroupCDID": 7,
                "skillGroupCDTime": 15.0
            },
            {
                "skillGroupCDID": 8,
                "skillGroupCDTime": 20.0
            }
        ],
        "skillSetting": {
            "skillEliteSet": {
                "1": [
                    101,
                    151,
                    201,
                    251,
                    301,
                    401,
                    402,
                    501,
                    502,
                    601,
                    701,
                    752,
                    901,
                    1001
                ],
                "2": [
                    102,
                    152,
                    201,
                    251,
                    301,
                    401,
                    402,
                    501,
                    502,
                    901,
                    1001,
                    1101
                ]
            }
        },
        "skills": {
            "101": {
                "name": "ElementBomb",
                "priority": 4,
                "castCondition": {
                    "pose": [
                        201,
                        211,
                        221
                    ],
                    "needReInitCD": true,
                    "pickRangeMax": 100.0,
                    "SkillAnchorRangeMax": 21.0
                },
                "cd": 35.0,
                "cdUpperRange": 10.0,
                "initialCD": 2.0,
                "publicCDGroup": "",
                "skillGroupCDID": 1,
                "stateIDs": [
                    "ElementBomb"
                ],
                "skillQueryingTime": 3.0,
                "flagTargetReachable": "11",
                "flagSelfOnTemplateCollider": "11",
                "flagSelfInZone": "10",
                "flagTargetInZone": "11"
            },
            "102": {
                "name": "ElementBomb",
                "priority": 4,
                "castCondition": {
                    "pose": [
                        201,
                        211,
                        221
                    ],
                    "needReInitCD": true,
                    "pickRangeMax": 100.0,
                    "SkillAnchorRangeMax": 21.0
                },
                "cd": 75.0,
                "cdUpperRange": 15.0,
                "initialCD": 2.0,
                "publicCDGroup": "",
                "skillGroupCDID": 1,
                "stateIDs": [
                    "ElementBomb"
                ],
                "skillQueryingTime": 3.0,
                "flagTargetReachable": "11",
                "flagSelfOnTemplateCollider": "11",
                "flagSelfInZone": "10",
                "flagTargetInZone": "11"
            },
            "151": {
                "name": "ElementBomb",
                "priority": 4,
                "castCondition": {
                    "pose": [
                        201,
                        211,
                        221
                    ],
                    "needReInitCD": true,
                    "pickRangeMax": 100.0,
                    "JFDHPMFJGDF": 20.0
                },
                "cd": 35.0,
                "cdUpperRange": 10.0,
                "initialCD": 2.0,
                "publicCDGroup": "",
                "skillGroupCDID": 1,
                "stateIDs": [
                    "ReturnToBorn",
                    "ElementBomb"
                ],
                "skillQueryingTime": 3.0,
                "flagTargetReachable": "11",
                "flagSelfOnTemplateCollider": "11",
                "flagSelfInZone": "10",
                "flagTargetInZone": "11"
            },
            "152": {
                "name": "ElementBomb",
                "priority": 4,
                "castCondition": {
                    "pose": [
                        201,
                        211,
                        221
                    ],
                    "needReInitCD": true,
                    "pickRangeMax": 100.0,
                    "JFDHPMFJGDF": 20.0
                },
                "cd": 75.0,
                "cdUpperRange": 15.0,
                "initialCD": 2.0,
                "publicCDGroup": "",
                "skillGroupCDID": 1,
                "stateIDs": [
                    "ReturnToBorn",
                    "ElementBomb"
                ],
                "skillQueryingTime": 3.0,
                "flagTargetReachable": "11",
                "flagSelfOnTemplateCollider": "11",
                "flagSelfInZone": "10",
                "flagTargetInZone": "11"
            },
            "201": {
                "name": "Stomp",
                "castCondition": {
                    "pose": [
                        201,
                        211,
                        221
                    ],
                    "pickRangeMax": 70.0,
                    "SkillAnchorRangeMax": 40.0
                },
                "cd": 12.5,
                "cdUpperRange": 7.5,
                "initialCD": 2.0,
                "publicCDGroup": "",
                "skillGroupCDID": 7,
                "stateIDs": [
                    "Stomp"
                ],
                "skillQueryingTime": 3.0,
                "flagTargetReachable": "11",
                "flagSelfOnTemplateCollider": "11",
                "flagSelfInZone": "10",
                "flagTargetInZone": "11"
            },
            "251": {
                "name": "Stomp",
                "priority": 4,
                "castCondition": {
                    "pose": [
                        201,
                        211,
                        221
                    ],
                    "pickRangeMin": 40.0,
                    "SkillAnchorRangeMax": 40.0
                },
                "cd": 999999.0,
                "initialCD": 2.0,
                "publicCDGroup": "",
                "skillGroupCDID": 7,
                "stateIDs": [
                    "ReturnToCenter",
                    "Stomp"
                ],
                "skillQueryingTime": 3.0,
                "flagTargetReachable": "11",
                "flagSelfOnTemplateCollider": "11",
                "flagSelfInZone": "10",
                "flagTargetInZone": "11"
            },
            "301": {
                "name": "FistDrop",
                "priority": 4,
                "castCondition": {
                    "pose": [
                        201,
                        211,
                        221
                    ],
                    "needReInitCD": true
                },
                "cd": 42.5,
                "cdUpperRange": 5.0,
                "initialCD": 22.5,
                "initialCDUpperRange": 5.0,
                "publicCDGroup": "",
                "skillGroupCDID": 4,
                "stateIDs": [
                    "FistDrop"
                ],
                "skillQueryingTime": 3.0,
                "flagTargetReachable": "11",
                "flagSelfOnTemplateCollider": "11",
                "flagSelfInZone": "10",
                "flagTargetInZone": "11"
            },
            "401": {
                "name": "ElectricCircle",
                "castCondition": {
                    "pose": [
                        201,
                        211,
                        221
                    ],
                    "maxTargetAngleXZ": 150.0,
                    "pickRangeMin": 10.0,
                    "pickRangeMax": 40.0
                },
                "cd": 17.5,
                "cdUpperRange": 5.0,
                "initialCD": 2.0,
                "publicCDGroup": "",
                "skillGroupCDID": 8,
                "stateIDs": [
                    "ElectricCircle"
                ],
                "skillQueryingTime": 3.0,
                "flagTargetReachable": "11",
                "flagSelfOnTemplateCollider": "11",
                "flagSelfInZone": "10",
                "flagTargetInZone": "11"
            },
            "402": {
                "name": "ElectricCircle",
                "priority": 4,
                "castCondition": {
                    "pose": [
                        201,
                        211,
                        221
                    ],
                    "maxTargetAngleXZ": 150.0,
                    "pickRangeMin": 40.0,
                    "pickRangeMax": 70.0
                },
                "cd": 17.5,
                "cdUpperRange": 5.0,
                "initialCD": 2.0,
                "publicCDGroup": "",
                "skillGroupCDID": 8,
                "stateIDs": [
                    "ElectricCircle"
                ],
                "skillQueryingTime": 3.0,
                "flagTargetReachable": "11",
                "flagSelfOnTemplateCollider": "11",
                "flagSelfInZone": "10",
                "flagTargetInZone": "11"
            },
            "501": {
                "name": "CoreSpire",
                "priority": 4,
                "castCondition": {
                    "pose": [
                        201,
                        211,
                        221
                    ],
                    "pickRangeMax": 25.0
                },
                "cd": 12.5,
                "cdUpperRange": 7.5,
                "initialCD": 2.0,
                "publicCDGroup": "",
                "skillGroupCDID": 5,
                "stateIDs": [
                    "CoreSpire"
                ],
                "skillQueryingTime": 3.0,
                "flagTargetReachable": "11",
                "flagSelfOnTemplateCollider": "11",
                "flagSelfInZone": "10",
                "flagTargetInZone": "11"
            },
            "502": {
                "name": "CoreSpire",
                "castCondition": {
                    "pose": [
                        201,
                        211,
                        221
                    ],
                    "pickRangeMin": 25.0,
                    "pickRangeMax": 40.0
                },
                "cd": 12.5,
                "cdUpperRange": 7.5,
                "initialCD": 2.0,
                "publicCDGroup": "",
                "skillGroupCDID": 5,
                "stateIDs": [
                    "CoreSpire"
                ],
                "skillQueryingTime": 3.0,
                "flagTargetReachable": "11",
                "flagSelfOnTemplateCollider": "11",
                "flagSelfInZone": "10",
                "flagTargetInZone": "11"
            },
            "601": {
                "name": "BarrageArray",
                "priority": 3,
                "castCondition": {
                    "pose": [
                        201,
                        211,
                        221
                    ],
                    "needReInitCD": true
                },
                "cd": 50.0,
                "cdUpperRange": 10.0,
                "initialCD": 42.5,
                "initialCDUpperRange": 7.5,
                "publicCDGroup": "",
                "stateIDs": [
                    "BarrageArray"
                ],
                "skillQueryingTime": 3.0,
                "flagTargetReachable": "11",
                "flagSelfOnTemplateCollider": "11",
                "flagSelfInZone": "10",
                "flagTargetInZone": "11"
            },
            "701": {
                "name": "Doom",
                "priority": 1,
                "castCondition": {
                    "pose": [
                        211
                    ],
                    "needReInitCD": true
                },
                "cd": 175.0,
                "cdUpperRange": 15.0,
                "initialCD": 1.0,
                "publicCDGroup": "",
                "stateIDs": [
                    "Doom",
                    "Doom_BlinkEdge"
                ],
                "skillQueryingTime": 3.0,
                "flagTargetReachable": "11",
                "flagSelfOnTemplateCollider": "11",
                "flagSelfInZone": "10",
                "flagTargetInZone": "11"
            },
            "752": {
                "name": "Doom",
                "priority": 1,
                "castCondition": {
                    "pose": [
                        221
                    ],
                    "needReInitCD": true
                },
                "cd": 175.0,
                "cdUpperRange": 15.0,
                "initialCD": 175.0,
                "initialCDUpperRange": 15.0,
                "publicCDGroup": "",
                "stateIDs": [
                    "Doom",
                    "Doom_BlinkEdge"
                ],
                "skillQueryingTime": 3.0,
                "flagTargetReachable": "11",
                "flagSelfOnTemplateCollider": "11",
                "flagSelfInZone": "10",
                "flagTargetInZone": "11"
            },
            "901": {
                "name": "TurnAtk180",
                "priority": 4,
                "castCondition": {
                    "pose": [
                        201,
                        211,
                        221
                    ],
                    "minTargetAngleXZ": 135.0
                },
                "cd": 17.5,
                "cdUpperRange": 7.5,
                "initialCD": 2.0,
                "publicCDGroup": "",
                "skillGroupCDID": 3,
                "stateIDs": [
                    "TurnAtk180"
                ],
                "skillQueryingTime": 3.0,
                "flagTargetReachable": "10",
                "flagSelfOnTemplateCollider": "01",
                "flagSelfInZone": "10",
                "flagTargetInZone": "11"
            },
            "1001": {
                "name": "ReturnToBorn",
                "priority": 3,
                "castCondition": {
                    "pose": [
                        201,
                        211,
                        221
                    ],
                    "JFDHPMFJGDF": 40.0,
                    "DICEMOKJJFO": {
                        "PHLBHDMLMPF": 120.0
                    }
                },
                "cd": 12.5,
                "cdUpperRange": 5.0,
                "initialCD": 12.5,
                "publicCDGroup": "",
                "skillGroupCDID": 4,
                "stateIDs": [
                    "ReturnToBorn"
                ],
                "skillQueryingTime": 3.0,
                "flagTargetReachable": "11",
                "flagSelfOnTemplateCollider": "11",
                "flagSelfInZone": "10",
                "flagTargetInZone": "11"
            },
            "1101": {
                "name": "ReturnToEdge",
                "priority": 1,
                "castCondition": {
                    "pose": [
                        901
                    ]
                },
                "cd": 999999.0,
                "publicCDGroup": "",
                "NGLEONHFANM": false,
                "stateIDs": [
                    "ReturnToEdge"
                ],
                "skillQueryingTime": 3.0,
                "flagTargetReachable": "11",
                "flagSelfOnTemplateCollider": "11",
                "flagSelfInZone": "10",
                "flagTargetInZone": "11"
            }
        },
        "skillGCD": 0.0
    },
    "inputKeys": [
        {
            "keyID": 101,
            "inputKeyCode": 257,
            "abilityName": ""
        },
        {
            "keyID": 201,
            "inputKeyCode": 258,
            "abilityName": ""
        },
        {
            "keyID": 301,
            "inputKeyCode": 259,
            "abilityName": ""
        },
        {
            "keyID": 401,
            "inputKeyCode": 260,
            "abilityName": ""
        },
        {
            "keyID": 501,
            "inputKeyCode": 261,
            "abilityName": ""
        },
        {
            "keyID": 601,
            "inputKeyCode": 262,
            "abilityName": ""
        },
        {
            "keyID": 701,
            "inputKeyCode": 263,
            "abilityName": ""
        },
        {
            "keyID": 801,
            "inputKeyCode": 264,
            "abilityName": ""
        },
        {
            "keyID": 901,
            "inputKeyCode": 265,
            "abilityName": ""
        },
        {
            "keyID": 1001,
            "inputKeyCode": 266,
            "abilityName": ""
        }
    ],
    "move": {
        "$type": "ConfigAnimatorMove",
        "velocityForce": {
            "muteAll": true
        },
        "initWithGroundHitCheck": false,
        "positionModifyState": "None",
        "JAHELKFLJJA": 0.5
    },
    "audio": {
        "CBJGDOAHMDC": "",
        "animAudio": {
            "onTransitionIn": [
                {
                    "currentStateName": "Weak_Loop",
                    "audioEvent": {
                        "text": "Play_sfx_monster_Nada_weak_Loop"
                    },
                    "otherStateNames": [
                        "Weak_Loop"
                    ],
                    "usage": "Except"
                }
            ],
            "onTransitionOut": [
                {
                    "currentStateName": "Weak_Loop",
                    "audioEvent": {
                        "text": "Stop_sfx_monster_Nada_weak_Loop"
                    },
                    "otherStateNames": [
                        "Weak_Loop"
                    ],
                    "usage": "Except"
                }
            ]
        }
    },
    "cameraAdjust": {
        "default": {
            "$type": "ConfigSpecialCamera",
            "priority": 1.0,
            "enterRadius": 150.0,
            "exitRadius": 150.0,
            "heightAdjust": 3.0,
            "fov": 50.0,
            "zoom": 13.5,
            "sphericalY": -5.0,
            "lockSphericalY": false,
            "sphericalYUp": 20.0,
            "sphericalYDown": 45.0,
            "autoTurnStartMin": 25.0,
            "autoTurnStartMax": 25.0,
            "autoTurnEndMin": 150.0,
            "autoTurnEndMax": 150.0,
            "OCKGCFLHDIG": "CircleR150",
            "JKPEFLECPLB": "CircleR150",
            "EHHBNFJLPLF": true,
            "ONOMELILMBL": true,
            "LPJMKBOICML": true
        },
        "Doom": {
            "$type": "ConfigContinuesLockCameraV2",
            "priority": 1.0,
            "fov": 50.0,
            "OCKGCFLHDIG": "CircleR150",
            "JKPEFLECPLB": "CircleR150",
            "ONOMELILMBL": true,
            "LPJMKBOICML": true,
            "ACKFHNIHFJK": "LockPoint04",
            "LPGNPBICAMD": 20.0,
            "EAOAPDNNEPN": 40.0,
            "JFPDCMPJGCJ": 15.0,
            "CFMANOIADMH": 0.20000000298023224,
            "BJJHNGNLPPF": 15.0,
            "FIPELBODPAL": 15.0,
            "LMCNPOFJLCB": 10.0
        }
    }
}