{
    "common": {
        "effectAttachShape": {
            "$type": "ConfigEffectAttachSkinnedMesh",
            "mesh": "EffectMesh"
        },
        "mass": 150.0,
        "height": 2.0,
        "modelHeight": 1.899999976158142,
        "viewSize": 1.100000023841858,
        "affectedByWorld": true,
        "checkInSurface": true,
        "scale": 1.2000000476837158,
        "useGrassDisplacement": true,
        "clearAnimatorOnSetLightDeactive": true,
        "clearAIOnSetLightDeactive": true,
        "BHFDMMENDCG": true
    },
    "headControl": {
        "$type": "ConfigHeadControl",
        "useHeadControl": true,
        "maxYawDegree": 60.0,
        "maxPitchDegree": 30.0,
        "animStates": [
            "NormalIdle/Standby",
            "NormalMove/WalkForward",
            "NormalMove/WalkBack",
            "NormalMove/WalkRight",
            "NormalMove/WalkLeft",
            "NormalMove/Run",
            "Turn/TurnLeft",
            "Turn/TurnRight"
        ]
    },
    "model": {
        "bornEffect": "Eff_Monster_Common_Born",
        "attachEffect": ""
    },
    "dither": {
        "showDitherDuration": 1.0
    },
    "combat": {
        "property": {
            "endureType": "Monster_Minion",
            "weight": 70.0
        },
        "beHit": {
            "hitBloodEffect": ""
        },
        "combatLock": {
            "lockShape": "CircleLockEnemy",
            "lockType": "Avatar&Monster_Lv4"
        },
        "die": {
            "hasAnimatorDie": true,
            "dieEndTime": 2.0,
            "dieForceDisappearTime": 8.0,
            "dieDisappearEffect": "Eff_Death_Sand_Eremite",
            "dieShaderData": "EremiteSandDie",
            "dieShaderEnableDurationTime": 1.0,
            "useRagDoll": true,
            "ragDollDieEndTimeDelay": 8.0,
            "NLGENBICMGM": true,
            "OLFBIHLAOAP": true,
            "LOEEPBHGMFL": true,
            "PNKDGIGFGMN": true,
            "LGFCIGKOHHD": true,
            "BNKHGHFNJFN": true
        },
        "animEvents": {
            "AE_Slash01_01": {
                "attackPattern": {
                    "$type": "ConfigAttackBox",
                    "triggerType": "TriggerNoRepeat",
                    "born": {
                        "$type": "ConfigBornBySelf",
                        "offset": {
                            "IBKBLDAJIMA": 0.0,
                            "LKHJADIPBFL": 0.8500000238418579,
                            "PJCOKIGCJOK": -0.20000000298023224
                        }
                    },
                    "size": {
                        "IBKBLDAJIMA": 1.7999999523162842,
                        "LKHJADIPBFL": 1.7999999523162842,
                        "PJCOKIGCJOK": 2.1500000953674316
                    }
                },
                "attackInfo": {
                    "attackTag": "",
                    "attenuationTag": "",
                    "attenuationGroup": "default",
                    "attackProperty": {
                        "HBIOLEEGHPD": 0.44999998807907104,
                        "CCNJGLPMIEP": 0.0,
                        "bonusCriticalHurt": 100.0,
                        "strikeType": "Slash",
                        "enBreak": 70.0
                    },
                    "hitPattern": {
                        "onHitEffectName": "default",
                        "hitImpulseType": "LV2"
                    }
                }
            },
            "AE_Slash01_02": {
                "attackPattern": {
                    "$type": "ConfigAttackCircle",
                    "triggerType": "TriggerNoRepeat",
                    "born": {
                        "$type": "ConfigBornBySelf",
                        "offset": {
                            "IBKBLDAJIMA": 0.0,
                            "LKHJADIPBFL": 0.0,
                            "PJCOKIGCJOK": 0.4000000059604645
                        }
                    },
                    "height": 1.5,
                    "fanAngle": 310.0,
                    "DCMPFCIBIPA": 1.5499999523162842
                },
                "attackInfo": {
                    "attackTag": "",
                    "attenuationTag": "",
                    "attenuationGroup": "default",
                    "attackProperty": {
                        "HBIOLEEGHPD": 0.800000011920929,
                        "CCNJGLPMIEP": 0.0,
                        "bonusCriticalHurt": 100.0,
                        "strikeType": "Slash",
                        "enBreak": 150.0
                    },
                    "hitPattern": {
                        "onHitEffectName": "default",
                        "hitImpulseType": "LV3"
                    }
                }
            },
            "AE_Slash02": {
                "attackPattern": {
                    "$type": "ConfigAttackBox",
                    "triggerType": "TriggerNoRepeat",
                    "born": {
                        "$type": "ConfigBornBySelf",
                        "offset": {
                            "IBKBLDAJIMA": 0.0,
                            "LKHJADIPBFL": 0.8999999761581421,
                            "PJCOKIGCJOK": -0.20000000298023224
                        }
                    },
                    "size": {
                        "IBKBLDAJIMA": 1.600000023841858,
                        "LKHJADIPBFL": 2.0999999046325684,
                        "PJCOKIGCJOK": 2.549999952316284
                    }
                },
                "attackInfo": {
                    "attackTag": "",
                    "attenuationTag": "",
                    "attenuationGroup": "default",
                    "attackProperty": {
                        "HBIOLEEGHPD": 0.8999999761581421,
                        "CCNJGLPMIEP": 0.0,
                        "bonusCriticalHurt": 100.0,
                        "strikeType": "Slash",
                        "enBreak": 160.0
                    },
                    "hitPattern": {
                        "onHitEffectName": "default",
                        "hitImpulseType": "LV3"
                    }
                }
            },
            "AE_ChargedAttack_Light": {
                "attackPattern": {
                    "$type": "ConfigAttackCircle",
                    "triggerType": "TriggerNoRepeat",
                    "born": {
                        "$type": "ConfigBornBySelf",
                        "offset": {
                            "IBKBLDAJIMA": 0.0,
                            "LKHJADIPBFL": 0.25,
                            "PJCOKIGCJOK": 0.4000000059604645
                        }
                    },
                    "height": 1.5,
                    "fanAngle": 310.0,
                    "DCMPFCIBIPA": 1.5499999523162842
                },
                "attackInfo": {
                    "attackTag": "",
                    "attenuationTag": "",
                    "attenuationGroup": "default",
                    "attackProperty": {
                        "HBIOLEEGHPD": 0.20000000298023224,
                        "CCNJGLPMIEP": 0.0,
                        "bonusCriticalHurt": 100.0,
                        "strikeType": "Slash",
                        "enBreak": 40.0
                    },
                    "hitPattern": {
                        "onHitEffectName": "default",
                        "hitImpulseType": "LV2"
                    }
                }
            },
            "AE_ChargedAttack_Heavy": {
                "attackPattern": {
                    "$type": "ConfigAttackCircle",
                    "triggerType": "TriggerNoRepeat",
                    "born": {
                        "$type": "ConfigBornBySelf",
                        "offset": {
                            "IBKBLDAJIMA": 0.0,
                            "LKHJADIPBFL": 0.0,
                            "PJCOKIGCJOK": 0.6000000238418579
                        }
                    },
                    "height": 1.600000023841858,
                    "fanAngle": 310.0,
                    "DCMPFCIBIPA": 1.7899999618530273
                },
                "attackInfo": {
                    "attackTag": "",
                    "attenuationTag": "",
                    "attenuationGroup": "default",
                    "attackProperty": {
                        "HBIOLEEGHPD": 1.0,
                        "CCNJGLPMIEP": 0.0,
                        "bonusCriticalHurt": 100.0,
                        "strikeType": "Slash",
                        "enBreak": 200.0
                    },
                    "hitPattern": {
                        "onHitEffectName": "default",
                        "hitImpulseType": "LV5"
                    }
                }
            }
        }
    },
    "equipController": {
        "sheathPoint": "",
        "attachPoints": {
            "equip01": "WeaponR",
            "equip02": "WeaponL"
        }
    },
    "abilities": [
        {
            "abilityID": "",
            "abilityName": "Eremite_TurnState_AnimatorSteer",
            "abilityOverride": ""
        },
        {
            "abilityID": "",
            "abilityName": "Eremite_Gloves_AnimatorSteer",
            "abilityOverride": ""
        },
        {
            "abilityID": "",
            "abilityName": "Eremite_Gloves_SlashCombo_Check",
            "abilityOverride": ""
        },
        {
            "abilityID": "",
            "abilityName": "Eremite_ReturnToBorn",
            "abilityOverride": ""
        },
        {
            "abilityID": "",
            "abilityName": "Eremite_Gloves_Equip_Display_Manager",
            "abilityOverride": ""
        },
        {
            "abilityID": "",
            "abilityName": "Eremite_Gloves_Equip_Hide",
            "abilityOverride": ""
        },
        {
            "abilityID": "",
            "abilityName": "Eremite_Universal_Alert",
            "abilityOverride": ""
        },
        {
            "abilityID": "",
            "abilityName": "Eremite_Gambling_Logic",
            "abilityOverride": ""
        },
        {
            "abilityID": "",
            "abilityName": "Eremite_FreePose_Display_Manager",
            "abilityOverride": ""
        },
        {
            "abilityID": "",
            "abilityName": "Eremite_FreePose_MuscleMan_Drinking_Display_Manager",
            "abilityOverride": ""
        }
    ],
    "stateLayers": {
        "defaultLayer": {
            "$type": "ConfigNormalStateLayer",
            "layerIndexName": "",
            "stateIDs": {
                "NormalIdle": {
                    "$type": "ConfigMonsterStateIDInfo",
                    "animatorStates": {
                        "Standby": []
                    },
                    "canDoSkill": true,
                    "canSyncMove": true,
                    "resetAnimatorTriggerOnExit": [
                        "DoSkill"
                    ]
                },
                "NormalBorn": {
                    "$type": "ConfigMonsterStateIDInfo",
                    "animatorStates": {
                        "Born": []
                    },
                    "canDoSkill": true,
                    "resetAnimatorTriggerOnExit": [
                        "DoSkill"
                    ]
                },
                "NormalMove": {
                    "$type": "ConfigMonsterStateIDInfo",
                    "animatorStates": {
                        "WalkForward": [
                            "Audio_Eremite_Male_Standard_Gloves_01_Walk"
                        ],
                        "WalkBack": [
                            "Audio_Eremite_Male_Standard_Gloves_01_Walk"
                        ],
                        "WalkRight": [
                            "Audio_Eremite_Male_Standard_Gloves_01_Walk"
                        ],
                        "WalkLeft": [
                            "Audio_Eremite_Male_Standard_Gloves_01_Walk"
                        ],
                        "Run": [
                            "Audio_Eremite_Male_Standard_Gloves_01_Run"
                        ]
                    },
                    "canDoSkill": true,
                    "canSyncMove": true,
                    "resetAnimatorTriggerOnExit": [
                        "DoSkill"
                    ],
                    "canSteer": true
                },
                "Turn": {
                    "$type": "ConfigMonsterStateIDInfo",
                    "animatorStates": {
                        "TurnLeft": [
                            "Audio_Eremite_Male_Standard_Gloves_01_Walk"
                        ],
                        "TurnRight": [
                            "Audio_Eremite_Male_Standard_Gloves_01_Walk"
                        ]
                    },
                    "canDoSkill": true,
                    "canSyncMove": true,
                    "resetAnimatorTriggerOnExit": [
                        "DoSkill"
                    ],
                    "canSteer": true
                },
                "BeHit": {
                    "$type": "ConfigMonsterStateIDInfo",
                    "animatorStates": {
                        "Hit_L": [],
                        "Hit_H": [
                            "Audio_Eremite_Male_Standard_Gloves_01_Hit_H"
                        ]
                    },
                    "resetAnimatorTriggerOnEnter": [
                        "BeHit"
                    ],
                    "resetAnimatorTriggerOnExit": [
                        "DoSkill"
                    ]
                },
                "BeHitThrow": {
                    "$type": "ConfigMonsterStateIDInfo",
                    "animatorStates": {
                        "HitThrow": [],
                        "HitThrowDrop": []
                    },
                    "resetAnimatorTriggerOnEnter": [
                        "BeHit",
                        "HitAir2HitDrop"
                    ],
                    "resetAnimatorTriggerOnExit": [
                        "DoSkill",
                        "BeHit"
                    ],
                    "setAnimatorBoolean": [
                        {
                            "name": "AirDie"
                        }
                    ]
                },
                "BeHitThrowToStandby": {
                    "$type": "ConfigMonsterStateIDInfo",
                    "animatorStates": {
                        "HitThrowToGround": [
                            "Audio_Eremite_Male_Standard_Gloves_01_HitThrowToGround"
                        ]
                    },
                    "resetAnimatorTriggerOnEnter": [
                        "BeHit",
                        "HitAir2HitDrop"
                    ],
                    "resetAnimatorTriggerOnExit": [
                        "DoSkill",
                        "BeHit"
                    ],
                    "setAnimatorBoolean": [
                        {
                            "name": "AirDie",
                            "normalizeEnd": 0.6200000047683716
                        }
                    ]
                },
                "Struggle": {
                    "$type": "ConfigMonsterStateIDInfo",
                    "animatorStates": {
                        "Struggle": []
                    },
                    "resetAnimatorTriggerOnEnter": [
                        "BeHit",
                        "HitAir2HitDrop"
                    ],
                    "resetAnimatorTriggerOnExit": [
                        "DoSkill"
                    ]
                },
                "Die": {
                    "$type": "ConfigMonsterStateIDInfo",
                    "animatorStates": {
                        "Die1": [
                            "Monster_Eremite_Gloves_Die",
                            "Audio_Eremite_Male_Standard_Gloves_01_Die_NoVO"
                        ],
                        "Die2": [
                            "Monster_Eremite_Gloves_Die",
                            "Audio_Eremite_Male_Standard_Gloves_01_Die_NoVO"
                        ],
                        "SwimDie_BS": [],
                        "SwimDie": [
                            "Monster_Eremite_SwimDie"
                        ],
                        "SwimDie_AS": []
                    }
                },
                "Die_RagDoll": {
                    "$type": "ConfigMonsterStateIDInfo",
                    "animatorStates": {
                        "AirDie": [
                            "Monster_Eremite_AirDie"
                        ]
                    },
                    "enableRagDoll": true
                },
                "Alert": {
                    "$type": "ConfigMonsterStateIDInfo",
                    "animatorStates": {
                        "Alert": [
                            "Monster_Eremite_Gloves_ShowWeapon",
                            "Monster_Eremite_Clear_FreePoseMark",
                            "Audio_Eremite_Male_Standard_Gloves_01_Alert_NoVO"
                        ]
                    },
                    "addEndure": 0.0,
                    "resetAnimatorTriggerOnExit": [
                        "BeHit",
                        "DoSkill"
                    ],
                    "autoSteer": true
                },
                "Crossleg_Alert": {
                    "$type": "ConfigMonsterStateIDInfo",
                    "animatorStates": {
                        "CrosslegAlert": [
                            "Monster_Eremite_Gloves_ShowWeapon_SpecialAlert",
                            "Monster_Eremite_Clear_FreePoseMark",
                            "Audio_Eremite_Male_Standard_Gloves_01_Crosslegalert_NoVO"
                        ]
                    },
                    "addEndure": 0.0,
                    "resetAnimatorTriggerOnExit": [
                        "BeHit",
                        "DoSkill"
                    ]
                },
                "SheathWeapon": {
                    "$type": "ConfigMonsterStateIDInfo",
                    "animatorStates": {
                        "SheathWeapon": [
                            "Audio_Eremite_Male_Standard_Gloves_01_Alert_NoVO"
                        ]
                    },
                    "resetAnimatorTriggerOnExit": [
                        "BeHit",
                        "DoSkill",
                        "SheathWeaponTrigger"
                    ]
                },
                "Slash01_BS": {
                    "$type": "ConfigMonsterStateIDInfo",
                    "animatorStates": {
                        "Slash01_BS": [
                            "Audio_Eremite_Male_Standard_Gloves_01_Slash01_BS"
                        ]
                    },
                    "resetAnimatorTriggerOnExit": [
                        "BeHit",
                        "DoSkill"
                    ]
                },
                "Slash01": {
                    "$type": "ConfigMonsterStateIDInfo",
                    "animatorStates": {
                        "Slash01": [
                            "Monster_Eremite_Gloves_Slash01",
                            "Audio_Eremite_Male_Standard_Gloves_01_Slash01_NoVO"
                        ]
                    },
                    "resetAnimatorTriggerOnExit": [
                        "BeHit",
                        "DoSkill"
                    ]
                },
                "Slash01_AS": {
                    "$type": "ConfigMonsterStateIDInfo",
                    "animatorStates": {
                        "Slash01_AS": [
                            "Audio_Eremite_Male_Standard_Gloves_01_Slash01_AS"
                        ]
                    },
                    "resetAnimatorTriggerOnExit": [
                        "BeHit",
                        "DoSkill"
                    ]
                },
                "Slash02_BS": {
                    "$type": "ConfigMonsterStateIDInfo",
                    "animatorStates": {
                        "Slash02_BS": [
                            "Audio_Eremite_Male_Standard_Gloves_01_Slash02_BS"
                        ]
                    },
                    "resetAnimatorTriggerOnExit": [
                        "BeHit",
                        "DoSkill"
                    ]
                },
                "Slash02": {
                    "$type": "ConfigMonsterStateIDInfo",
                    "animatorStates": {
                        "Slash02": [
                            "Monster_Eremite_Gloves_Slash02",
                            "Audio_Eremite_Male_Standard_Gloves_01_Slash02"
                        ]
                    },
                    "resetAnimatorTriggerOnExit": [
                        "BeHit",
                        "DoSkill"
                    ]
                },
                "Slash02_AS": {
                    "$type": "ConfigMonsterStateIDInfo",
                    "animatorStates": {
                        "Slash02_AS": [
                            "Audio_Eremite_Male_Standard_Gloves_01_Slash02_AS"
                        ]
                    },
                    "resetAnimatorTriggerOnExit": [
                        "BeHit",
                        "DoSkill"
                    ]
                },
                "ChargedAttack_BS": {
                    "$type": "ConfigMonsterStateIDInfo",
                    "animatorStates": {
                        "ChargedAttack_BS": [
                            "Monster_Eremite_Gloves_ChargedAttack_BS_Effect",
                            "Audio_Eremite_Male_Standard_Gloves_01_Chargedattack_BS"
                        ]
                    },
                    "addEndure": 0.4000000059604645,
                    "resetAnimatorTriggerOnExit": [
                        "BeHit",
                        "DoSkill"
                    ]
                },
                "ChargedAttack": {
                    "$type": "ConfigMonsterStateIDInfo",
                    "animatorStates": {
                        "ChargedAttack": [
                            "Monster_Eremite_Gloves_ChargedAttack",
                            "Monster_Eremite_Gloves_ChargedAttack_Effect",
                            "Audio_Eremite_Male_Standard_Gloves_01_ChargedAttack"
                        ]
                    },
                    "addEndure": 0.0,
                    "resetAnimatorTriggerOnExit": [
                        "BeHit",
                        "DoSkill"
                    ]
                },
                "ChargedAttack_AS": {
                    "$type": "ConfigMonsterStateIDInfo",
                    "animatorStates": {
                        "ChargedAttack_AS": [
                            "Audio_Eremite_Male_Standard_Gloves_01_Chargedattack_AS"
                        ]
                    },
                    "resetAnimatorTriggerOnExit": [
                        "BeHit",
                        "DoSkill"
                    ]
                },
                "FreePose_Talk_Idle": {
                    "$type": "ConfigMonsterStateIDInfo",
                    "animatorStates": {
                        "Talk_Idle": []
                    },
                    "canDoSkill": true,
                    "resetAnimatorTriggerOnExit": [
                        "BeHit",
                        "DoSkill"
                    ]
                },
                "FreePose_Talk_Skill": {
                    "$type": "ConfigMonsterStateIDInfo",
                    "animatorStates": {
                        "Talk_Skill": []
                    },
                    "canDoSkill": true,
                    "resetAnimatorTriggerOnExit": [
                        "BeHit",
                        "DoSkill"
                    ]
                },
                "FreePose_HoldArm_Idle": {
                    "$type": "ConfigMonsterStateIDInfo",
                    "animatorStates": {
                        "HoldArm_Idle": []
                    },
                    "canDoSkill": true,
                    "resetAnimatorTriggerOnExit": [
                        "BeHit",
                        "DoSkill"
                    ]
                },
                "FreePose_Crossleg_Idle": {
                    "$type": "ConfigMonsterStateIDInfo",
                    "animatorStates": {
                        "Crossleg_Idle": []
                    },
                    "canDoSkill": true,
                    "resetAnimatorTriggerOnExit": [
                        "BeHit",
                        "DoSkill"
                    ]
                },
                "FreePose_Crossleg_Chat_Skill": {
                    "$type": "ConfigMonsterStateIDInfo",
                    "animatorStates": {
                        "Crossleg_Chat01_Skill": [],
                        "Crossleg_Chat02_Skill": []
                    },
                    "canDoSkill": true,
                    "resetAnimatorTriggerOnExit": [
                        "BeHit",
                        "DoSkill"
                    ]
                },
                "FreePose_Crossleg_Drink_Skill": {
                    "$type": "ConfigMonsterStateIDInfo",
                    "animatorStates": {
                        "Crossleg_Drink_Skill_01": [
                            "Audio_Eremite_Male_Standard_Gloves_01_Drink"
                        ],
                        "Crossleg_Drink_Skill_02": [],
                        "Crossleg_Drink_Skill_03": [
                            "Monster_Eremite_Drinking_WaterDrop"
                        ],
                        "Crossleg_Drink_Skill_04": [],
                        "Crossleg_Drink_Skill_05": []
                    },
                    "canDoSkill": true,
                    "resetAnimatorTriggerOnExit": [
                        "BeHit",
                        "DoSkill"
                    ]
                },
                "FreePose_Crossleg_Sleeping_Skill": {
                    "$type": "ConfigMonsterStateIDInfo",
                    "animatorStates": {
                        "Crossleg_Sleeping_Skill": []
                    },
                    "canDoSkill": true,
                    "resetAnimatorTriggerOnExit": [
                        "BeHit",
                        "DoSkill"
                    ]
                },
                "FreePose_Crossleg_Gambling_Bet_Skill": {
                    "$type": "ConfigMonsterStateIDInfo",
                    "animatorStates": {
                        "Crossleg_Gambling_Bet_Skill": [
                            "Audio_Eremite_Male_Standard_Gloves_01_Bet"
                        ]
                    },
                    "canDoSkill": true,
                    "resetAnimatorTriggerOnExit": [
                        "BeHit",
                        "DoSkill"
                    ]
                },
                "FreePose_Crossleg_Gambling_Roll": {
                    "$type": "ConfigMonsterStateIDInfo",
                    "animatorStates": {
                        "Crossleg_Gambling_Roll": [
                            "Monster_Eremite_Gambling_GetResult",
                            "Audio_Eremite_Male_Standard_Gloves_01_Roll"
                        ]
                    },
                    "canDoSkill": true,
                    "resetAnimatorTriggerOnExit": [
                        "BeHit",
                        "DoSkill"
                    ]
                },
                "FreePose_Crossleg_Gambling_Lose": {
                    "$type": "ConfigMonsterStateIDInfo",
                    "animatorStates": {
                        "Crossleg_Gambling_Lose": [
                            "Audio_Eremite_Male_Standard_Gloves_01_Gambling_Lose"
                        ]
                    },
                    "canDoSkill": true,
                    "resetAnimatorTriggerOnExit": [
                        "BeHit",
                        "DoSkill"
                    ]
                },
                "FreePose_Crossleg_Gambling_Win": {
                    "$type": "ConfigMonsterStateIDInfo",
                    "animatorStates": {
                        "Crossleg_Gambling_Win": [
                            "Audio_Eremite_Male_Standard_Gloves_01_Gambling_Win"
                        ]
                    },
                    "canDoSkill": true,
                    "resetAnimatorTriggerOnExit": [
                        "BeHit",
                        "DoSkill"
                    ]
                }
            }
        }
    },
    "billboard": {
        "$type": "ConfigCombatBillboard",
        "attachPoint": "BillboardAttach",
        "offset": {
            "x": -0.05000000074505806
        },
        "offsetType": "Character",
        "radiusOffset": 0.25,
        "showHPBar": true
    },
    "initialPoses": {
        "Default": {},
        "HoldArm": {
            "initialPoseID": 9001,
            "initialPoseParams": {
                "intParams": {
                    "FreePoseMark": "9001"
                }
            }
        },
        "Talk": {
            "initialPoseID": 9002,
            "initialPoseParams": {
                "intParams": {
                    "FreePoseMark": "9002"
                }
            }
        },
        "CrossLeg_Talk_Only": {
            "initialPoseID": 9501,
            "initialPoseParams": {
                "intParams": {
                    "FreePoseMark": "9501"
                }
            }
        },
        "CrossLeg_Universal": {
            "initialPoseID": 9502,
            "initialPoseParams": {
                "intParams": {
                    "FreePoseMark": "9502"
                }
            }
        },
        "CrossLeg_Drink_Only": {
            "initialPoseID": 9503,
            "initialPoseParams": {
                "intParams": {
                    "FreePoseMark": "9503"
                }
            }
        },
        "CrossLeg_Sleeping": {
            "initialPoseID": 9504,
            "initialPoseParams": {
                "intParams": {
                    "FreePoseMark": "9504"
                }
            }
        },
        "CrossLeg_Gambling_Banker": {
            "initialPoseID": 9511,
            "initialPoseParams": {
                "intParams": {
                    "FreePoseMark": "9511"
                }
            }
        },
        "CrossLeg_Gambling_Receiver": {
            "initialPoseID": 9512,
            "initialPoseParams": {
                "intParams": {
                    "FreePoseMark": "9512"
                }
            }
        }
    },
    "aibeta": {
        "enable": true,
        "moveSetting": {
            "navMeshAgentName": "Undead01",
            "almostReachedDistanceRun": 1.5
        },
        "sensing": {
            "settings": {
                "DefaultSetting": {
                    "feelRange": 8.0
                },
                "HighAlert": {
                    "viewRange": 40.0,
                    "feelRange": 10.0
                },
                "LowAlert": {
                    "viewRange": 15.0,
                    "feelRange": 6.0
                },
                "UltraLowSensing": {
                    "viewRange": 10.0,
                    "hearAttractionRange": 0.0,
                    "feelRange": 4.0
                },
                "EarshotFix": {
                    "hearAttractionRange": 9.0,
                    "feelRange": 8.0
                },
                "NeverCombat": {
                    "enableVision": false,
                    "hearAttractionRange": 0.0,
                    "feelRange": 0.0
                }
            },
            "templates": {
                "DefaultTemplate": {
                    "DefaultPoses": "DefaultSetting"
                },
                "HighAlert": {
                    "DefaultPoses": "HighAlert"
                },
                "LowAlert": {
                    "DefaultPoses": "LowAlert"
                },
                "UltraLowSensing": {
                    "DefaultPoses": "UltraLowSensing"
                },
                "EarshotFix": {
                    "DefaultPoses": "EarshotFix"
                },
                "NeverCombat": {
                    "DefaultPoses": "NeverCombat"
                }
            }
        },
        "neurons": {
            "DefaultSetting": [
                "HIT"
            ],
            "NeverCombat": []
        },
        "threat": {
            "clearThreatByLostPath": true,
            "clearThreatTimerByDistance": 3.0,
            "viewAttenuation": [
                {
                    "x": 10.0,
                    "y": 2.0
                },
                {
                    "x": 15.0,
                    "y": 0.800000011920929
                },
                {
                    "x": 20.0,
                    "y": 0.5
                },
                {
                    "x": 25.0,
                    "y": 0.30000001192092896
                },
                {
                    "x": 30.0,
                    "y": 0.20000000298023224
                }
            ]
        },
        "defendArea": {},
        "skills": {
            "101": {
                "name": "OnAlert",
                "skillType": "OnAlert",
                "castCondition": {
                    "pose": [
                        1,
                        9001,
                        9002
                    ]
                },
                "publicCDGroup": "",
                "ignoreGCD": true,
                "stateIDs": [
                    "Alert"
                ],
                "skillQueryingTime": 3.0,
                "flagTargetReachable": "10",
                "flagSelfOnTemplateCollider": "01",
                "flagSelfInZone": "10",
                "flagTargetInZone": "11"
            },
            "102": {
                "name": "OnAlert_Combat",
                "priority": 1,
                "castCondition": {
                    "pose": [
                        1,
                        9001,
                        9002,
                        10
                    ]
                },
                "publicCDGroup": "",
                "ignoreGCD": true,
                "stateIDs": [
                    "Alert"
                ],
                "skillQueryingTime": 3.0,
                "flagTargetReachable": "11",
                "flagSelfOnTemplateCollider": "11",
                "flagSelfInZone": "11",
                "flagTargetInZone": "11"
            },
            "111": {
                "name": "OnAlert_Crossleg",
                "skillType": "OnAlert",
                "castCondition": {
                    "pose": [
                        9501,
                        9502,
                        9503,
                        9504,
                        9511,
                        9512
                    ]
                },
                "publicCDGroup": "",
                "ignoreGCD": true,
                "stateIDs": [
                    "Alert"
                ],
                "skillQueryingTime": 3.0,
                "flagTargetReachable": "10",
                "flagSelfOnTemplateCollider": "01",
                "flagSelfInZone": "10",
                "flagTargetInZone": "11"
            },
            "112": {
                "name": "OnAlert_Crossleg_Combat",
                "castCondition": {
                    "pose": [
                        9501,
                        9502,
                        9503,
                        9504,
                        9511,
                        9512
                    ]
                },
                "publicCDGroup": "",
                "ignoreGCD": true,
                "stateIDs": [
                    "Alert"
                ],
                "skillQueryingTime": 3.0,
                "flagTargetReachable": "11",
                "flagSelfOnTemplateCollider": "11",
                "flagSelfInZone": "11",
                "flagTargetInZone": "11"
            },
            "201": {
                "name": "Slash01",
                "combatSkillType": "MeleeAttack",
                "priority": 2,
                "castCondition": {
                    "pose": [
                        1001
                    ],
                    "pickRangeMax": 5.0
                },
                "cd": 6.0,
                "cdUpperRange": 2.0,
                "publicCDGroup": "",
                "stateIDs": [
                    "Slash01_BS",
                    "Slash01",
                    "Slash01_AS"
                ],
                "flagTargetReachable": "10",
                "flagSelfOnTemplateCollider": "11",
                "flagSelfInZone": "11",
                "flagTargetInZone": "11"
            },
            "202": {
                "name": "Slash02",
                "combatSkillType": "MeleeAttack",
                "priority": 2,
                "castCondition": {
                    "pose": [
                        1001
                    ],
                    "pickRangeMax": 5.0
                },
                "cd": 6.0,
                "cdUpperRange": 2.0,
                "publicCDGroup": "",
                "stateIDs": [
                    "Slash02_BS",
                    "Slash02",
                    "Slash02_AS"
                ],
                "flagTargetReachable": "10",
                "flagSelfOnTemplateCollider": "01",
                "flagSelfInZone": "11",
                "flagTargetInZone": "11"
            },
            "301": {
                "name": "ChargedAttack",
                "combatSkillType": "RangedAttack",
                "priority": 2,
                "castCondition": {
                    "pose": [
                        1001
                    ],
                    "pickRangeMax": 6.800000190734863
                },
                "cd": 6.0,
                "cdUpperRange": 2.0,
                "publicCDGroup": "",
                "stateIDs": [
                    "ChargedAttack_BS",
                    "ChargedAttack",
                    "ChargedAttack_AS"
                ],
                "flagTargetReachable": "10",
                "flagSelfOnTemplateCollider": "11",
                "flagSelfInZone": "11",
                "flagTargetInZone": "11"
            },
            "90021": {
                "name": "Talk",
                "skillType": "Free",
                "castCondition": {
                    "pose": [
                        9002
                    ]
                },
                "cd": 2.0,
                "cdUpperRange": 5.0,
                "publicCDGroup": "",
                "stateIDs": [
                    "FreePose_Talk_Skill"
                ],
                "flagTargetReachable": "10",
                "flagSelfOnTemplateCollider": "01",
                "flagSelfInZone": "10",
                "flagTargetInZone": "11"
            },
            "95011": {
                "name": "Chat01",
                "skillType": "Free",
                "castCondition": {
                    "pose": [
                        9501,
                        9502
                    ]
                },
                "cd": 9.0,
                "cdUpperRange": 7.0,
                "publicCDGroup": "",
                "stateIDs": [
                    "FreePose_Crossleg_Chat_Skill"
                ],
                "flagTargetReachable": "10",
                "flagSelfOnTemplateCollider": "01",
                "flagSelfInZone": "10",
                "flagTargetInZone": "11"
            },
            "95012": {
                "name": "Chat02",
                "skillType": "Free",
                "castCondition": {
                    "pose": [
                        9501,
                        9502
                    ]
                },
                "cd": 10.0,
                "cdUpperRange": 7.0,
                "initialCD": 12.0,
                "publicCDGroup": "",
                "stateIDs": [
                    "FreePose_Crossleg_Chat_Skill"
                ],
                "flagTargetReachable": "10",
                "flagSelfOnTemplateCollider": "01",
                "flagSelfInZone": "10",
                "flagTargetInZone": "11"
            },
            "95031": {
                "name": "Drink",
                "skillType": "Free",
                "castCondition": {
                    "pose": [
                        9502,
                        9503
                    ]
                },
                "cd": 12.0,
                "cdUpperRange": 7.0,
                "initialCD": 6.0,
                "publicCDGroup": "",
                "stateIDs": [
                    "FreePose_Crossleg_Drink_Skill"
                ],
                "flagTargetReachable": "10",
                "flagSelfOnTemplateCollider": "01",
                "flagSelfInZone": "10",
                "flagTargetInZone": "11"
            },
            "95041": {
                "name": "Sleeping",
                "skillType": "Free",
                "castCondition": {
                    "pose": [
                        9504
                    ]
                },
                "cd": 3.5,
                "cdUpperRange": 8.0,
                "initialCD": 2.0,
                "publicCDGroup": "",
                "stateIDs": [
                    "FreePose_Crossleg_Sleeping_Skill"
                ],
                "flagTargetReachable": "10",
                "flagSelfOnTemplateCollider": "01",
                "flagSelfInZone": "10",
                "flagTargetInZone": "11"
            },
            "95111": {
                "name": "Gambling",
                "skillType": "Free",
                "castCondition": {
                    "pose": [
                        9511
                    ]
                },
                "cdUpperRange": 3.0,
                "initialCD": 6.0,
                "publicCDGroup": "",
                "stateIDs": [
                    "FreePose_Crossleg_Gambling_Bet_Skill",
                    "FreePose_Crossleg_Gambling_Roll",
                    "FreePose_Crossleg_Gambling_Lose",
                    "FreePose_Crossleg_Gambling_Win"
                ],
                "flagTargetReachable": "10",
                "flagSelfOnTemplateCollider": "01",
                "flagSelfInZone": "10",
                "flagTargetInZone": "11"
            }
        },
        "skillGCD": 3.5,
        "returnToBornTactic": {
            "enable": true,
            "defaultSetting": {}
        },
        "wanderTactic": {
            "enable": true,
            "condition": {
                "pose": [
                    1
                ]
            },
            "defaultSetting": {
                "cdMax": 3.0,
                "cdMin": 1.5,
                "distanceFromBorn": 15.0,
                "distanceFromCurrentMin": 3.75,
                "distanceFromCurrentMax": 7.5
            }
        },
        "investigateTactic": {
            "enable": true,
            "condition": {
                "pose": [
                    1
                ]
            }
        },
        "meleeChargeTactic": {
            "enable": true,
            "condition": {
                "pose": [
                    1001,
                    10
                ]
            },
            "defaultSetting": {
                "startDistanceMin": 5.0,
                "startDistanceMax": 50.0,
                "stopDistance": 4.0,
                "innerDistance": 3.5
            }
        },
        "facingMoveTactic": {
            "enable": true,
            "condition": {
                "pose": [
                    1001,
                    10
                ]
            },
            "defaultSetting": {
                "rangeMin": 1.100000023841858,
                "rangeMax": 3.0,
                "facingMoveWeight": {
                    "stop": 6.0,
                    "forward": 2.0,
                    "back": 0.5,
                    "left": 4.0,
                    "right": 4.0
                },
                "BBACFDEOBDP": "1111",
                "HANHJBCACAC": "1111"
            }
        }
    },
    "inputKeys": [
        {
            "keyID": 201,
            "inputKeyCode": 258,
            "abilityName": ""
        },
        {
            "keyID": 202,
            "inputKeyCode": 259,
            "abilityName": ""
        },
        {
            "keyID": 301,
            "inputKeyCode": 260,
            "abilityName": ""
        }
    ],
    "move": {
        "$type": "ConfigAnimatorMove",
        "facingMove": "FourDirection",
        "monsterSizeType": "StoopType"
    },
    "audio": {
        "CBJGDOAHMDC": "",
        "animAudio": {
            "onTransitionIn": [
                {
                    "currentStateName": "",
                    "audioEvent": {
                        "text": ""
                    }
                }
            ],
            "onTransitionOut": [
                {
                    "currentStateName": "Crossleg_Drink_Skill",
                    "audioEvent": {
                        "text": "Stop_sfx_monster_Human_MuscleMan_NoWeapon_crossleg_drink"
                    }
                },
                {
                    "currentStateName": "Crossleg_Gambling_Bet_Skill",
                    "audioEvent": {
                        "text": "Stop_sfx_monster_Human_MuscleMan_NoWeapon_gambling_bet"
                    }
                },
                {
                    "currentStateName": "Crossleg_Gambling_Lose",
                    "audioEvent": {
                        "text": "Stop_sfx_monster_Human_MuscleMan_NoWeapon_gambling_lose"
                    }
                },
                {
                    "currentStateName": "Crossleg_Gambling_Roll",
                    "audioEvent": {
                        "text": "Stop_sfx_monster_Human_MuscleMan_NoWeapon_gambling_roll"
                    }
                },
                {
                    "currentStateName": "Crossleg_Gambling_Win",
                    "audioEvent": {
                        "text": "Stop_sfx_monster_Human_MuscleMan_NoWeapon_gambling_win"
                    }
                }
            ]
        }
    }
}