{
    "common": {
        "effectAttachShape": {
            "$type": "ConfigEffectAttachSkinnedMesh",
            "mesh": "EffectMesh"
        },
        "mass": 40.0,
        "height": 2.0,
        "modelHeight": 2.0,
        "viewSize": 1.2999999523162842,
        "affectedByWorld": true,
        "checkInSurface": true,
        "scale": 0.8999999761581421,
        "useGrassDisplacement": true,
        "clearAnimatorOnSetLightDeactive": true,
        "clearAIOnSetLightDeactive": true,
        "BHFDMMENDCG": true
    },
    "model": {
        "bornEffect": "",
        "attachEffect": "",
        "GAJBLHEGNNM": false
    },
    "dither": {
        "showDitherDuration": 2.0
    },
    "combat": {
        "property": {
            "endureType": "Monster_Demiboss_Humanoid",
            "weight": 125.0
        },
        "beHit": {
            "hitBloodEffect": ""
        },
        "combatLock": {
            "lockShape": "CircleLockEnemy",
            "lockType": "Avatar&Monster_Lv4"
        },
        "die": {
            "hasAnimatorDie": true,
            "dieEndTime": 2.0,
            "dieForceDisappearTime": 1.5,
            "dieDisappearEffect": "Eff_Death_Common",
            "dieShaderData": "MonsterDie",
            "NLGENBICMGM": true,
            "OLFBIHLAOAP": true,
            "LOEEPBHGMFL": true,
            "PNKDGIGFGMN": true,
            "LGFCIGKOHHD": true,
            "BNKHGHFNJFN": true
        },
        "animEvents": {
            "MeleeAttack01Normal": {
                "attackPattern": {
                    "$type": "ConfigAttackCircle",
                    "triggerType": "TriggerNoRepeat",
                    "born": {
                        "$type": "ConfigBornBySelf",
                        "offset": {
                            "IBKBLDAJIMA": 0.0,
                            "LKHJADIPBFL": 0.0,
                            "PJCOKIGCJOK": 0.5
                        }
                    },
                    "height": 1.7999999523162842,
                    "fanAngle": 180.0,
                    "DCMPFCIBIPA": 4.0
                },
                "attackInfo": {
                    "attackTag": "",
                    "attenuationTag": "",
                    "attenuationGroup": "default",
                    "attackProperty": {
                        "HBIOLEEGHPD": 0.699999988079071,
                        "CCNJGLPMIEP": 0.0,
                        "bonusCriticalHurt": 100.0,
                        "strikeType": "Blunt",
                        "enBreak": 150.0,
                        "attackType": "Melee"
                    },
                    "hitPattern": {
                        "onHitEffectName": "default",
                        "hitImpulseType": "LV4"
                    }
                }
            },
            "MeleeAttack02Normal": {
                "attackPattern": {
                    "$type": "ConfigAttackSphere",
                    "triggerType": "TriggerNoRepeat",
                    "born": {
                        "$type": "ConfigBornBySelf",
                        "offset": {
                            "IBKBLDAJIMA": 0.0,
                            "LKHJADIPBFL": 1.0,
                            "PJCOKIGCJOK": 2.5
                        }
                    },
                    "DCMPFCIBIPA": 2.0
                },
                "attackInfo": {
                    "attackTag": "",
                    "attenuationTag": "",
                    "attenuationGroup": "default",
                    "attackProperty": {
                        "HBIOLEEGHPD": 0.8500000238418579,
                        "CCNJGLPMIEP": 0.0,
                        "bonusCriticalHurt": 100.0,
                        "strikeType": "Blunt",
                        "enBreak": 200.0,
                        "attackType": "Melee"
                    },
                    "hitPattern": {
                        "onHitEffectName": "default",
                        "hitImpulseType": "LV5"
                    }
                }
            },
            "MeleeAttack01Decay": {
                "attackPattern": {
                    "$type": "ConfigAttackCircle",
                    "triggerType": "TriggerNoRepeat",
                    "born": {
                        "$type": "ConfigBornBySelf",
                        "offset": {
                            "IBKBLDAJIMA": 0.0,
                            "LKHJADIPBFL": 0.0,
                            "PJCOKIGCJOK": 0.5
                        }
                    },
                    "height": 2.0,
                    "DCMPFCIBIPA": 5.5
                },
                "attackInfo": {
                    "attackTag": "",
                    "attenuationTag": "",
                    "attenuationGroup": "default",
                    "attackProperty": {
                        "HBIOLEEGHPD": 0.8500000238418579,
                        "CCNJGLPMIEP": 0.0,
                        "bonusCriticalHurt": 100.0,
                        "strikeType": "Blunt",
                        "enBreak": 150.0,
                        "attackType": "Melee"
                    },
                    "hitPattern": {
                        "onHitEffectName": "default",
                        "hitImpulseType": "LV4"
                    }
                }
            },
            "MeleeAttack02Decay": {
                "attackPattern": {
                    "$type": "ConfigAttackSphere",
                    "triggerType": "TriggerNoRepeat",
                    "born": {
                        "$type": "ConfigBornBySelf",
                        "offset": {
                            "IBKBLDAJIMA": 0.0,
                            "LKHJADIPBFL": 1.0,
                            "PJCOKIGCJOK": 2.5
                        }
                    },
                    "DCMPFCIBIPA": 3.0
                },
                "attackInfo": {
                    "attackTag": "",
                    "attenuationTag": "",
                    "attenuationGroup": "default",
                    "attackProperty": {
                        "HBIOLEEGHPD": 1.0,
                        "CCNJGLPMIEP": 0.0,
                        "bonusCriticalHurt": 100.0,
                        "strikeType": "Blunt",
                        "enBreak": 150.0,
                        "attackType": "Melee"
                    },
                    "hitPattern": {
                        "onHitEffectName": "default",
                        "hitImpulseType": "LV6"
                    }
                }
            },
            "ChargeNormal": {
                "attackPattern": {
                    "$type": "ConfigAttackCircle",
                    "triggerType": "TriggerNoRepeat",
                    "born": {
                        "$type": "ConfigBornBySelf",
                        "offset": {
                            "IBKBLDAJIMA": 0.0,
                            "LKHJADIPBFL": 0.0,
                            "PJCOKIGCJOK": 0.0
                        }
                    },
                    "height": 1.7999999523162842,
                    "fanAngle": 150.0,
                    "DCMPFCIBIPA": 1.7999999523162842
                },
                "attackInfo": {
                    "attackTag": "",
                    "attenuationTag": "Monster_Fungus_Amanita_Unu_Svarita_Ice_ChargeNormal",
                    "attenuationGroup": "Effigy_Ice_Attenuation_2",
                    "attackProperty": {
                        "HBIOLEEGHPD": 0.30000001192092896,
                        "CCNJGLPMIEP": 0.0,
                        "elementType": "Ice",
                        "bonusCriticalHurt": 25.0,
                        "strikeType": "Blunt",
                        "enBreak": 80.0,
                        "attackType": "Melee"
                    },
                    "hitPattern": {
                        "onHitEffectName": "default",
                        "hitImpulseType": "LV4"
                    }
                }
            },
            "ChargeEndNormal": {
                "attackPattern": {
                    "$type": "ConfigAttackCircle",
                    "triggerType": "TriggerNoRepeat",
                    "born": {
                        "$type": "ConfigBornBySelf",
                        "offset": {
                            "IBKBLDAJIMA": 0.0,
                            "LKHJADIPBFL": 0.0,
                            "PJCOKIGCJOK": 0.0
                        }
                    },
                    "height": 2.5,
                    "fanAngle": 150.0,
                    "DCMPFCIBIPA": 2.5
                },
                "attackInfo": {
                    "attackTag": "",
                    "attenuationTag": "",
                    "attenuationGroup": "default",
                    "attackProperty": {
                        "HBIOLEEGHPD": 0.8500000238418579,
                        "CCNJGLPMIEP": 0.0,
                        "elementType": "Ice",
                        "bonusCriticalHurt": 25.0,
                        "strikeType": "Blunt",
                        "enBreak": 200.0,
                        "attackType": "Melee"
                    },
                    "hitPattern": {
                        "onHitEffectName": "default",
                        "hitImpulseType": "LV5"
                    }
                }
            },
            "ChargeDecay": {
                "attackPattern": {
                    "$type": "ConfigAttackCircle",
                    "triggerType": "TriggerNoRepeat",
                    "born": {
                        "$type": "ConfigBornBySelf",
                        "offset": {
                            "IBKBLDAJIMA": 0.0,
                            "LKHJADIPBFL": 0.0,
                            "PJCOKIGCJOK": 0.0
                        }
                    },
                    "height": 2.0,
                    "fanAngle": 150.0,
                    "DCMPFCIBIPA": 2.0
                },
                "attackInfo": {
                    "attackTag": "",
                    "attenuationTag": "Monster_Fungus_Amanita_Unu_Svarita_Ice_ChargeDecay",
                    "attenuationGroup": "Effigy_Ice_Attenuation_2",
                    "attackProperty": {
                        "HBIOLEEGHPD": 0.4000000059604645,
                        "CCNJGLPMIEP": 0.0,
                        "elementType": "Ice",
                        "bonusCriticalHurt": 25.0,
                        "strikeType": "Blunt",
                        "enBreak": 80.0,
                        "attackType": "Melee"
                    },
                    "hitPattern": {
                        "onHitEffectName": "default",
                        "hitImpulseType": "LV4"
                    }
                }
            },
            "ChargeEndDecay": {
                "attackPattern": {
                    "$type": "ConfigAttackCircle",
                    "triggerType": "TriggerNoRepeat",
                    "born": {
                        "$type": "ConfigBornBySelf",
                        "offset": {
                            "IBKBLDAJIMA": 0.0,
                            "LKHJADIPBFL": 0.0,
                            "PJCOKIGCJOK": 0.0
                        }
                    },
                    "height": 3.5,
                    "fanAngle": 180.0,
                    "DCMPFCIBIPA": 3.5
                },
                "attackInfo": {
                    "attackTag": "",
                    "attenuationTag": "",
                    "attenuationGroup": "default",
                    "attackProperty": {
                        "HBIOLEEGHPD": 1.0,
                        "CCNJGLPMIEP": 0.0,
                        "elementType": "Ice",
                        "bonusCriticalHurt": 25.0,
                        "strikeType": "Blunt",
                        "enBreak": 200.0,
                        "attackType": "Melee"
                    },
                    "hitPattern": {
                        "onHitEffectName": "default",
                        "hitImpulseType": "LV6"
                    }
                }
            },
            "DiveAttackNormal": {
                "attackPattern": {
                    "$type": "ConfigAttackCircle",
                    "triggerType": "TriggerNoRepeat",
                    "born": {
                        "$type": "ConfigBornBySelf",
                        "offset": {
                            "IBKBLDAJIMA": 0.0,
                            "LKHJADIPBFL": -1.25,
                            "PJCOKIGCJOK": 0.0
                        }
                    },
                    "height": 2.5,
                    "fanAngle": 90.0,
                    "DCMPFCIBIPA": 1.5
                },
                "attackInfo": {
                    "attackTag": "",
                    "attenuationTag": "Monster_Fungus_Amanita_Unu_Svarita_Ice_DiveAttackNormal",
                    "attenuationGroup": "Effigy_Ice_Attenuation_2",
                    "attackProperty": {
                        "HBIOLEEGHPD": 0.30000001192092896,
                        "CCNJGLPMIEP": 0.0,
                        "elementType": "Ice",
                        "bonusCriticalHurt": 25.0,
                        "strikeType": "Blunt",
                        "enBreak": 200.0,
                        "attackType": "Melee"
                    },
                    "hitPattern": {
                        "onHitEffectName": "default",
                        "hitImpulseType": "LV4"
                    }
                }
            },
            "DiveAttackEndNormal": {
                "attackPattern": {
                    "$type": "ConfigAttackCircle",
                    "triggerType": "TriggerNoRepeat",
                    "born": {
                        "$type": "ConfigBornBySelf",
                        "offset": {
                            "IBKBLDAJIMA": 0.0,
                            "LKHJADIPBFL": 0.0,
                            "PJCOKIGCJOK": 0.0
                        }
                    },
                    "height": 2.5,
                    "fanAngle": 120.0,
                    "DCMPFCIBIPA": 2.5
                },
                "attackInfo": {
                    "attackTag": "",
                    "attenuationTag": "",
                    "attenuationGroup": "default",
                    "attackProperty": {
                        "HBIOLEEGHPD": 0.8500000238418579,
                        "CCNJGLPMIEP": 0.0,
                        "elementType": "Ice",
                        "bonusCriticalHurt": 25.0,
                        "strikeType": "Blunt",
                        "enBreak": 200.0,
                        "attackType": "Melee"
                    },
                    "hitPattern": {
                        "onHitEffectName": "default",
                        "hitImpulseType": "LV5"
                    }
                }
            },
            "DiveAttackDecay": {
                "attackPattern": {
                    "$type": "ConfigAttackCircle",
                    "triggerType": "TriggerNoRepeat",
                    "born": {
                        "$type": "ConfigBornBySelf",
                        "offset": {
                            "IBKBLDAJIMA": 0.0,
                            "LKHJADIPBFL": -1.75,
                            "PJCOKIGCJOK": 0.0
                        }
                    },
                    "height": 3.5,
                    "fanAngle": 100.0,
                    "DCMPFCIBIPA": 2.0
                },
                "attackInfo": {
                    "attackTag": "",
                    "attenuationTag": "Monster_Fungus_Amanita_Unu_Svarita_Ice_DiveAttackDecay",
                    "attenuationGroup": "Effigy_Ice_Attenuation_2",
                    "attackProperty": {
                        "HBIOLEEGHPD": 0.4000000059604645,
                        "CCNJGLPMIEP": 0.0,
                        "elementType": "Ice",
                        "bonusCriticalHurt": 25.0,
                        "strikeType": "Blunt",
                        "enBreak": 80.0,
                        "attackType": "Melee"
                    },
                    "hitPattern": {
                        "onHitEffectName": "default",
                        "hitImpulseType": "LV4"
                    }
                }
            },
            "DiveAttackEndDecay": {
                "attackPattern": {
                    "$type": "ConfigAttackCircle",
                    "triggerType": "TriggerNoRepeat",
                    "born": {
                        "$type": "ConfigBornBySelf",
                        "offset": {
                            "IBKBLDAJIMA": 0.0,
                            "LKHJADIPBFL": 0.0,
                            "PJCOKIGCJOK": 0.0
                        }
                    },
                    "height": 3.5,
                    "fanAngle": 180.0,
                    "DCMPFCIBIPA": 3.5
                },
                "attackInfo": {
                    "attackTag": "",
                    "attenuationTag": "",
                    "attenuationGroup": "default",
                    "attackProperty": {
                        "HBIOLEEGHPD": 1.0,
                        "CCNJGLPMIEP": 0.0,
                        "elementType": "Ice",
                        "bonusCriticalHurt": 25.0,
                        "strikeType": "Blunt",
                        "enBreak": 200.0,
                        "attackType": "Melee"
                    },
                    "hitPattern": {
                        "onHitEffectName": "default",
                        "hitImpulseType": "LV6"
                    }
                }
            }
        }
    },
    "abilities": [
        {
            "abilityID": "",
            "abilityName": "Monster_Fungus_Amanita_Unu_AirStateManager",
            "abilityOverride": ""
        },
        {
            "abilityID": "",
            "abilityName": "Monster_Fungus_Amanita_Unu_ReturnToBorn",
            "abilityOverride": ""
        },
        {
            "abilityID": "",
            "abilityName": "Monster_Fungus_Amanita_FungusStateManager",
            "abilityOverride": ""
        },
        {
            "abilityID": "",
            "abilityName": "Monster_Fungus_Alert",
            "abilityOverride": ""
        },
        {
            "abilityID": "",
            "abilityName": "Monster_Fungus_Amanita_Unu_Svarita_Ice_Steer",
            "abilityOverride": ""
        }
    ],
    "stateLayers": {
        "defaultLayer": {
            "$type": "ConfigNormalStateLayer",
            "layerIndexName": "",
            "stateIDs": {
                "Born": {
                    "$type": "ConfigMonsterStateIDInfo",
                    "animatorStates": {
                        "Born": []
                    },
                    "canSyncMove": true,
                    "resetAnimatorTriggerOnExit": [
                        "DoSkill"
                    ]
                },
                "NormalIdle": {
                    "$type": "ConfigMonsterStateIDInfo",
                    "animatorStates": {
                        "Standby_WingDown01": [],
                        "Standby_WingUp01": [
                            "Audio_Monster_Fungus_Amanita_Unu_Anudatta_FlyStandBy_WingDown_01"
                        ],
                        "Standby_WingDown02": [],
                        "Standby_WingUp02": [
                            "Audio_Monster_Fungus_Amanita_Unu_Anudatta_FlyStandBy_WingDown_02"
                        ]
                    },
                    "canDoSkill": true,
                    "canSyncMove": true,
                    "resetAnimatorTriggerOnExit": [
                        "DoSkill"
                    ],
                    "canSteer": true
                },
                "GroundedIdle": {
                    "$type": "ConfigMonsterStateIDInfo",
                    "animatorStates": {
                        "Standby_Grounded": []
                    },
                    "canDoSkill": true,
                    "canSyncMove": true,
                    "resetAnimatorTriggerOnExit": [
                        "DoSkill"
                    ]
                },
                "NormalFly": {
                    "$type": "ConfigMonsterStateIDInfo",
                    "animatorStates": {
                        "Fly_WingUp01": [],
                        "Fly_WingDown01": [],
                        "Fly_WingUp02": [],
                        "Fly_WingDown02": []
                    },
                    "canDoSkill": true,
                    "canSyncMove": true,
                    "resetAnimatorTriggerOnExit": [
                        "DoSkill"
                    ],
                    "setAnimatorFloat": [
                        {
                            "name": "FlyMotionHor",
                            "normalizeEnd": 0.0
                        },
                        {
                            "name": "FlyMotionVer",
                            "normalizeEnd": 0.0
                        }
                    ],
                    "canSteer": true,
                    "CANNKEADBCO": "BlendMove3D"
                },
                "FlyRush": {
                    "$type": "ConfigMonsterStateIDInfo",
                    "animatorStates": {
                        "FlyRush_BS": [
                            "Audio_Monster_Fungus_Amanita_Unu_Anudatta_FlyRush_BS"
                        ],
                        "FlyRush_WingUp01": [
                            "Monster_Fungus_Amanita_Unu_FlyRush",
                            "Audio_Monster_Fungus_Amanita_Unu_FlyRush"
                        ],
                        "FlyRush_WingDown01": [
                            "Monster_Fungus_Amanita_Unu_FlyRush",
                            "Audio_Monster_Fungus_Amanita_Unu_FlyRush"
                        ],
                        "FlyRush_WingUp02": [
                            "Monster_Fungus_Amanita_Unu_FlyRush",
                            "Audio_Monster_Fungus_Amanita_Unu_FlyRush"
                        ],
                        "FlyRush_WingDown02": [
                            "Monster_Fungus_Amanita_Unu_FlyRush",
                            "Audio_Monster_Fungus_Amanita_Unu_FlyRush"
                        ]
                    },
                    "canDoSkill": true,
                    "canSyncMove": true,
                    "canSteer": true
                },
                "BeHit": {
                    "$type": "ConfigMonsterStateIDInfo",
                    "animatorStates": {
                        "Hit_H": [
                            "Audio_Monster_Fungus_Amanita_Unu_Hit_H"
                        ]
                    },
                    "canSyncMove": true,
                    "resetAnimatorTriggerOnEnter": [
                        "BeHit"
                    ],
                    "resetAnimatorTriggerOnExit": [
                        "DoSkill"
                    ],
                    "KOKKPDGIOPB": true
                },
                "BeHitThrow": {
                    "$type": "ConfigMonsterStateIDInfo",
                    "animatorStates": {
                        "HitThrow": [],
                        "HitThrowDrop": [],
                        "HitThrowToGround": [
                            "Audio_Monster_Fungus_Amanita_Unu_hitThrowToGround_BS"
                        ]
                    },
                    "resetAnimatorTriggerOnEnter": [
                        "BeHit",
                        "HitAir2HitDrop"
                    ],
                    "resetAnimatorTriggerOnExit": [
                        "DoSkill"
                    ],
                    "remoteForceUseAnimatorVel": true
                },
                "Struggle": {
                    "$type": "ConfigMonsterStateIDInfo",
                    "animatorStates": {
                        "Struggle": []
                    },
                    "resetAnimatorTriggerOnEnter": [
                        "BeHit",
                        "HitAir2HitDrop"
                    ],
                    "resetAnimatorTriggerOnExit": [
                        "DoSkill"
                    ]
                },
                "Die": {
                    "$type": "ConfigMonsterStateIDInfo",
                    "animatorStates": {
                        "Die_BS": [],
                        "Die": [
                            "Monster_Fungus_Amanita_Unu_Die",
                            "Audio_Monster_Fungus_Amanita_Unu_Die"
                        ],
                        "AirDie": [
                            "Monster_Fungus_Amanita_Unu_Die"
                        ],
                        "SwimDie_BS": [],
                        "SwimDie": []
                    }
                },
                "Warning": {
                    "$type": "ConfigMonsterStateIDInfo",
                    "animatorStates": {
                        "Warning": [
                            "Monster_Fungus_Amanita_Unu_Alert",
                            "Audio_Monster_Fungus_Amanita_Unu_Warning"
                        ]
                    },
                    "canSyncMove": true,
                    "addEndure": 0.009999999776482582,
                    "resetAnimatorTriggerOnExit": [
                        "BeHit",
                        "DoSkill"
                    ],
                    "canSteer": true
                },
                "ClimbUp": {
                    "$type": "ConfigMonsterStateIDInfo",
                    "animatorStates": {
                        "ClimbUp_BS": [
                            "Monster_Fungus_Amanita_Unu_ClimbUp_BS",
                            "Audio_Monster_Fungus_Amanita_Unu_Anudatta_ClimbUp_BS"
                        ],
                        "ClimbUp_Loop": [],
                        "ClimbUp_AS": [
                            "Audio_Monster_Fungus_Amanita_Unu_Anudatta_ClimbUp_AS"
                        ]
                    },
                    "resetAnimatorTriggerOnExit": [
                        "BeHit",
                        "DoSkill"
                    ],
                    "canSteer": true
                },
                "MeleeAttack01Normal_BS": {
                    "$type": "ConfigMonsterStateIDInfo",
                    "animatorStates": {
                        "MeleeAttack01Normal_BS": [
                            "Audio_Monster_Fungus_Amanita_Unu_Svarita_Ice_MeleeAttack01_BS"
                        ]
                    },
                    "resetAnimatorTriggerOnExit": [
                        "BeHit",
                        "DoSkill"
                    ],
                    "canSteer": true
                },
                "MeleeAttack01Overdose_BS": {
                    "$type": "ConfigMonsterStateIDInfo",
                    "animatorStates": {
                        "MeleeAttack01Overdose_BS": [
                            "Audio_Monster_Fungus_Amanita_Unu_Svarita_Ice_MeleeAttack01_BS"
                        ]
                    },
                    "resetAnimatorTriggerOnExit": [
                        "BeHit",
                        "DoSkill"
                    ],
                    "canSteer": true
                },
                "MeleeAttack01Decay_BS": {
                    "$type": "ConfigMonsterStateIDInfo",
                    "animatorStates": {
                        "MeleeAttack01Decay_BS": [
                            "Monster_Fungus_Amanita_Unu_Anudatta_Grass_MeleeAttackDecay_BS",
                            "Audio_Monster_Fungus_Amanita_Unu_Svarita_Ice_MeleeAttack01_BS"
                        ]
                    },
                    "resetAnimatorTriggerOnExit": [
                        "BeHit",
                        "DoSkill"
                    ],
                    "canSteer": true
                },
                "MeleeAttack01_AS": {
                    "$type": "ConfigMonsterStateIDInfo",
                    "animatorStates": {
                        "MeleeAttack01Normal_Attack": [
                            "Monster_Fungus_Amanita_Unu_Svarita_Ice_MeleeAttack01Normal_Attack",
                            "Audio_Monster_Fungus_Amanita_Unu_Svarita_Ice_MeleeAttack01_Attack"
                        ],
                        "MeleeAttack01Normal_AS": [
                            "Audio_Monster_Fungus_Amanita_Unu_Svarita_Ice_MeleeAttack01_AS"
                        ],
                        "MeleeAttack01Overdose_Attack": [
                            "Monster_Fungus_Amanita_Unu_Svarita_Ice_MeleeAttack01Normal_Attack",
                            "Audio_Monster_Fungus_Amanita_Unu_Svarita_Ice_MeleeAttack01_Attack"
                        ],
                        "MeleeAttack01Overdose_AS": [
                            "Audio_Monster_Fungus_Amanita_Unu_Svarita_Ice_MeleeAttack01_AS"
                        ],
                        "MeleeAttack01Decay_Attack": [
                            "Monster_Fungus_Amanita_Unu_Svarita_Ice_MeleeAttack01Decay_Attack",
                            "Audio_Monster_Fungus_Amanita_Unu_Svarita_Ice_MeleeAttack01Decay_Attack"
                        ],
                        "MeleeAttack01Decay_AS": [
                            "Audio_Monster_Fungus_Amanita_Unu_Svarita_Ice_MeleeAttack01_AS"
                        ]
                    },
                    "resetAnimatorTriggerOnExit": [
                        "BeHit",
                        "DoSkill"
                    ],
                    "canSteer": true
                },
                "MeleeAttack02Normal_BS": {
                    "$type": "ConfigMonsterStateIDInfo",
                    "animatorStates": {
                        "MeleeAttack02Normal_BS": []
                    },
                    "resetAnimatorTriggerOnExit": [
                        "BeHit",
                        "DoSkill"
                    ],
                    "canSteer": true
                },
                "MeleeAttack02Overdose_BS": {
                    "$type": "ConfigMonsterStateIDInfo",
                    "animatorStates": {
                        "MeleeAttack02Overdose_BS": []
                    },
                    "resetAnimatorTriggerOnExit": [
                        "BeHit",
                        "DoSkill"
                    ],
                    "canSteer": true
                },
                "MeleeAttack02Decay_BS": {
                    "$type": "ConfigMonsterStateIDInfo",
                    "animatorStates": {
                        "MeleeAttack02Decay_BS": []
                    },
                    "resetAnimatorTriggerOnExit": [
                        "BeHit",
                        "DoSkill"
                    ],
                    "canSteer": true
                },
                "MeleeAttack02_AS": {
                    "$type": "ConfigMonsterStateIDInfo",
                    "animatorStates": {
                        "MeleeAttack02Normal_Attack": [
                            "Monster_Fungus_Amanita_Unu_Svarita_Ice_MeleeAttack02Normal_Attack",
                            "Audio_Monster_Fungus_Amanita_Unu_Svarita_Ice_MeleeAttack02_Attack"
                        ],
                        "MeleeAttack02Normal_AS": [
                            "Audio_Monster_Fungus_Amanita_Unu_Svarita_Ice_MeleeAttack02_AS"
                        ],
                        "MeleeAttack02Overdose_Attack": [
                            "Monster_Fungus_Amanita_Unu_Svarita_Ice_MeleeAttack02Normal_Attack",
                            "Audio_Monster_Fungus_Amanita_Unu_Svarita_Ice_MeleeAttack02_Attack"
                        ],
                        "MeleeAttack02Overdose_AS": [
                            "Audio_Monster_Fungus_Amanita_Unu_Svarita_Ice_MeleeAttack02_AS"
                        ],
                        "MeleeAttack02Decay_Attack": [
                            "Monster_Fungus_Amanita_Unu_Svarita_Ice_MeleeAttack02Decay_Attack",
                            "Audio_Monster_Fungus_Amanita_Unu_Svarita_Ice_MeleeAttack02Decay_Attack"
                        ],
                        "MeleeAttack02Decay_AS": [
                            "Audio_Monster_Fungus_Amanita_Unu_Svarita_Ice_MeleeAttack02_AS"
                        ]
                    },
                    "resetAnimatorTriggerOnExit": [
                        "BeHit",
                        "DoSkill"
                    ],
                    "canSteer": true
                },
                "ChargeNormal_BS": {
                    "$type": "ConfigMonsterStateIDInfo",
                    "animatorStates": {
                        "ChargeNormal_BS": [
                            "Monster_Fungus_Amanita_Unu_Svarita_Ice_ChargeNormal_BS",
                            "Audio_Monster_Fungus_Amanita_Unu_Svarita_Ice_Charge_BS"
                        ]
                    },
                    "resetAnimatorTriggerOnExit": [
                        "BeHit",
                        "DoSkill"
                    ],
                    "canSteer": true
                },
                "ChargeOverdose_BS": {
                    "$type": "ConfigMonsterStateIDInfo",
                    "animatorStates": {
                        "ChargeOverdose01_BS": [
                            "Monster_Fungus_Amanita_Unu_Svarita_Ice_ChargeNormal_BS",
                            "Audio_Monster_Fungus_Amanita_Unu_Svarita_Ice_Charge_BS"
                        ],
                        "ChargeOverdose02_BS": [
                            "Monster_Fungus_Amanita_Unu_Svarita_Ice_ChargeNormal_BS",
                            "Audio_Monster_Fungus_Amanita_Unu_Svarita_Ice_Charge_BS"
                        ],
                        "ChargeOverdose03_BS": [
                            "Monster_Fungus_Amanita_Unu_Svarita_Ice_ChargeNormal_BS",
                            "Audio_Monster_Fungus_Amanita_Unu_Svarita_Ice_Charge_BS"
                        ]
                    },
                    "resetAnimatorTriggerOnExit": [
                        "BeHit",
                        "DoSkill"
                    ],
                    "canSteer": true
                },
                "ChargeDecay_BS": {
                    "$type": "ConfigMonsterStateIDInfo",
                    "animatorStates": {
                        "ChargeDecay_BS": [
                            "Monster_Fungus_Amanita_Unu_Svarita_Ice_ChargeDecay_BS",
                            "Audio_Monster_Fungus_Amanita_Unu_Svarita_Ice_ChargeDecay_BS"
                        ]
                    },
                    "resetAnimatorTriggerOnExit": [
                        "BeHit",
                        "DoSkill"
                    ],
                    "canSteer": true
                },
                "Charge_Loop": {
                    "$type": "ConfigMonsterStateIDInfo",
                    "animatorStates": {
                        "ChargeNormal_Loop": [
                            "Monster_Fungus_Amanita_Unu_Svarita_Ice_ChargeNormal_Loop"
                        ],
                        "ChargeOverdose01_Loop": [
                            "Monster_Fungus_Amanita_Unu_Svarita_Ice_ChargeNormal_Loop"
                        ],
                        "ChargeOverdose02_Loop": [
                            "Monster_Fungus_Amanita_Unu_Svarita_Ice_ChargeNormal_Loop"
                        ],
                        "ChargeOverdose03_Loop": [
                            "Monster_Fungus_Amanita_Unu_Svarita_Ice_ChargeNormal_Loop"
                        ]
                    },
                    "resetAnimatorTriggerOnExit": [
                        "BeHit",
                        "DoSkill"
                    ],
                    "canSteer": true
                },
                "ChargeDecay_Loop": {
                    "$type": "ConfigMonsterStateIDInfo",
                    "animatorStates": {
                        "ChargeDecay_Loop": [
                            "Monster_Fungus_Amanita_Unu_Svarita_Ice_ChargeDecay_Loop"
                        ]
                    },
                    "resetAnimatorTriggerOnExit": [
                        "BeHit",
                        "DoSkill"
                    ],
                    "canSteer": true
                },
                "Charge_AS": {
                    "$type": "ConfigMonsterStateIDInfo",
                    "animatorStates": {
                        "ChargeNormal_AS": [
                            "Monster_Fungus_Amanita_Unu_Svarita_Ice_ChargeNormal_AS",
                            "Audio_Monster_Fungus_Amanita_Unu_Svarita_Ice_Charge_AS"
                        ],
                        "ChargeOverdose01_AS": [
                            "Monster_Fungus_Amanita_Unu_Svarita_Ice_ChargeNormal_AS",
                            "Audio_Monster_Fungus_Amanita_Unu_Svarita_Ice_Charge_AS"
                        ],
                        "ChargeOverdose02_AS": [
                            "Monster_Fungus_Amanita_Unu_Svarita_Ice_ChargeNormal_AS",
                            "Audio_Monster_Fungus_Amanita_Unu_Svarita_Ice_Charge_AS"
                        ],
                        "ChargeOverdose03_AS": [
                            "Monster_Fungus_Amanita_Unu_Svarita_Ice_ChargeNormal_AS",
                            "Audio_Monster_Fungus_Amanita_Unu_Svarita_Ice_Charge_AS"
                        ],
                        "ChargeDecay_AS": [
                            "Monster_Fungus_Amanita_Unu_Svarita_Ice_ChargeDecay_AS",
                            "Audio_Monster_Fungus_Amanita_Unu_Svarita_Ice_Charge_AS"
                        ]
                    },
                    "resetAnimatorTriggerOnExit": [
                        "BeHit",
                        "DoSkill"
                    ],
                    "canSteer": true
                },
                "DiveAttackNormal_BS": {
                    "$type": "ConfigMonsterStateIDInfo",
                    "animatorStates": {
                        "DiveAttackNormal_BS": [
                            "Monster_Fungus_Amanita_Unu_Svarita_Ice_DiveAttackNormal_BS",
                            "Audio_Monster_Fungus_Amanita_Unu_Svarita_Ice_DiveAttack_BS"
                        ]
                    },
                    "resetAnimatorTriggerOnExit": [
                        "BeHit",
                        "DoSkill"
                    ],
                    "canSteer": true
                },
                "DiveAttackOverdose_BS": {
                    "$type": "ConfigMonsterStateIDInfo",
                    "animatorStates": {
                        "DiveAttackOverdose_BS": [
                            "Monster_Fungus_Amanita_Unu_Svarita_Ice_DiveAttackNormal_BS",
                            "Audio_Monster_Fungus_Amanita_Unu_Svarita_Ice_DiveAttack_BS"
                        ]
                    },
                    "resetAnimatorTriggerOnExit": [
                        "BeHit",
                        "DoSkill"
                    ],
                    "canSteer": true
                },
                "DiveAttackDecay_BS": {
                    "$type": "ConfigMonsterStateIDInfo",
                    "animatorStates": {
                        "DiveAttackDecay_BS": [
                            "Monster_Fungus_Amanita_Unu_Svarita_Ice_DiveAttackDecay_BS",
                            "Audio_Monster_Fungus_Amanita_Unu_Svarita_Ice_DiveAttackDecay_BS"
                        ]
                    },
                    "resetAnimatorTriggerOnExit": [
                        "BeHit",
                        "DoSkill"
                    ],
                    "canSteer": true
                },
                "DiveAttack_Loop": {
                    "$type": "ConfigMonsterStateIDInfo",
                    "animatorStates": {
                        "DiveAttackNormal_Loop": [
                            "Monster_Fungus_Amanita_Unu_Svarita_Ice_DiveAttackNormal_Loop",
                            "Audio_Monster_Fungus_Amanita_Unu_Svarita_Ice_DiveAttack_Attack_Loop"
                        ],
                        "DiveAttackOverdose_Loop": [
                            "Monster_Fungus_Amanita_Unu_Svarita_Ice_DiveAttackNormal_Loop",
                            "Audio_Monster_Fungus_Amanita_Unu_Svarita_Ice_DiveAttack_Attack_Loop"
                        ],
                        "DiveAttackDecay_Loop": [
                            "Monster_Fungus_Amanita_Unu_Svarita_Ice_DiveAttackDecay_Loop",
                            "Audio_Monster_Fungus_Amanita_Unu_Svarita_Ice_DiveAttackDecay_Attack_Loop"
                        ]
                    },
                    "resetAnimatorTriggerOnExit": [
                        "BeHit",
                        "DoSkill"
                    ],
                    "canSteer": true
                },
                "DiveAttack": {
                    "$type": "ConfigMonsterStateIDInfo",
                    "animatorStates": {
                        "DiveAttackNormal_AS": [
                            "Monster_Fungus_Amanita_Unu_Svarita_Ice_DiveAttackNormal_AS",
                            "Audio_Monster_Fungus_Amanita_Unu_Svarita_Ice_DiveAttackDecay_AS"
                        ],
                        "DiveAttackOverdose_AS": [
                            "Monster_Fungus_Amanita_Unu_Svarita_Ice_DiveAttackNormal_AS",
                            "Audio_Monster_Fungus_Amanita_Unu_Svarita_Ice_DiveAttackDecay_AS"
                        ],
                        "DiveAttackDecay_AS": [
                            "Monster_Fungus_Amanita_Unu_Svarita_Ice_DiveAttackDecay_AS",
                            "Audio_Monster_Fungus_Amanita_Unu_Svarita_Ice_DiveAttackDecay_AS"
                        ]
                    },
                    "resetAnimatorTriggerOnExit": [
                        "BeHit",
                        "DoSkill"
                    ],
                    "canSteer": true
                },
                "Taunt": {
                    "$type": "ConfigMonsterStateIDInfo",
                    "animatorStates": {
                        "Taunt01": [
                            "Audio_Monster_Fungus_Amanita_Unu_taunt01"
                        ]
                    },
                    "resetAnimatorTriggerOnExit": [
                        "BeHit",
                        "DoSkill"
                    ],
                    "canSteer": true
                },
                "Grounded_AS": {
                    "$type": "ConfigMonsterStateIDInfo",
                    "animatorStates": {
                        "Grounded_AS": []
                    },
                    "addEndure": 0.009999999776482582,
                    "resetAnimatorTriggerOnExit": [
                        "BeHit",
                        "DoSkill"
                    ],
                    "canSteer": true
                },
                "Dance": {
                    "$type": "ConfigMonsterStateIDInfo",
                    "animatorStates": {
                        "Dance": [
                            "Monster_Fungus_Amanita_Unu_Dance",
                            "Audio_Monster_Fungus_Amanita_Unu_Dance"
                        ]
                    },
                    "canDoSkill": true,
                    "resetAnimatorTriggerOnExit": [
                        "BeHit",
                        "DoSkill"
                    ],
                    "canSteer": true
                },
                "Tease": {
                    "$type": "ConfigMonsterStateIDInfo",
                    "animatorStates": {
                        "Tease": [
                            "Audio_Monster_Fungus_Amanita_Unu_Tease"
                        ]
                    },
                    "canDoSkill": true,
                    "resetAnimatorTriggerOnExit": [
                        "BeHit",
                        "DoSkill"
                    ],
                    "canSteer": true
                },
                "Absorb": {
                    "$type": "ConfigMonsterStateIDInfo",
                    "animatorStates": {
                        "Absorb": [
                            "Monster_Fungus_Amanita_Unu_Absorb",
                            "Audio_Monster_Fungus_Amanita_Unu_Absorb"
                        ]
                    },
                    "canDoSkill": true,
                    "resetAnimatorTriggerOnExit": [
                        "BeHit",
                        "DoSkill"
                    ],
                    "canSteer": true
                }
            }
        }
    },
    "billboard": {
        "$type": "ConfigCombatBillboard",
        "attachPoint": "BillboardAttach",
        "offset": {
            "y": 0.5
        },
        "radiusOffset": 1.0,
        "enableSelfAdapt": true,
        "showHPBar": true,
        "size": "Big"
    },
    "initialPoses": {
        "Default": {
            "initialPoseID": 201
        },
        "Dance": {
            "initialPoseID": 102,
            "initialPoseParams": {
                "boolParams": {
                    "Dance": "true"
                }
            }
        },
        "Tease": {
            "initialPoseID": 103,
            "initialPoseParams": {
                "boolParams": {
                    "Tease": "true"
                }
            }
        },
        "Absorb": {
            "initialPoseID": 104,
            "initialPoseParams": {
                "boolParams": {
                    "Absorb": "true"
                }
            }
        }
    },
    "aibeta": {
        "enable": true,
        "moveSetting": {
            "useNavMesh": false,
            "navMeshAgentName": "Undead01"
        },
        "sensing": {
            "settings": {
                "DefaultSetting": {
                    "viewRange": 22.0,
                    "feelRange": 8.75
                },
                "NoSensing": {
                    "enableVision": false,
                    "hearAttractionRange": 0.0,
                    "feelRange": 0.0
                }
            },
            "templates": {
                "DefaultTemplate": {
                    "DefaultPoses": "DefaultSetting"
                },
                "NoSensing": {
                    "DefaultPoses": "NoSensing"
                }
            }
        },
        "threat": {
            "clearThreatTargetDistance": 30.0,
            "clearThreatEdgeDistance": 5.0,
            "clearThreatTimerByDistance": 2.0,
            "viewAttenuation": [
                {
                    "x": 12.0,
                    "y": 1.0
                },
                {
                    "x": 20.0,
                    "y": 0.5
                }
            ]
        },
        "defendArea": {
            "defendRange": 50.0
        },
        "fly": {
            "enable": true,
            "floatingPoses": [
                102,
                103,
                104,
                201,
                211,
                221,
                202,
                212,
                222,
                501,
                511,
                521,
                502,
                512,
                522,
                401,
                402,
                411,
                412
            ]
        },
        "skills": {
            "100": {
                "name": "OnAlert",
                "skillType": "OnAlert",
                "faceTarget": true,
                "publicCDGroup": "",
                "triggerGCD": false,
                "stateIDs": [
                    "Warning"
                ],
                "skillQueryingTime": 3.0,
                "flagTargetReachable": "10",
                "flagSelfOnTemplateCollider": "01",
                "flagSelfInZone": "10",
                "flagTargetInZone": "11"
            },
            "102": {
                "name": "Dance",
                "skillType": "Free",
                "castCondition": {
                    "pose": [
                        102
                    ]
                },
                "cd": 10.0,
                "cdUpperRange": 10.0,
                "initialCD": 5.0,
                "initialCDUpperRange": 10.0,
                "publicCDGroup": "",
                "triggerGCD": false,
                "stateIDs": [
                    "Dance"
                ],
                "skillQueryingTime": 3.0,
                "flagTargetReachable": "10",
                "flagSelfOnTemplateCollider": "01",
                "flagSelfInZone": "10",
                "flagTargetInZone": "11"
            },
            "103": {
                "name": "Tease",
                "skillType": "Free",
                "castCondition": {
                    "pose": [
                        103
                    ]
                },
                "cd": 10.0,
                "cdUpperRange": 10.0,
                "initialCD": 5.0,
                "initialCDUpperRange": 10.0,
                "publicCDGroup": "",
                "triggerGCD": false,
                "stateIDs": [
                    "Tease"
                ],
                "skillQueryingTime": 3.0,
                "flagTargetReachable": "10",
                "flagSelfOnTemplateCollider": "01",
                "flagSelfInZone": "10",
                "flagTargetInZone": "11"
            },
            "104": {
                "name": "Absorb",
                "skillType": "Free",
                "castCondition": {
                    "pose": [
                        104
                    ]
                },
                "cd": 10.0,
                "cdUpperRange": 10.0,
                "initialCD": 5.0,
                "initialCDUpperRange": 10.0,
                "publicCDGroup": "",
                "triggerGCD": false,
                "stateIDs": [
                    "Absorb"
                ],
                "skillQueryingTime": 3.0,
                "flagTargetReachable": "10",
                "flagSelfOnTemplateCollider": "01",
                "flagSelfInZone": "10",
                "flagTargetInZone": "11"
            },
            "301": {
                "name": "MeleeAttackNormal",
                "combatSkillType": "MeleeAttack",
                "enableSkillPrepare": true,
                "castCondition": {
                    "pose": [
                        501
                    ],
                    "pickRangeMin": 3.0,
                    "pickRangeMax": 6.0,
                    "pickRangeYMax": 0.5,
                    "pickRangeYMin": -2.0,
                    "EGOPMPIMDDJ": "RangeXZ_Y",
                    "GMHBCPCABGE": {
                        "CNKLPKFGBJI": 2.0,
                        "PIHAKJOLAFB": -0.5,
                        "JOBPJGPBHKG": 0.6000000238418579
                    }
                },
                "cd": 5.0,
                "initialCD": 5.0,
                "publicCDGroup": "Fungus_MeleeAttack",
                "ignoreGCD": true,
                "triggerGCD": false,
                "stateIDs": [
                    "MeleeAttack01_AS",
                    "MeleeAttack01Normal_BS",
                    "MeleeAttack02_AS",
                    "MeleeAttack02Normal_BS"
                ],
                "flagTargetReachable": "11",
                "flagSelfOnTemplateCollider": "01",
                "flagSelfInZone": "11",
                "flagTargetInZone": "11"
            },
            "305": {
                "name": "MeleeAttackNormal_Close",
                "combatSkillType": "MeleeAttack",
                "castCondition": {
                    "pose": [
                        501
                    ],
                    "pickRangeMax": 2.0,
                    "pickRangeYMax": 0.5,
                    "pickRangeYMin": -2.0
                },
                "cd": 5.0,
                "initialCD": 5.0,
                "publicCDGroup": "Fungus_MeleeAttack",
                "ignoreGCD": true,
                "triggerGCD": false,
                "stateIDs": [
                    "MeleeAttack01_AS",
                    "MeleeAttack01Normal_BS",
                    "MeleeAttack02_AS",
                    "MeleeAttack02Normal_BS"
                ],
                "flagTargetReachable": "11",
                "flagSelfOnTemplateCollider": "01",
                "flagSelfInZone": "11",
                "flagTargetInZone": "11"
            },
            "311": {
                "name": "MeleeAttackOverdose",
                "combatSkillType": "MeleeAttack",
                "enableSkillPrepare": true,
                "castCondition": {
                    "pose": [
                        511
                    ],
                    "pickRangeMax": 6.0,
                    "pickRangeYMax": 0.5,
                    "pickRangeYMin": -2.0,
                    "GMHBCPCABGE": {
                        "CNKLPKFGBJI": 2.0,
                        "PIHAKJOLAFB": -0.5,
                        "JOBPJGPBHKG": 0.6000000238418579
                    }
                },
                "cd": 1.0,
                "initialCD": 2.0,
                "publicCDGroup": "Fungus_MeleeAttack",
                "ignoreGCD": true,
                "triggerGCD": false,
                "stateIDs": [
                    "MeleeAttack01_AS",
                    "MeleeAttack01Overdose_BS",
                    "MeleeAttack02_AS",
                    "MeleeAttack02Overdose_BS"
                ],
                "flagTargetReachable": "11",
                "flagSelfOnTemplateCollider": "01",
                "flagSelfInZone": "11",
                "flagTargetInZone": "11"
            },
            "315": {
                "name": "MeleeAttackOverdose_Close",
                "combatSkillType": "MeleeAttack",
                "castCondition": {
                    "pose": [
                        511
                    ],
                    "pickRangeMax": 2.0,
                    "pickRangeYMax": 0.5,
                    "pickRangeYMin": -2.0
                },
                "cd": 1.0,
                "initialCD": 2.0,
                "publicCDGroup": "Fungus_MeleeAttack",
                "ignoreGCD": true,
                "triggerGCD": false,
                "stateIDs": [
                    "MeleeAttack01_AS",
                    "MeleeAttack01Overdose_BS",
                    "MeleeAttack02_AS",
                    "MeleeAttack02Overdose_BS"
                ],
                "flagTargetReachable": "11",
                "flagSelfOnTemplateCollider": "01",
                "flagSelfInZone": "11",
                "flagTargetInZone": "11"
            },
            "321": {
                "name": "MeleeAttackDecay",
                "combatSkillType": "MeleeAttack",
                "enableSkillPrepare": true,
                "castCondition": {
                    "pose": [
                        521
                    ],
                    "pickRangeMax": 6.0,
                    "pickRangeYMax": 0.5,
                    "pickRangeYMin": -2.0,
                    "GMHBCPCABGE": {
                        "CNKLPKFGBJI": 2.0,
                        "PIHAKJOLAFB": -0.5,
                        "JOBPJGPBHKG": 0.6000000238418579
                    }
                },
                "cd": 2.0,
                "publicCDGroup": "Fungus_MeleeAttack",
                "ignoreGCD": true,
                "triggerGCD": false,
                "stateIDs": [
                    "MeleeAttack01_AS",
                    "MeleeAttack01Decay_BS",
                    "MeleeAttack02_AS",
                    "MeleeAttack02Decay_BS"
                ],
                "flagTargetReachable": "11",
                "flagSelfOnTemplateCollider": "01",
                "flagSelfInZone": "11",
                "flagTargetInZone": "11"
            },
            "325": {
                "name": "MeleeAttackDecay_Close",
                "combatSkillType": "MeleeAttack",
                "enableSkillPrepare": true,
                "castCondition": {
                    "pose": [
                        521
                    ],
                    "pickRangeMax": 2.0,
                    "pickRangeYMax": 0.5,
                    "pickRangeYMin": -2.0
                },
                "cd": 2.0,
                "publicCDGroup": "Fungus_MeleeAttack",
                "ignoreGCD": true,
                "triggerGCD": false,
                "stateIDs": [
                    "MeleeAttack01_AS",
                    "MeleeAttack01Decay_BS",
                    "MeleeAttack02_AS",
                    "MeleeAttack02Decay_BS"
                ],
                "flagTargetReachable": "11",
                "flagSelfOnTemplateCollider": "01",
                "flagSelfInZone": "11",
                "flagTargetInZone": "11"
            },
            "302": {
                "name": "ClimbUp",
                "castCondition": {
                    "pose": [
                        501
                    ],
                    "needReInitCD": true,
                    "pickRangeMin": 6.0,
                    "pickRangeMax": 16.0,
                    "pickRangeYMax": 1.0,
                    "pickRangeYMin": -1.0
                },
                "cd": 10.0,
                "cdUpperRange": 10.0,
                "initialCD": 10.0,
                "publicCDGroup": "",
                "triggerGCD": false,
                "stateIDs": [
                    "ClimbUp"
                ],
                "flagTargetReachable": "10",
                "flagSelfOnTemplateCollider": "01",
                "flagSelfInZone": "10",
                "flagTargetInZone": "11"
            },
            "303": {
                "name": "ClimbUp_Overdose",
                "castCondition": {
                    "pose": [
                        511
                    ],
                    "needReInitCD": true,
                    "pickRangeMin": 6.0,
                    "pickRangeMax": 16.0,
                    "pickRangeYMax": 1.0,
                    "pickRangeYMin": -1.0
                },
                "cd": 8.0,
                "cdUpperRange": 10.0,
                "publicCDGroup": "",
                "triggerGCD": false,
                "stateIDs": [
                    "ClimbUp"
                ],
                "flagTargetReachable": "10",
                "flagSelfOnTemplateCollider": "01",
                "flagSelfInZone": "10",
                "flagTargetInZone": "11"
            },
            "304": {
                "name": "ClimbUp_Decay",
                "castCondition": {
                    "pose": [
                        521
                    ],
                    "needReInitCD": true,
                    "pickRangeMin": 6.0,
                    "pickRangeMax": 16.0,
                    "pickRangeYMax": 1.0,
                    "pickRangeYMin": -1.0
                },
                "cd": 8.0,
                "cdUpperRange": 10.0,
                "initialCD": 8.0,
                "initialCDUpperRange": 10.0,
                "publicCDGroup": "",
                "triggerGCD": false,
                "stateIDs": [
                    "ClimbUp"
                ],
                "flagTargetReachable": "10",
                "flagSelfOnTemplateCollider": "01",
                "flagSelfInZone": "10",
                "flagTargetInZone": "11"
            },
            "309": {
                "name": "Grounded_AS",
                "castCondition": {
                    "pose": [
                        301,
                        311,
                        321
                    ],
                    "needReInitCD": true
                },
                "initialCD": 3.0,
                "publicCDGroup": "",
                "stateIDs": [
                    "Grounded_AS"
                ],
                "flagTargetReachable": "10",
                "flagSelfOnTemplateCollider": "01",
                "flagSelfInZone": "10",
                "flagTargetInZone": "11"
            },
            "501": {
                "name": "ChargeNormal",
                "castCondition": {
                    "pose": [
                        501
                    ],
                    "needReInitCD": true,
                    "pickRangeMax": 8.0,
                    "pickRangeYMax": 0.5,
                    "pickRangeYMin": -0.5,
                    "EGOPMPIMDDJ": "RangeXZ_Y",
                    "GMHBCPCABGE": {
                        "CNKLPKFGBJI": 8.0,
                        "PIHAKJOLAFB": -0.5,
                        "JOBPJGPBHKG": 0.800000011920929
                    }
                },
                "cd": 5.0,
                "cdUpperRange": 5.0,
                "initialCD": 1.0,
                "initialCDUpperRange": 2.5,
                "publicCDGroup": "Fungus_MeleeAttack",
                "stateIDs": [
                    "Charge",
                    "ChargeNormal_BS",
                    "Charge_Loop",
                    "Charge_AS"
                ],
                "flagTargetReachable": "11",
                "flagSelfOnTemplateCollider": "01",
                "flagSelfInZone": "11",
                "flagTargetInZone": "11"
            },
            "511": {
                "name": "ChargeOverdose",
                "castCondition": {
                    "pose": [
                        511
                    ],
                    "needReInitCD": true,
                    "pickRangeMax": 8.0,
                    "pickRangeYMax": 0.5,
                    "pickRangeYMin": -0.5,
                    "EGOPMPIMDDJ": "RangeXZ_Y",
                    "GMHBCPCABGE": {
                        "CNKLPKFGBJI": 8.0,
                        "PIHAKJOLAFB": -0.5,
                        "JOBPJGPBHKG": 0.800000011920929
                    }
                },
                "cd": 3.0,
                "cdUpperRange": 3.0,
                "initialCD": 0.5,
                "initialCDUpperRange": 1.5,
                "publicCDGroup": "Fungus_MeleeAttack",
                "stateIDs": [
                    "Charge",
                    "ChargeOverdose_BS",
                    "Charge_Loop",
                    "Charge_AS"
                ],
                "flagTargetReachable": "11",
                "flagSelfOnTemplateCollider": "01",
                "flagSelfInZone": "11",
                "flagTargetInZone": "11"
            },
            "521": {
                "name": "ChargeDecay",
                "castCondition": {
                    "pose": [
                        521
                    ],
                    "needReInitCD": true,
                    "pickRangeMin": 2.0,
                    "pickRangeMax": 16.0,
                    "pickRangeYMax": 0.5,
                    "pickRangeYMin": -0.800000011920929,
                    "EGOPMPIMDDJ": "RangeXZ_Y",
                    "GMHBCPCABGE": {
                        "CNKLPKFGBJI": 8.0,
                        "PIHAKJOLAFB": -0.5,
                        "JOBPJGPBHKG": 0.800000011920929
                    }
                },
                "cd": 4.0,
                "cdUpperRange": 4.0,
                "initialCD": 3.0,
                "initialCDUpperRange": 3.0,
                "publicCDGroup": "Fungus_MeleeAttack",
                "stateIDs": [
                    "Charge",
                    "ChargeDecay_BS",
                    "ChargeDecay_Loop",
                    "Charge_AS"
                ],
                "flagTargetReachable": "11",
                "flagSelfOnTemplateCollider": "01",
                "flagSelfInZone": "11",
                "flagTargetInZone": "11"
            },
            "502": {
                "name": "DiveAttackNormal",
                "priority": 1,
                "castCondition": {
                    "pose": [
                        502
                    ],
                    "needReInitCD": true,
                    "pickRangeMax": 16.0,
                    "pickRangeYMax": 9.0,
                    "pickRangeYMin": 1.0,
                    "globalValues": [
                        {
                            "max": 9.0
                        }
                    ],
                    "EGOPMPIMDDJ": "RangeXZ_Y",
                    "GMHBCPCABGE": {
                        "CNKLPKFGBJI": 16.0,
                        "JOBPJGPBHKG": 8.0
                    }
                },
                "cd": 1.0,
                "cdUpperRange": 2.0,
                "initialCDUpperRange": 2.0,
                "publicCDGroup": "",
                "ignoreGCD": true,
                "stateIDs": [
                    "DiveAttack",
                    "DiveAttackNormal_BS"
                ],
                "flagTargetReachable": "11",
                "flagSelfOnTemplateCollider": "01",
                "flagSelfInZone": "11",
                "flagTargetInZone": "11"
            },
            "512": {
                "name": "DiveAttackOverdose",
                "priority": 1,
                "castCondition": {
                    "pose": [
                        512
                    ],
                    "needReInitCD": true,
                    "pickRangeMax": 16.0,
                    "pickRangeYMax": 9.0,
                    "pickRangeYMin": 1.0,
                    "globalValues": [
                        {
                            "max": 9.0
                        }
                    ],
                    "EGOPMPIMDDJ": "RangeXZ_Y",
                    "GMHBCPCABGE": {
                        "CNKLPKFGBJI": 16.0,
                        "JOBPJGPBHKG": 8.0
                    }
                },
                "cd": 1.0,
                "cdUpperRange": 2.0,
                "initialCDUpperRange": 1.5,
                "publicCDGroup": "",
                "ignoreGCD": true,
                "stateIDs": [
                    "DiveAttack",
                    "DiveAttackOverdose_BS"
                ],
                "flagTargetReachable": "11",
                "flagSelfOnTemplateCollider": "01",
                "flagSelfInZone": "11",
                "flagTargetInZone": "11"
            },
            "522": {
                "name": "DiveAttackDecay",
                "priority": 1,
                "castCondition": {
                    "pose": [
                        522
                    ],
                    "needReInitCD": true
                },
                "publicCDGroup": "",
                "ignoreGCD": true,
                "stateIDs": [
                    "DiveAttack",
                    "DiveAttackDecay_BS"
                ],
                "flagTargetReachable": "11",
                "flagSelfOnTemplateCollider": "01",
                "flagSelfInZone": "11",
                "flagTargetInZone": "11"
            },
            "509": {
                "name": "Taunt01",
                "castCondition": {
                    "pose": [
                        501,
                        511,
                        502,
                        512
                    ],
                    "needReInitCD": true,
                    "pickRangeMin": 3.0,
                    "pickRangeMax": 15.0,
                    "pickRangeYMax": 2.0,
                    "globalValues": [
                        {
                            "max": 5.0
                        }
                    ]
                },
                "cd": 8.0,
                "cdUpperRange": 24.0,
                "initialCD": 5.5,
                "initialCDUpperRange": 12.0,
                "publicCDGroup": "",
                "triggerGCD": false,
                "stateIDs": [
                    "Taunt"
                ],
                "flagTargetReachable": "11",
                "flagSelfOnTemplateCollider": "01",
                "flagSelfInZone": "11",
                "flagTargetInZone": "11"
            }
        },
        "skillGCD": 3.5,
        "returnToBornTactic": {
            "enable": true,
            "defaultSetting": {
                "spacial": true
            }
        },
        "spacialChaseTactic": {
            "enable": true,
            "condition": {
                "pose": [
                    501,
                    502,
                    511,
                    512,
                    521,
                    522
                ]
            },
            "defaultSetting": {
                "speedLevel": 2,
                "chaseStartDistance": 5.0,
                "chaseStopDistance": 2.0,
                "yOffsetMin": 0.0,
                "yOffsetMax": 1.0
            }
        },
        "spacialAdjustTactic": {
            "enable": true,
            "condition": {
                "pose": [
                    501,
                    502,
                    511,
                    512,
                    521,
                    522
                ]
            },
            "defaultSetting": {
                "yLow": -0.5,
                "yHigh": 0.25
            },
            "specification": {
                "502": {
                    "yLow": 3.5
                },
                "512": {
                    "yLow": 3.5
                }
            }
        },
        "BIDFKACOANG": {
            "enable": true,
            "condition": {
                "pose": [
                    501,
                    502,
                    511,
                    512,
                    521,
                    522
                ]
            },
            "defaultSetting": {
                "DEHEIMMPHDI": 1.0,
                "EBONJIMHCPK": 10.0,
                "restTimeMin": 0.0,
                "restTimeMax": 1.0,
                "facingMoveTurnInterval": 3.0,
                "facingMoveMinAvoidanceVelecity": 0.5,
                "obstacleDetectRange": 1.5,
                "MJAOKJCFBHP": 3.0,
                "FLKGGDIJOJI": {
                    "stop": 0.0,
                    "forward": 0.5,
                    "IALKABGPIDA": 0.10000000149011612,
                    "GMCIECDDLEH": 0.20000000298023224,
                    "OGHCPKHBGJL": 0.6000000238418579,
                    "DLCIBHJCNEA": 0.0,
                    "PMNPOAIDPPF": 0.699999988079071
                },
                "JAELKKCDIHJ": 0.5,
                "FBINFBDGNAJ": true
            },
            "specification": {
                "502": {
                    "DEHEIMMPHDI": 4.0,
                    "EBONJIMHCPK": 8.0,
                    "restTimeMin": 2.0,
                    "restTimeMax": 6.0,
                    "facingMoveTurnInterval": 4.0,
                    "facingMoveMinAvoidanceVelecity": 0.5,
                    "obstacleDetectRange": 1.5,
                    "MJAOKJCFBHP": 3.0,
                    "FLKGGDIJOJI": {
                        "stop": 0.0,
                        "forward": 0.5,
                        "IALKABGPIDA": 1.0,
                        "GBPLNAKAJOG": 1.5,
                        "FJOJFPHCABP": 4.0,
                        "EOLFLAADICG": 1.5,
                        "IIDBBAADGFF": 4.0,
                        "AABINCLFOBD": 2.5,
                        "HKDENCMEBCN": 8.0,
                        "PGAKGDHIBPG": 2.5,
                        "PDHJPCALOOJ": 8.0,
                        "GMCIECDDLEH": 0.5,
                        "KGMDEPLONFG": 1.0,
                        "OGHCPKHBGJL": 4.5,
                        "DLCIBHJCNEA": 4.0,
                        "PMNPOAIDPPF": 8.0
                    },
                    "JAELKKCDIHJ": 0.5,
                    "FBINFBDGNAJ": true
                },
                "512": {
                    "DEHEIMMPHDI": 4.0,
                    "EBONJIMHCPK": 8.0,
                    "restTimeMin": 2.0,
                    "restTimeMax": 6.0,
                    "facingMoveTurnInterval": 4.0,
                    "facingMoveMinAvoidanceVelecity": 0.5,
                    "obstacleDetectRange": 1.5,
                    "MJAOKJCFBHP": 3.0,
                    "FLKGGDIJOJI": {
                        "stop": 0.0,
                        "forward": 0.5,
                        "IALKABGPIDA": 1.0,
                        "GBPLNAKAJOG": 1.5,
                        "FJOJFPHCABP": 4.0,
                        "EOLFLAADICG": 1.5,
                        "IIDBBAADGFF": 4.0,
                        "AABINCLFOBD": 2.5,
                        "HKDENCMEBCN": 8.0,
                        "PGAKGDHIBPG": 2.5,
                        "PDHJPCALOOJ": 8.0,
                        "GMCIECDDLEH": 0.5,
                        "KGMDEPLONFG": 1.0,
                        "OGHCPKHBGJL": 4.5,
                        "DLCIBHJCNEA": 0.5,
                        "PMNPOAIDPPF": 8.0
                    },
                    "JAELKKCDIHJ": 0.5,
                    "FBINFBDGNAJ": true
                },
                "521": {
                    "DEHEIMMPHDI": 0.0,
                    "EBONJIMHCPK": 2.0,
                    "restTimeMin": 2.0,
                    "restTimeMax": 6.0,
                    "facingMoveTurnInterval": 4.0,
                    "facingMoveMinAvoidanceVelecity": 0.5,
                    "obstacleDetectRange": 1.5,
                    "MJAOKJCFBHP": 3.0,
                    "FLKGGDIJOJI": {
                        "stop": 0.0,
                        "forward": 0.5,
                        "IALKABGPIDA": 0.0,
                        "GBPLNAKAJOG": 1.5,
                        "FJOJFPHCABP": 4.0,
                        "EOLFLAADICG": 1.5,
                        "IIDBBAADGFF": 4.0,
                        "AABINCLFOBD": 2.5,
                        "HKDENCMEBCN": 8.0,
                        "PGAKGDHIBPG": 2.5,
                        "PDHJPCALOOJ": 8.0,
                        "GMCIECDDLEH": 0.5,
                        "KGMDEPLONFG": 1.0,
                        "OGHCPKHBGJL": 0.0,
                        "DLCIBHJCNEA": -0.5,
                        "PMNPOAIDPPF": 0.25
                    },
                    "JAELKKCDIHJ": 0.5,
                    "FBINFBDGNAJ": true
                },
                "522": {
                    "DEHEIMMPHDI": 0.0,
                    "EBONJIMHCPK": 2.0,
                    "restTimeMin": 2.0,
                    "restTimeMax": 6.0,
                    "facingMoveTurnInterval": 4.0,
                    "facingMoveMinAvoidanceVelecity": 0.5,
                    "obstacleDetectRange": 1.5,
                    "MJAOKJCFBHP": 3.0,
                    "FLKGGDIJOJI": {
                        "stop": 0.0,
                        "forward": 0.5,
                        "IALKABGPIDA": 0.0,
                        "GBPLNAKAJOG": 1.5,
                        "FJOJFPHCABP": 4.0,
                        "EOLFLAADICG": 1.5,
                        "IIDBBAADGFF": 4.0,
                        "AABINCLFOBD": 2.5,
                        "HKDENCMEBCN": 8.0,
                        "PGAKGDHIBPG": 2.5,
                        "PDHJPCALOOJ": 8.0,
                        "GMCIECDDLEH": 0.5,
                        "KGMDEPLONFG": 1.0,
                        "OGHCPKHBGJL": 1.5,
                        "DLCIBHJCNEA": 0.5,
                        "PMNPOAIDPPF": 8.0
                    },
                    "JAELKKCDIHJ": 0.5,
                    "FBINFBDGNAJ": true
                }
            }
        }
    },
    "inputKeys": [
        {
            "keyID": 301,
            "inputKeyCode": 257,
            "abilityName": ""
        },
        {
            "keyID": 501,
            "inputKeyCode": 258,
            "abilityName": ""
        },
        {
            "keyID": 502,
            "inputKeyCode": 259,
            "abilityName": ""
        },
        {
            "keyID": 102,
            "inputKeyCode": 260,
            "abilityName": ""
        },
        {
            "keyID": 103,
            "inputKeyCode": 261,
            "abilityName": ""
        },
        {
            "keyID": 512,
            "inputKeyCode": 262,
            "abilityName": ""
        },
        {
            "keyID": 321,
            "inputKeyCode": 263,
            "abilityName": ""
        },
        {
            "keyID": 521,
            "inputKeyCode": 264,
            "abilityName": ""
        },
        {
            "keyID": 522,
            "inputKeyCode": 265,
            "abilityName": ""
        },
        {
            "keyID": 9997,
            "inputKeyCode": 266,
            "abilityName": ""
        },
        {
            "keyID": 9998,
            "inputKeyCode": 267,
            "abilityName": ""
        },
        {
            "keyID": 9999,
            "inputKeyCode": 268,
            "abilityName": ""
        },
        {
            "keyID": 904,
            "inputKeyCode": 269,
            "abilityName": ""
        },
        {
            "keyID": 905,
            "inputKeyCode": 270,
            "abilityName": ""
        },
        {
            "keyID": 906,
            "inputKeyCode": 271,
            "abilityName": ""
        },
        {
            "keyID": 907,
            "inputKeyCode": 272,
            "abilityName": ""
        },
        {
            "keyID": 302,
            "inputKeyCode": 273,
            "abilityName": ""
        },
        {
            "keyID": 104,
            "inputKeyCode": 274,
            "abilityName": ""
        }
    ],
    "move": {
        "$type": "ConfigAnimatorMove",
        "JOMDICJAIPD": [
            {
                "PGCNADDBDAE": 9.0,
                "ELDDGPIPLNH": "DownToGroundAndWaterOnlyInAir",
                "JLGMAAACDIF": "RaycastBottom"
            }
        ],
        "facingMove": "ForwardBackward",
        "MGINFMAIBMC": "AirBlend3D",
        "monsterSizeType": "SlimeType",
        "DOPFNDGDHLK": [
            "Launch_Loop"
        ],
        "PMGLKDCEPOI": [
            "Drop_Loop"
        ],
        "JPPHCOMAPME": true
    },
    "audio": {
        "CBJGDOAHMDC": "",
        "animAudio": {
            "onTransitionIn": [
                {
                    "currentStateName": "ChargeNormal_Loop",
                    "audioEvent": {
                        "text": "Play_sfx_monster_Fungus_Amanita_Unu_Svarita_Ice_charge_Loop"
                    },
                    "otherStateNames": [
                        "ChargeNormal_Loop"
                    ],
                    "usage": "Except"
                },
                {
                    "currentStateName": "ChargeOverdose01_Loop",
                    "audioEvent": {
                        "text": "Play_sfx_monster_Fungus_Amanita_Unu_Svarita_Ice_charge_Loop"
                    },
                    "otherStateNames": [
                        "ChargeOverdose01_Loop"
                    ],
                    "usage": "Except"
                },
                {
                    "currentStateName": "ChargeOverdose02_Loop",
                    "audioEvent": {
                        "text": "Play_sfx_monster_Fungus_Amanita_Unu_Svarita_Ice_charge_Loop"
                    },
                    "otherStateNames": [
                        "ChargeOverdose02_Loop"
                    ],
                    "usage": "Except"
                },
                {
                    "currentStateName": "ChargeOverdose03_Loop",
                    "audioEvent": {
                        "text": "Play_sfx_monster_Fungus_Amanita_Unu_Svarita_Ice_charge_Loop"
                    },
                    "otherStateNames": [
                        "ChargeOverdose03_Loop"
                    ],
                    "usage": "Except"
                },
                {
                    "currentStateName": "ChargeDecay_Loop",
                    "audioEvent": {
                        "text": "Play_sfx_monster_Fungus_Amanita_Unu_Svarita_Ice_chargeDecay_Loop"
                    },
                    "otherStateNames": [
                        "ChargeDecay_Loop"
                    ],
                    "usage": "Except"
                },
                {
                    "currentStateName": "DiveAttackNormal_Loop",
                    "audioEvent": {
                        "text": "Play_sfx_monster_Fungus_Amanita_Unu_Svarita_Ice_diveAttack_Loop"
                    },
                    "otherStateNames": [
                        "DiveAttackNormal_Loop"
                    ],
                    "usage": "Except"
                },
                {
                    "currentStateName": "DiveAttackDecay_Loop",
                    "audioEvent": {
                        "text": "Play_sfx_monster_Fungus_Amanita_Unu_Svarita_Ice_diveAttackDecay_Loop"
                    },
                    "otherStateNames": [
                        "DiveAttackDecay_Loop"
                    ],
                    "usage": "Except"
                },
                {
                    "currentStateName": "DiveAttackOverdose_Loop",
                    "audioEvent": {
                        "text": "Play_sfx_monster_Fungus_Amanita_Unu_Svarita_Ice_diveAttack_Loop"
                    },
                    "otherStateNames": [
                        "DiveAttackOverdose_Loop"
                    ],
                    "usage": "Except"
                }
            ],
            "onTransitionOut": [
                {
                    "currentStateName": "Absorb",
                    "audioEvent": {
                        "text": "Stop_sfx_monster_Fungus_Amanita_Unu_absorb"
                    }
                },
                {
                    "currentStateName": "Tease",
                    "audioEvent": {
                        "text": "Stop_sfx_monster_Fungus_Amanita_Unu_tease"
                    }
                },
                {
                    "currentStateName": "ChargeNormal_Loop",
                    "audioEvent": {
                        "text": "Stop_sfx_monster_Fungus_Amanita_Unu_Svarita_Ice_charge_Loop"
                    },
                    "otherStateNames": [
                        "ChargeNormal_Loop"
                    ],
                    "usage": "Except"
                },
                {
                    "currentStateName": "ChargeOverdose01_Loop",
                    "audioEvent": {
                        "text": "Stop_sfx_monster_Fungus_Amanita_Unu_Svarita_Ice_charge_Loop"
                    },
                    "otherStateNames": [
                        "ChargeOverdose01_Loop"
                    ],
                    "usage": "Except"
                },
                {
                    "currentStateName": "ChargeOverdose02_Loop",
                    "audioEvent": {
                        "text": "Stop_sfx_monster_Fungus_Amanita_Unu_Svarita_Ice_charge_Loop"
                    },
                    "otherStateNames": [
                        "ChargeOverdose02_Loop"
                    ],
                    "usage": "Except"
                },
                {
                    "currentStateName": "ChargeOverdose03_Loop",
                    "audioEvent": {
                        "text": "Stop_sfx_monster_Fungus_Amanita_Unu_Svarita_Ice_charge_Loop"
                    },
                    "otherStateNames": [
                        "ChargeOverdose03_Loop"
                    ],
                    "usage": "Except"
                },
                {
                    "currentStateName": "ChargeDecay_Loop",
                    "audioEvent": {
                        "text": "Stop_sfx_monster_Fungus_Amanita_Unu_Svarita_Ice_chargeDecay_Loop"
                    },
                    "otherStateNames": [
                        "ChargeDecay_Loop"
                    ],
                    "usage": "Except"
                },
                {
                    "currentStateName": "DiveAttackNormal_Loop",
                    "audioEvent": {
                        "text": "Stop_sfx_monster_Fungus_Amanita_Unu_Svarita_Ice_diveAttack_Loop"
                    },
                    "otherStateNames": [
                        "DiveAttackNormal_Loop"
                    ],
                    "usage": "Except"
                },
                {
                    "currentStateName": "DiveAttackOverdose_Loop",
                    "audioEvent": {
                        "text": "Stop_sfx_monster_Fungus_Amanita_Unu_Svarita_Ice_diveAttack_Loop"
                    },
                    "otherStateNames": [
                        "DiveAttackOverdose_Loop"
                    ],
                    "usage": "Except"
                },
                {
                    "currentStateName": "DiveAttackDecay_Loop",
                    "audioEvent": {
                        "text": "Stop_sfx_monster_Fungus_Amanita_Unu_Svarita_Ice_diveAttackDecay_Loop"
                    },
                    "otherStateNames": [
                        "DiveAttackDecay_Loop"
                    ],
                    "usage": "Except"
                }
            ]
        }
    }
}